%!PS-Adobe-3.0 EPSF-3.0
%%Title: kidney6.eps
%%Creator: matplotlib version 1.2.1, http://matplotlib.org/
%%CreationDate: Thu Jun 20 15:48:44 2013
%%Orientation: portrait
%%BoundingBox: 18 180 594 612
%%EndComments
%%BeginProlog
/mpldict 8 dict def
mpldict begin
/m { moveto } bind def
/l { lineto } bind def
/r { rlineto } bind def
/c { curveto } bind def
/cl { closepath } bind def
/box {
m
1 index 0 r
0 exch r
neg 0 r
cl
} bind def
/clipbox {
box
clip
newpath
} bind def
%!PS-Adobe-3.0 Resource-Font
%%Title: DejaVu Sans
%%Copyright: Copyright (c) 2003 by Bitstream, Inc. All Rights Reserved. Copyright (c) 2006 by Tavmjong Bah. All Rights Reserved. DejaVu changes are in public domain 
%%Creator: Converted from TrueType to type 3 by PPR
25 dict begin
/_d{bind def}bind def
/_m{moveto}_d
/_l{lineto}_d
/_cl{closepath eofill}_d
/_c{curveto}_d
/_sc{7 -1 roll{setcachedevice}{pop pop pop pop pop pop}ifelse}_d
/_e{exec}_d
/FontName /DejaVuSans def
/PaintType 0 def
/FontMatrix[.001 0 0 .001 0 0]def
/FontBBox[-1021 -415 1681 1167]def
/FontType 3 def
/Encoding [ /space /parenleft /parenright /period /zero /one /two /three /four /five /six /eight /C /D /F /a /b /c /d /e /f /g /i /l /m /n /o /r /s /t /u /v /y ] def
/FontInfo 10 dict dup begin
/FamilyName (DejaVu Sans) def
/FullName (DejaVu Sans) def
/Notice (Copyright (c) 2003 by Bitstream, Inc. All Rights Reserved. Copyright (c) 2006 by Tavmjong Bah. All Rights Reserved. DejaVu changes are in public domain ) def
/Weight (Book) def
/Version (Version 2.33) def
/ItalicAngle 0.0 def
/isFixedPitch false def
/UnderlinePosition -130 def
/UnderlineThickness 90 def
end readonly def
/CharStrings 33 dict dup begin
/space{318 0 0 0 0 0 _sc
}_d
/parenleft{390 0 86 -131 310 759 _sc
310 759 _m
266 683 234 609 213 536 _c
191 463 181 389 181 314 _c
181 238 191 164 213 91 _c
234 17 266 -56 310 -131 _c
232 -131 _l
183 -54 146 20 122 94 _c
98 168 86 241 86 314 _c
86 386 98 459 122 533 _c
146 607 182 682 232 759 _c
310 759 _l
_cl}_d
/parenright{390 0 80 -131 304 759 _sc
80 759 _m
158 759 _l
206 682 243 607 267 533 _c
291 459 304 386 304 314 _c
304 241 291 168 267 94 _c
243 20 206 -54 158 -131 _c
80 -131 _l
123 -56 155 17 177 91 _c
198 164 209 238 209 314 _c
209 389 198 463 177 536 _c
155 609 123 683 80 759 _c
_cl}_d
/period{318 0 107 0 210 124 _sc
107 124 _m
210 124 _l
210 0 _l
107 0 _l
107 124 _l
_cl}_d
/zero{636 0 66 -13 570 742 _sc
318 664 _m
267 664 229 639 203 589 _c
177 539 165 464 165 364 _c
165 264 177 189 203 139 _c
229 89 267 64 318 64 _c
369 64 407 89 433 139 _c
458 189 471 264 471 364 _c
471 464 458 539 433 589 _c
407 639 369 664 318 664 _c
318 742 _m
399 742 461 709 505 645 _c
548 580 570 486 570 364 _c
570 241 548 147 505 83 _c
461 19 399 -13 318 -13 _c
236 -13 173 19 130 83 _c
87 147 66 241 66 364 _c
66 486 87 580 130 645 _c
173 709 236 742 318 742 _c
_cl}_d
/one{636 0 110 0 544 729 _sc
124 83 _m
285 83 _l
285 639 _l
110 604 _l
110 694 _l
284 729 _l
383 729 _l
383 83 _l
544 83 _l
544 0 _l
124 0 _l
124 83 _l
_cl}_d
/two{{636 0 73 0 536 742 _sc
192 83 _m
536 83 _l
536 0 _l
73 0 _l
73 83 _l
110 121 161 173 226 239 _c
290 304 331 346 348 365 _c
380 400 402 430 414 455 _c
426 479 433 504 433 528 _c
433 566 419 598 392 622 _c
365 646 330 659 286 659 _c
255 659 222 653 188 643 _c
154 632 117 616 78 594 _c
78 694 _l
118 710 155 722 189 730 _c
223 738 255 742 284 742 _c
}_e{359 742 419 723 464 685 _c
509 647 532 597 532 534 _c
532 504 526 475 515 449 _c
504 422 484 390 454 354 _c
446 344 420 317 376 272 _c
332 227 271 164 192 83 _c
_cl}_e}_d
/three{{636 0 76 -13 556 742 _sc
406 393 _m
453 383 490 362 516 330 _c
542 298 556 258 556 212 _c
556 140 531 84 482 45 _c
432 6 362 -13 271 -13 _c
240 -13 208 -10 176 -4 _c
144 1 110 10 76 22 _c
76 117 _l
103 101 133 89 166 81 _c
198 73 232 69 268 69 _c
330 69 377 81 409 105 _c
441 129 458 165 458 212 _c
458 254 443 288 413 312 _c
383 336 341 349 287 349 _c
}_e{202 349 _l
202 430 _l
291 430 _l
339 430 376 439 402 459 _c
428 478 441 506 441 543 _c
441 580 427 609 401 629 _c
374 649 336 659 287 659 _c
260 659 231 656 200 650 _c
169 644 135 635 98 623 _c
98 711 _l
135 721 170 729 203 734 _c
235 739 266 742 296 742 _c
370 742 429 725 473 691 _c
517 657 539 611 539 553 _c
539 513 527 479 504 451 _c
481 423 448 403 406 393 _c
_cl}_e}_d
/four{636 0 49 0 580 729 _sc
378 643 _m
129 254 _l
378 254 _l
378 643 _l
352 729 _m
476 729 _l
476 254 _l
580 254 _l
580 172 _l
476 172 _l
476 0 _l
378 0 _l
378 172 _l
49 172 _l
49 267 _l
352 729 _l
_cl}_d
/five{{636 0 77 -13 549 729 _sc
108 729 _m
495 729 _l
495 646 _l
198 646 _l
198 467 _l
212 472 227 476 241 478 _c
255 480 270 482 284 482 _c
365 482 429 459 477 415 _c
525 370 549 310 549 234 _c
549 155 524 94 475 51 _c
426 8 357 -13 269 -13 _c
238 -13 207 -10 175 -6 _c
143 -1 111 6 77 17 _c
77 116 _l
106 100 136 88 168 80 _c
199 72 232 69 267 69 _c
}_e{323 69 368 83 401 113 _c
433 143 450 183 450 234 _c
450 284 433 324 401 354 _c
368 384 323 399 267 399 _c
241 399 214 396 188 390 _c
162 384 135 375 108 363 _c
108 729 _l
_cl}_e}_d
/six{{636 0 70 -13 573 742 _sc
330 404 _m
286 404 251 388 225 358 _c
199 328 186 286 186 234 _c
186 181 199 139 225 109 _c
251 79 286 64 330 64 _c
374 64 409 79 435 109 _c
461 139 474 181 474 234 _c
474 286 461 328 435 358 _c
409 388 374 404 330 404 _c
526 713 _m
526 623 _l
501 635 476 644 451 650 _c
425 656 400 659 376 659 _c
310 659 260 637 226 593 _c
}_e{192 549 172 482 168 394 _c
187 422 211 444 240 459 _c
269 474 301 482 336 482 _c
409 482 467 459 509 415 _c
551 371 573 310 573 234 _c
573 159 550 99 506 54 _c
462 9 403 -13 330 -13 _c
246 -13 181 19 137 83 _c
92 147 70 241 70 364 _c
70 479 97 571 152 639 _c
206 707 280 742 372 742 _c
396 742 421 739 447 735 _c
472 730 498 723 526 713 _c
_cl}_e}_d
/eight{{636 0 68 -13 568 742 _sc
318 346 _m
271 346 234 333 207 308 _c
180 283 167 249 167 205 _c
167 161 180 126 207 101 _c
234 76 271 64 318 64 _c
364 64 401 76 428 102 _c
455 127 469 161 469 205 _c
469 249 455 283 429 308 _c
402 333 365 346 318 346 _c
219 388 _m
177 398 144 418 120 447 _c
96 476 85 511 85 553 _c
85 611 105 657 147 691 _c
188 725 245 742 318 742 _c
}_e{390 742 447 725 489 691 _c
530 657 551 611 551 553 _c
551 511 539 476 515 447 _c
491 418 459 398 417 388 _c
464 377 501 355 528 323 _c
554 291 568 251 568 205 _c
568 134 546 80 503 43 _c
459 5 398 -13 318 -13 _c
237 -13 175 5 132 43 _c
89 80 68 134 68 205 _c
68 251 81 291 108 323 _c
134 355 171 377 219 388 _c
183 544 _m
183 506 194 476 218 455 _c
}_e{242 434 275 424 318 424 _c
360 424 393 434 417 455 _c
441 476 453 506 453 544 _c
453 582 441 611 417 632 _c
393 653 360 664 318 664 _c
275 664 242 653 218 632 _c
194 611 183 582 183 544 _c
_cl}_e}_d
/C{{698 0 56 -13 644 742 _sc
644 673 _m
644 569 _l
610 599 575 622 537 638 _c
499 653 460 661 418 661 _c
334 661 270 635 226 584 _c
182 533 160 460 160 364 _c
160 268 182 194 226 143 _c
270 92 334 67 418 67 _c
460 67 499 74 537 90 _c
575 105 610 128 644 159 _c
644 56 _l
609 32 572 15 534 4 _c
496 -7 455 -13 412 -13 _c
302 -13 215 20 151 87 _c
}_e{87 154 56 246 56 364 _c
56 481 87 573 151 641 _c
215 708 302 742 412 742 _c
456 742 497 736 535 725 _c
573 713 610 696 644 673 _c
_cl}_e}_d
/D{770 0 98 0 711 729 _sc
197 648 _m
197 81 _l
316 81 _l
416 81 490 103 537 149 _c
583 195 607 267 607 365 _c
607 463 583 534 537 580 _c
490 625 416 648 316 648 _c
197 648 _l
98 729 _m
301 729 _l
442 729 546 699 612 641 _c
678 582 711 490 711 365 _c
711 239 677 147 611 88 _c
545 29 441 0 301 0 _c
98 0 _l
98 729 _l
_cl}_d
/F{575 0 98 0 517 729 _sc
98 729 _m
517 729 _l
517 646 _l
197 646 _l
197 431 _l
486 431 _l
486 348 _l
197 348 _l
197 0 _l
98 0 _l
98 729 _l
_cl}_d
/a{{613 0 60 -13 522 560 _sc
343 275 _m
270 275 220 266 192 250 _c
164 233 150 205 150 165 _c
150 133 160 107 181 89 _c
202 70 231 61 267 61 _c
317 61 357 78 387 114 _c
417 149 432 196 432 255 _c
432 275 _l
343 275 _l
522 312 _m
522 0 _l
432 0 _l
432 83 _l
411 49 385 25 355 10 _c
325 -5 287 -13 243 -13 _c
187 -13 142 2 109 33 _c
76 64 60 106 60 159 _c
}_e{60 220 80 266 122 298 _c
163 329 224 345 306 345 _c
432 345 _l
432 354 _l
432 395 418 427 391 450 _c
364 472 326 484 277 484 _c
245 484 215 480 185 472 _c
155 464 127 453 100 439 _c
100 522 _l
132 534 164 544 195 550 _c
226 556 256 560 286 560 _c
365 560 424 539 463 498 _c
502 457 522 395 522 312 _c
_cl}_e}_d
/b{{635 0 91 -13 580 760 _sc
487 273 _m
487 339 473 390 446 428 _c
418 466 381 485 334 485 _c
286 485 249 466 222 428 _c
194 390 181 339 181 273 _c
181 207 194 155 222 117 _c
249 79 286 61 334 61 _c
381 61 418 79 446 117 _c
473 155 487 207 487 273 _c
181 464 _m
199 496 223 520 252 536 _c
281 552 316 560 356 560 _c
422 560 476 533 518 481 _c
559 428 580 359 580 273 _c
}_e{580 187 559 117 518 65 _c
476 13 422 -13 356 -13 _c
316 -13 281 -5 252 10 _c
223 25 199 49 181 82 _c
181 0 _l
91 0 _l
91 760 _l
181 760 _l
181 464 _l
_cl}_e}_d
/c{{550 0 55 -13 488 560 _sc
488 526 _m
488 442 _l
462 456 437 466 411 473 _c
385 480 360 484 334 484 _c
276 484 230 465 198 428 _c
166 391 150 339 150 273 _c
150 206 166 154 198 117 _c
230 80 276 62 334 62 _c
360 62 385 65 411 72 _c
437 79 462 90 488 104 _c
488 21 _l
462 9 436 0 410 -5 _c
383 -10 354 -13 324 -13 _c
242 -13 176 12 128 64 _c
}_e{79 115 55 185 55 273 _c
55 362 79 432 128 483 _c
177 534 244 560 330 560 _c
358 560 385 557 411 551 _c
437 545 463 537 488 526 _c
_cl}_e}_d
/d{{635 0 55 -13 544 760 _sc
454 464 _m
454 760 _l
544 760 _l
544 0 _l
454 0 _l
454 82 _l
435 49 411 25 382 10 _c
353 -5 319 -13 279 -13 _c
213 -13 159 13 117 65 _c
75 117 55 187 55 273 _c
55 359 75 428 117 481 _c
159 533 213 560 279 560 _c
319 560 353 552 382 536 _c
411 520 435 496 454 464 _c
148 273 _m
148 207 161 155 188 117 _c
215 79 253 61 301 61 _c
}_e{348 61 385 79 413 117 _c
440 155 454 207 454 273 _c
454 339 440 390 413 428 _c
385 466 348 485 301 485 _c
253 485 215 466 188 428 _c
161 390 148 339 148 273 _c
_cl}_e}_d
/e{{615 0 55 -13 562 560 _sc
562 296 _m
562 252 _l
149 252 _l
153 190 171 142 205 110 _c
238 78 284 62 344 62 _c
378 62 412 66 444 74 _c
476 82 509 95 541 113 _c
541 28 _l
509 14 476 3 442 -3 _c
408 -9 373 -13 339 -13 _c
251 -13 182 12 131 62 _c
80 112 55 181 55 268 _c
55 357 79 428 127 481 _c
175 533 241 560 323 560 _c
397 560 455 536 498 489 _c
}_e{540 441 562 377 562 296 _c
472 322 _m
471 371 457 410 431 440 _c
404 469 368 484 324 484 _c
274 484 234 469 204 441 _c
174 413 156 373 152 322 _c
472 322 _l
_cl}_e}_d
/f{352 0 23 0 371 760 _sc
371 760 _m
371 685 _l
285 685 _l
253 685 230 678 218 665 _c
205 652 199 629 199 595 _c
199 547 _l
347 547 _l
347 477 _l
199 477 _l
199 0 _l
109 0 _l
109 477 _l
23 477 _l
23 547 _l
109 547 _l
109 585 _l
109 645 123 690 151 718 _c
179 746 224 760 286 760 _c
371 760 _l
_cl}_d
/g{{635 0 55 -207 544 560 _sc
454 280 _m
454 344 440 395 414 431 _c
387 467 349 485 301 485 _c
253 485 215 467 188 431 _c
161 395 148 344 148 280 _c
148 215 161 165 188 129 _c
215 93 253 75 301 75 _c
349 75 387 93 414 129 _c
440 165 454 215 454 280 _c
544 68 _m
544 -24 523 -93 482 -139 _c
440 -184 377 -207 292 -207 _c
260 -207 231 -204 203 -200 _c
175 -195 147 -188 121 -178 _c
}_e{121 -91 _l
147 -105 173 -115 199 -122 _c
225 -129 251 -133 278 -133 _c
336 -133 380 -117 410 -87 _c
439 -56 454 -10 454 52 _c
454 96 _l
435 64 411 40 382 24 _c
353 8 319 0 279 0 _c
211 0 157 25 116 76 _c
75 127 55 195 55 280 _c
55 364 75 432 116 483 _c
157 534 211 560 279 560 _c
319 560 353 552 382 536 _c
411 520 435 496 454 464 _c
454 547 _l
544 547 _l
}_e{544 68 _l
_cl}_e}_d
/i{278 0 94 0 184 760 _sc
94 547 _m
184 547 _l
184 0 _l
94 0 _l
94 547 _l
94 760 _m
184 760 _l
184 646 _l
94 646 _l
94 760 _l
_cl}_d
/l{278 0 94 0 184 760 _sc
94 760 _m
184 760 _l
184 0 _l
94 0 _l
94 760 _l
_cl}_d
/m{{974 0 91 0 889 560 _sc
520 442 _m
542 482 569 511 600 531 _c
631 550 668 560 711 560 _c
767 560 811 540 842 500 _c
873 460 889 403 889 330 _c
889 0 _l
799 0 _l
799 327 _l
799 379 789 418 771 444 _c
752 469 724 482 686 482 _c
639 482 602 466 575 435 _c
548 404 535 362 535 309 _c
535 0 _l
445 0 _l
445 327 _l
445 379 435 418 417 444 _c
398 469 369 482 331 482 _c
}_e{285 482 248 466 221 435 _c
194 404 181 362 181 309 _c
181 0 _l
91 0 _l
91 547 _l
181 547 _l
181 462 _l
201 495 226 520 255 536 _c
283 552 317 560 357 560 _c
397 560 430 550 458 530 _c
486 510 506 480 520 442 _c
_cl}_e}_d
/n{634 0 91 0 549 560 _sc
549 330 _m
549 0 _l
459 0 _l
459 327 _l
459 379 448 417 428 443 _c
408 469 378 482 338 482 _c
289 482 251 466 223 435 _c
195 404 181 362 181 309 _c
181 0 _l
91 0 _l
91 547 _l
181 547 _l
181 462 _l
202 494 227 519 257 535 _c
286 551 320 560 358 560 _c
420 560 468 540 500 501 _c
532 462 549 405 549 330 _c
_cl}_d
/o{612 0 55 -13 557 560 _sc
306 484 _m
258 484 220 465 192 427 _c
164 389 150 338 150 273 _c
150 207 163 156 191 118 _c
219 80 257 62 306 62 _c
354 62 392 80 420 118 _c
448 156 462 207 462 273 _c
462 337 448 389 420 427 _c
392 465 354 484 306 484 _c
306 560 _m
384 560 445 534 490 484 _c
534 433 557 363 557 273 _c
557 183 534 113 490 63 _c
445 12 384 -13 306 -13 _c
227 -13 165 12 121 63 _c
77 113 55 183 55 273 _c
55 363 77 433 121 484 _c
165 534 227 560 306 560 _c
_cl}_d
/r{411 0 91 0 411 560 _sc
411 463 _m
401 469 390 473 378 476 _c
366 478 353 480 339 480 _c
288 480 249 463 222 430 _c
194 397 181 350 181 288 _c
181 0 _l
91 0 _l
91 547 _l
181 547 _l
181 462 _l
199 495 224 520 254 536 _c
284 552 321 560 365 560 _c
371 560 378 559 386 559 _c
393 558 401 557 411 555 _c
411 463 _l
_cl}_d
/s{{521 0 54 -13 472 560 _sc
443 531 _m
443 446 _l
417 458 391 468 364 475 _c
336 481 308 485 279 485 _c
234 485 200 478 178 464 _c
156 450 145 430 145 403 _c
145 382 153 366 169 354 _c
185 342 217 330 265 320 _c
296 313 _l
360 299 405 279 432 255 _c
458 230 472 195 472 151 _c
472 100 452 60 412 31 _c
372 1 316 -13 246 -13 _c
216 -13 186 -10 154 -5 _c
}_e{122 0 89 8 54 20 _c
54 113 _l
87 95 120 82 152 74 _c
184 65 216 61 248 61 _c
290 61 323 68 346 82 _c
368 96 380 117 380 144 _c
380 168 371 187 355 200 _c
339 213 303 226 247 238 _c
216 245 _l
160 257 119 275 95 299 _c
70 323 58 356 58 399 _c
58 450 76 490 112 518 _c
148 546 200 560 268 560 _c
301 560 332 557 362 552 _c
391 547 418 540 443 531 _c
}_e{_cl}_e}_d
/t{392 0 27 0 368 702 _sc
183 702 _m
183 547 _l
368 547 _l
368 477 _l
183 477 _l
183 180 _l
183 135 189 106 201 94 _c
213 81 238 75 276 75 _c
368 75 _l
368 0 _l
276 0 _l
206 0 158 13 132 39 _c
106 65 93 112 93 180 _c
93 477 _l
27 477 _l
27 547 _l
93 547 _l
93 702 _l
183 702 _l
_cl}_d
/u{634 0 85 -13 543 560 _sc
85 216 _m
85 547 _l
175 547 _l
175 219 _l
175 167 185 129 205 103 _c
225 77 255 64 296 64 _c
344 64 383 79 411 110 _c
439 141 453 183 453 237 _c
453 547 _l
543 547 _l
543 0 _l
453 0 _l
453 84 _l
431 50 405 26 377 10 _c
348 -5 315 -13 277 -13 _c
214 -13 166 6 134 45 _c
101 83 85 140 85 216 _c
311 560 _m
311 560 _l
_cl}_d
/v{592 0 30 0 562 547 _sc
30 547 _m
125 547 _l
296 88 _l
467 547 _l
562 547 _l
357 0 _l
235 0 _l
30 547 _l
_cl}_d
/y{592 0 30 -207 562 547 _sc
322 -50 _m
296 -114 271 -157 247 -177 _c
223 -197 191 -207 151 -207 _c
79 -207 _l
79 -132 _l
132 -132 _l
156 -132 175 -126 189 -114 _c
203 -102 218 -75 235 -31 _c
251 9 _l
30 547 _l
125 547 _l
296 119 _l
467 547 _l
562 547 _l
322 -50 _l
_cl}_d
end readonly def

/BuildGlyph
 {exch begin
 CharStrings exch
 2 copy known not{pop /.notdef}if
 true 3 1 roll get exec
 end}_d

/BuildChar {
 1 index /Encoding get exch get
 1 index /BuildGlyph get exec
}_d

FontName currentdict end definefont pop
end
%%EndProlog
mpldict begin
18 180 translate
576 432 0 0 clipbox
gsave
0 0 m
576 0 l
576 432 l
0 432 l
cl
1.000 setgray
fill
grestore
gsave
72 43.2 m
518.4 43.2 l
518.4 388.8 l
72 388.8 l
cl
1.000 setgray
fill
grestore
3.000 setlinewidth
1 setlinejoin
2 setlinecap
[] 0 setdash
0.031 0.114 0.345 setrgbcolor
gsave
446.4 345.6 72 43.2 clipbox
95.9711 43.2 m
95.9711 43.4071 l
101.964 43.4071 l
101.964 44.6495 l
107.957 44.6495 l
107.957 46.7202 l
113.949 46.7202 l
113.949 49.4121 l
119.942 49.4121 l
119.942 54.3818 l
125.935 54.3818 l
125.935 61.6292 l
131.928 61.6292 l
131.928 70.9474 l
137.92 70.9474 l
137.92 79.4373 l
143.913 79.4373 l
143.913 91.0332 l
149.906 91.0332 l
149.906 104.7 l
155.899 104.7 l
155.899 121.887 l
161.892 121.887 l
161.892 139.695 l
167.884 139.695 l
167.884 157.089 l
173.877 157.089 l
173.877 177.796 l
179.87 177.796 l
179.87 196.432 l
185.863 196.432 l
185.863 215.689 l
191.855 215.689 l
191.855 236.396 l
197.848 236.396 l
197.848 255.861 l
203.841 255.861 l
203.841 273.048 l
209.834 273.048 l
209.834 290.235 l
215.826 290.235 l
215.826 303.901 l
221.819 303.901 l
221.819 315.497 l
227.812 315.497 l
227.812 328.336 l
233.805 328.336 l
233.805 338.068 l
239.797 338.068 l
239.797 347.386 l
245.79 347.386 l
245.79 354.012 l
251.783 354.012 l
251.783 359.189 l
257.776 359.189 l
257.776 364.366 l
263.769 364.366 l
263.769 368.507 l
269.761 368.507 l
269.761 373.27 l
275.754 373.27 l
275.754 376.997 l
281.747 376.997 l
281.747 379.275 l
287.74 379.275 l
287.74 382.795 l
293.732 382.795 l
293.732 384.866 l
299.725 384.866 l
299.725 386.108 l
305.718 386.108 l
305.718 386.729 l
311.711 386.729 l
311.711 387.765 l
317.703 387.765 l
317.703 388.386 l
323.696 388.386 l
323.696 388.593 l
329.689 388.593 l
329.689 388.8 l
stroke
grestore
0.133 0.369 0.659 setrgbcolor
gsave
446.4 345.6 72 43.2 clipbox
107.957 43.2 m
107.957 43.5961 l
113.949 43.5961 l
113.949 43.7942 l
119.942 43.7942 l
119.942 43.9922 l
125.935 43.9922 l
125.935 44.9825 l
131.928 44.9825 l
131.928 46.3688 l
137.92 46.3688 l
137.92 48.9435 l
143.913 48.9435 l
143.913 53.3006 l
149.906 53.3006 l
149.906 58.648 l
155.899 58.648 l
155.899 64.5896 l
161.892 64.5896 l
161.892 71.1253 l
167.884 71.1253 l
167.884 79.4434 l
173.877 79.4434 l
173.877 88.3558 l
179.87 88.3558 l
179.87 98.0603 l
185.863 98.0603 l
185.863 108.557 l
191.855 108.557 l
191.855 119.648 l
197.848 119.648 l
197.848 133.908 l
203.841 133.908 l
203.841 148.563 l
209.834 148.563 l
209.834 160.05 l
215.826 160.05 l
215.826 174.904 l
221.819 174.904 l
221.819 191.739 l
227.812 191.739 l
227.812 209.761 l
233.805 209.761 l
233.805 225.804 l
239.797 225.804 l
239.797 239.865 l
245.79 239.865 l
245.79 257.69 l
251.783 257.69 l
251.783 272.148 l
257.776 272.148 l
257.776 284.823 l
263.769 284.823 l
263.769 295.716 l
269.761 295.716 l
269.761 305.42 l
275.754 305.42 l
275.754 313.54 l
281.747 313.54 l
281.747 324.037 l
287.74 324.037 l
287.74 332.355 l
293.732 332.355 l
293.732 341.07 l
299.725 341.07 l
299.725 347.803 l
305.718 347.803 l
305.718 352.755 l
311.711 352.755 l
311.711 359.488 l
317.703 359.488 l
317.703 364.638 l
323.696 364.638 l
323.696 369.787 l
329.689 369.787 l
329.689 373.55 l
335.682 373.55 l
335.682 376.719 l
341.675 376.719 l
341.675 378.897 l
347.667 378.897 l
347.667 380.878 l
353.66 380.878 l
353.66 382.462 l
359.653 382.462 l
359.653 383.849 l
365.646 383.849 l
365.646 384.641 l
371.638 384.641 l
371.638 385.433 l
377.631 385.433 l
377.631 385.829 l
383.624 385.829 l
383.624 386.225 l
389.617 386.225 l
389.617 386.621 l
395.609 386.621 l
395.609 387.216 l
401.602 387.216 l
401.602 387.81 l
407.595 387.81 l
407.595 388.206 l
413.588 388.206 l
413.588 388.404 l
419.58 388.404 l
419.58 388.602 l
431.566 388.602 l
431.566 388.8 l
stroke
grestore
0.255 0.714 0.769 setrgbcolor
gsave
446.4 345.6 72 43.2 clipbox
119.942 43.2 m
119.942 43.3965 l
131.928 43.3965 l
131.928 43.593 l
137.92 43.593 l
137.92 44.1824 l
143.913 44.1824 l
143.913 44.5753 l
149.906 44.5753 l
149.906 45.3612 l
155.899 45.3612 l
155.899 46.3436 l
161.892 46.3436 l
161.892 47.1295 l
167.884 47.1295 l
167.884 49.6837 l
173.877 49.6837 l
173.877 53.0238 l
179.87 53.0238 l
179.87 56.5603 l
185.863 56.5603 l
185.863 62.0616 l
191.855 62.0616 l
191.855 69.1347 l
197.848 69.1347 l
197.848 77.5832 l
203.841 77.5832 l
203.841 87.014 l
209.834 87.014 l
209.834 96.4448 l
215.826 96.4448 l
215.826 107.644 l
221.819 107.644 l
221.819 120.022 l
227.812 120.022 l
227.812 129.256 l
233.805 129.256 l
233.805 144.385 l
239.797 144.385 l
239.797 159.513 l
245.79 159.513 l
245.79 175.231 l
251.783 175.231 l
251.783 190.753 l
257.776 190.753 l
257.776 205.292 l
263.769 205.292 l
263.769 222.778 l
269.761 222.778 l
269.761 238.496 l
275.754 238.496 l
275.754 252.446 l
281.747 252.446 l
281.747 265.414 l
287.74 265.414 l
287.74 277.399 l
293.732 277.399 l
293.732 289.187 l
299.725 289.187 l
299.725 300.19 l
305.718 300.19 l
305.718 310.603 l
311.711 310.603 l
311.711 321.213 l
317.703 321.213 l
317.703 330.84 l
323.696 330.84 l
323.696 339.288 l
329.689 339.288 l
329.689 346.951 l
335.682 346.951 l
335.682 353.042 l
341.675 353.042 l
341.675 358.543 l
347.667 358.543 l
347.667 363.062 l
353.66 363.062 l
353.66 367.581 l
359.653 367.581 l
359.653 370.724 l
365.646 370.724 l
365.646 373.868 l
371.638 373.868 l
371.638 377.011 l
377.631 377.011 l
377.631 378.19 l
383.624 378.19 l
383.624 379.762 l
389.617 379.762 l
389.617 380.941 l
395.609 380.941 l
395.609 381.923 l
401.602 381.923 l
401.602 382.906 l
407.595 382.906 l
407.595 383.888 l
413.588 383.888 l
413.588 384.478 l
419.58 384.478 l
419.58 385.067 l
425.573 385.067 l
425.573 385.853 l
431.566 385.853 l
431.566 386.049 l
437.559 386.049 l
437.559 386.442 l
443.552 386.442 l
443.552 386.835 l
449.544 386.835 l
449.544 387.425 l
455.537 387.425 l
455.537 387.818 l
461.53 387.818 l
461.53 388.014 l
467.523 388.014 l
467.523 388.407 l
473.515 388.407 l
473.515 388.604 l
479.508 388.604 l
479.508 388.8 l
stroke
grestore
0.780 0.914 0.706 setrgbcolor
gsave
446.4 345.6 72 43.2 clipbox
131.928 43.2 m
131.928 43.4168 l
137.92 43.4168 l
137.92 43.6336 l
155.899 43.6336 l
155.899 43.8504 l
161.892 43.8504 l
161.892 44.2841 l
167.884 44.2841 l
167.884 45.3681 l
173.877 45.3681 l
173.877 46.8858 l
179.87 46.8858 l
179.87 47.9699 l
185.863 47.9699 l
185.863 50.5716 l
191.855 50.5716 l
191.855 54.4743 l
197.848 54.4743 l
197.848 59.461 l
203.841 59.461 l
203.841 64.2309 l
209.834 64.2309 l
209.834 68.7839 l
215.826 68.7839 l
215.826 74.6379 l
221.819 74.6379 l
221.819 83.5272 l
227.812 83.5272 l
227.812 92.6334 l
233.805 92.6334 l
233.805 103.257 l
239.797 103.257 l
239.797 115.832 l
245.79 115.832 l
245.79 125.589 l
251.783 125.589 l
251.783 139.899 l
257.776 139.899 l
257.776 153.341 l
263.769 153.341 l
263.769 166.133 l
269.761 166.133 l
269.761 180.659 l
275.754 180.659 l
275.754 193.451 l
281.747 193.451 l
281.747 208.628 l
287.74 208.628 l
287.74 222.071 l
293.732 222.071 l
293.732 237.898 l
299.725 237.898 l
299.725 253.292 l
305.718 253.292 l
305.718 268.252 l
311.711 268.252 l
311.711 281.478 l
317.703 281.478 l
317.703 293.619 l
323.696 293.619 l
323.696 300.991 l
329.689 300.991 l
329.689 311.615 l
335.682 311.615 l
335.682 319.42 l
341.675 319.42 l
341.675 328.309 l
347.667 328.309 l
347.667 336.331 l
353.66 336.331 l
353.66 345.004 l
359.653 345.004 l
359.653 353.676 l
365.646 353.676 l
365.646 358.446 l
371.638 358.446 l
371.638 362.566 l
377.631 362.566 l
377.631 366.685 l
383.624 366.685 l
383.624 370.588 l
389.617 370.588 l
389.617 374.49 l
395.609 374.49 l
395.609 377.526 l
401.602 377.526 l
401.602 380.344 l
407.595 380.344 l
407.595 382.512 l
413.588 382.512 l
413.588 384.03 l
419.58 384.03 l
419.58 384.681 l
425.573 384.681 l
425.573 385.765 l
431.566 385.765 l
431.566 386.198 l
437.559 386.198 l
437.559 386.849 l
443.552 386.849 l
443.552 387.065 l
449.544 387.065 l
449.544 387.282 l
455.537 387.282 l
455.537 387.716 l
461.53 387.716 l
461.53 388.15 l
467.523 388.15 l
467.523 388.366 l
473.515 388.366 l
473.515 388.583 l
485.501 388.583 l
485.501 388.8 l
stroke
grestore
0.500 setlinewidth
0 setlinecap
0.000 setgray
gsave
/o {
gsave
newpath
translate
0.5 setlinewidth
1 setlinejoin
0 setlinecap
0 0 m
0 4 l
gsave
0.000 setgray
fill
grestore
stroke
grestore
} bind def
72 43.2 o
grestore
gsave
/o {
gsave
newpath
translate
0.5 setlinewidth
1 setlinejoin
0 setlinecap
0 0 m
0 -4 l
gsave
0.000 setgray
fill
grestore
stroke
grestore
} bind def
72 388.8 o
grestore
/DejaVuSans findfont
14.000 scalefont
setfont
gsave
68.468750 28.606250 translate
0.000000 rotate
0.000000 0.203125 m /zero glyphshow
grestore
gsave
/o {
gsave
newpath
translate
0.5 setlinewidth
1 setlinejoin
0 setlinecap
0 0 m
0 4 l
gsave
0.000 setgray
fill
grestore
stroke
grestore
} bind def
161.28 43.2 o
grestore
gsave
/o {
gsave
newpath
translate
0.5 setlinewidth
1 setlinejoin
0 setlinecap
0 0 m
0 -4 l
gsave
0.000 setgray
fill
grestore
stroke
grestore
} bind def
161.28 388.8 o
grestore
gsave
153.608125 28.606250 translate
0.000000 rotate
0.000000 0.203125 m /one glyphshow
8.907227 0.203125 m /zero glyphshow
grestore
gsave
/o {
gsave
newpath
translate
0.5 setlinewidth
1 setlinejoin
0 setlinecap
0 0 m
0 4 l
gsave
0.000 setgray
fill
grestore
stroke
grestore
} bind def
250.56 43.2 o
grestore
gsave
/o {
gsave
newpath
translate
0.5 setlinewidth
1 setlinejoin
0 setlinecap
0 0 m
0 -4 l
gsave
0.000 setgray
fill
grestore
stroke
grestore
} bind def
250.56 388.8 o
grestore
gsave
242.630312 28.606250 translate
0.000000 rotate
0.000000 0.203125 m /two glyphshow
8.907227 0.203125 m /zero glyphshow
grestore
gsave
/o {
gsave
newpath
translate
0.5 setlinewidth
1 setlinejoin
0 setlinecap
0 0 m
0 4 l
gsave
0.000 setgray
fill
grestore
stroke
grestore
} bind def
339.84 43.2 o
grestore
gsave
/o {
gsave
newpath
translate
0.5 setlinewidth
1 setlinejoin
0 setlinecap
0 0 m
0 -4 l
gsave
0.000 setgray
fill
grestore
stroke
grestore
} bind def
339.84 388.8 o
grestore
gsave
331.925937 28.606250 translate
0.000000 rotate
0.000000 0.203125 m /three glyphshow
8.907227 0.203125 m /zero glyphshow
grestore
gsave
/o {
gsave
newpath
translate
0.5 setlinewidth
1 setlinejoin
0 setlinecap
0 0 m
0 4 l
gsave
0.000 setgray
fill
grestore
stroke
grestore
} bind def
429.12 43.2 o
grestore
gsave
/o {
gsave
newpath
translate
0.5 setlinewidth
1 setlinejoin
0 setlinecap
0 0 m
0 -4 l
gsave
0.000 setgray
fill
grestore
stroke
grestore
} bind def
429.12 388.8 o
grestore
gsave
421.018437 28.606250 translate
0.000000 rotate
0.000000 0.203125 m /four glyphshow
8.907227 0.203125 m /zero glyphshow
grestore
gsave
/o {
gsave
newpath
translate
0.5 setlinewidth
1 setlinejoin
0 setlinecap
0 0 m
0 4 l
gsave
0.000 setgray
fill
grestore
stroke
grestore
} bind def
518.4 43.2 o
grestore
gsave
/o {
gsave
newpath
translate
0.5 setlinewidth
1 setlinejoin
0 setlinecap
0 0 m
0 -4 l
gsave
0.000 setgray
fill
grestore
stroke
grestore
} bind def
518.4 388.8 o
grestore
gsave
510.493750 28.606250 translate
0.000000 rotate
0.000000 0.203125 m /five glyphshow
8.907227 0.203125 m /zero glyphshow
grestore
gsave
232.426562 10.075000 translate
0.000000 rotate
0.000000 2.906250 m /t glyphshow
5.489258 2.906250 m /u glyphshow
14.362305 2.906250 m /m glyphshow
28.000000 2.906250 m /o glyphshow
36.565430 2.906250 m /r glyphshow
42.321289 2.906250 m /space glyphshow
46.771484 2.906250 m /a glyphshow
55.350586 2.906250 m /g glyphshow
64.237305 2.906250 m /e glyphshow
72.850586 2.906250 m /space glyphshow
77.300781 2.906250 m /parenleft glyphshow
82.762695 2.906250 m /y glyphshow
91.047852 2.906250 m /e glyphshow
99.661133 2.906250 m /a glyphshow
108.240234 2.906250 m /r glyphshow
113.996094 2.906250 m /s glyphshow
121.290039 2.906250 m /parenright glyphshow
grestore
gsave
/o {
gsave
newpath
translate
0.5 setlinewidth
1 setlinejoin
0 setlinecap
0 0 m
4 0 l
gsave
0.000 setgray
fill
grestore
stroke
grestore
} bind def
72 43.2 o
grestore
gsave
/o {
gsave
newpath
translate
0.5 setlinewidth
1 setlinejoin
0 setlinecap
0 0 m
-4 0 l
gsave
0.000 setgray
fill
grestore
stroke
grestore
} bind def
518.4 43.2 o
grestore
gsave
47.578125 37.903125 translate
0.000000 rotate
0.000000 0.203125 m /zero glyphshow
8.907227 0.203125 m /period glyphshow
13.357422 0.203125 m /zero glyphshow
grestore
gsave
/o {
gsave
newpath
translate
0.5 setlinewidth
1 setlinejoin
0 setlinecap
0 0 m
4 0 l
gsave
0.000 setgray
fill
grestore
stroke
grestore
} bind def
72 112.32 o
grestore
gsave
/o {
gsave
newpath
translate
0.5 setlinewidth
1 setlinejoin
0 setlinecap
0 0 m
-4 0 l
gsave
0.000 setgray
fill
grestore
stroke
grestore
} bind def
518.4 112.32 o
grestore
gsave
48.062500 107.023125 translate
0.000000 rotate
0.000000 0.203125 m /zero glyphshow
8.907227 0.203125 m /period glyphshow
13.357422 0.203125 m /two glyphshow
grestore
gsave
/o {
gsave
newpath
translate
0.5 setlinewidth
1 setlinejoin
0 setlinecap
0 0 m
4 0 l
gsave
0.000 setgray
fill
grestore
stroke
grestore
} bind def
72 181.44 o
grestore
gsave
/o {
gsave
newpath
translate
0.5 setlinewidth
1 setlinejoin
0 setlinecap
0 0 m
-4 0 l
gsave
0.000 setgray
fill
grestore
stroke
grestore
} bind def
518.4 181.44 o
grestore
gsave
47.437500 176.143125 translate
0.000000 rotate
0.000000 0.203125 m /zero glyphshow
8.907227 0.203125 m /period glyphshow
13.357422 0.203125 m /four glyphshow
grestore
gsave
/o {
gsave
newpath
translate
0.5 setlinewidth
1 setlinejoin
0 setlinecap
0 0 m
4 0 l
gsave
0.000 setgray
fill
grestore
stroke
grestore
} bind def
72 250.56 o
grestore
gsave
/o {
gsave
newpath
translate
0.5 setlinewidth
1 setlinejoin
0 setlinecap
0 0 m
-4 0 l
gsave
0.000 setgray
fill
grestore
stroke
grestore
} bind def
518.4 250.56 o
grestore
gsave
47.531250 245.263125 translate
0.000000 rotate
0.000000 0.203125 m /zero glyphshow
8.907227 0.203125 m /period glyphshow
13.357422 0.203125 m /six glyphshow
grestore
gsave
/o {
gsave
newpath
translate
0.5 setlinewidth
1 setlinejoin
0 setlinecap
0 0 m
4 0 l
gsave
0.000 setgray
fill
grestore
stroke
grestore
} bind def
72 319.68 o
grestore
gsave
/o {
gsave
newpath
translate
0.5 setlinewidth
1 setlinejoin
0 setlinecap
0 0 m
-4 0 l
gsave
0.000 setgray
fill
grestore
stroke
grestore
} bind def
518.4 319.68 o
grestore
gsave
47.609375 314.383125 translate
0.000000 rotate
0.000000 0.203125 m /zero glyphshow
8.907227 0.203125 m /period glyphshow
13.357422 0.203125 m /eight glyphshow
grestore
gsave
/o {
gsave
newpath
translate
0.5 setlinewidth
1 setlinejoin
0 setlinecap
0 0 m
4 0 l
gsave
0.000 setgray
fill
grestore
stroke
grestore
} bind def
72 388.8 o
grestore
gsave
/o {
gsave
newpath
translate
0.5 setlinewidth
1 setlinejoin
0 setlinecap
0 0 m
-4 0 l
gsave
0.000 setgray
fill
grestore
stroke
grestore
} bind def
518.4 388.8 o
grestore
gsave
48.203125 383.503125 translate
0.000000 rotate
0.000000 0.203125 m /one glyphshow
8.907227 0.203125 m /period glyphshow
13.357422 0.203125 m /zero glyphshow
grestore
gsave
42.437500 202.492188 translate
90.000000 rotate
0.000000 0.203125 m /C glyphshow
9.775391 0.203125 m /D glyphshow
20.555664 0.203125 m /F glyphshow
grestore
1.000 setlinewidth
2 setlinecap
gsave
72 388.8 m
518.4 388.8 l
stroke
grestore
gsave
518.4 43.2 m
518.4 388.8 l
stroke
grestore
gsave
72 43.2 m
518.4 43.2 l
stroke
grestore
gsave
72 43.2 m
72 388.8 l
stroke
grestore
/DejaVuSans findfont
16.800 scalefont
setfont
gsave
125.348437 390.268750 translate
0.000000 rotate
0.000000 3.531250 m /D glyphshow
12.933914 3.531250 m /i glyphshow
17.600616 3.531250 m /s glyphshow
26.351715 3.531250 m /t glyphshow
32.937592 3.531250 m /r glyphshow
39.843338 3.531250 m /i glyphshow
44.510040 3.531250 m /b glyphshow
55.172119 3.531250 m /u glyphshow
65.817795 3.531250 m /t glyphshow
72.403671 3.531250 m /i glyphshow
77.070374 3.531250 m /o glyphshow
87.346970 3.531250 m /n glyphshow
97.992645 3.531250 m /space glyphshow
103.331879 3.531250 m /o glyphshow
113.608475 3.531250 m /f glyphshow
119.521820 3.531250 m /space glyphshow
124.861053 3.531250 m /a glyphshow
135.154053 3.531250 m /g glyphshow
145.816132 3.531250 m /e glyphshow
156.150146 3.531250 m /space glyphshow
161.489380 3.531250 m /f glyphshow
167.402725 3.531250 m /o glyphshow
177.679321 3.531250 m /r glyphshow
184.585068 3.531250 m /space glyphshow
189.924301 3.531250 m /s glyphshow
198.675400 3.531250 m /e glyphshow
209.009415 3.531250 m /v glyphshow
218.949753 3.531250 m /e glyphshow
229.283768 3.531250 m /r glyphshow
236.189514 3.531250 m /a glyphshow
246.482513 3.531250 m /l glyphshow
251.149216 3.531250 m /space glyphshow
256.488449 3.531250 m /d glyphshow
267.150528 3.531250 m /i glyphshow
271.817230 3.531250 m /a glyphshow
282.110229 3.531250 m /m glyphshow
298.472412 3.531250 m /e glyphshow
308.806427 3.531250 m /t glyphshow
315.392303 3.531250 m /e glyphshow
325.726318 3.531250 m /r glyphshow
332.632065 3.531250 m /s glyphshow
grestore
gsave
398.786 51.6 m
510 51.6 l
510 152.756 l
398.786 152.756 l
398.786 51.6 l
cl
gsave
1.000 setgray
fill
grestore
stroke
grestore
3.000 setlinewidth
0.031 0.114 0.345 setrgbcolor
gsave
410.546 138.994 m
434.066 138.994 l
stroke
grestore
0.000 setgray
gsave
452.545625 132.879375 translate
0.000000 rotate
0.000000 0.234375 m /two glyphshow
10.686676 0.234375 m /space glyphshow
16.025909 0.234375 m /c glyphshow
25.260910 0.234375 m /m glyphshow
grestore
0.133 0.369 0.659 setrgbcolor
gsave
410.546 114.141 m
434.066 114.141 l
stroke
grestore
0.000 setgray
gsave
452.545625 108.026250 translate
0.000000 rotate
0.000000 0.234375 m /five glyphshow
10.686676 0.234375 m /space glyphshow
16.025909 0.234375 m /c glyphshow
25.260910 0.234375 m /m glyphshow
grestore
0.255 0.714 0.769 setrgbcolor
gsave
410.546 89.2875 m
434.066 89.2875 l
stroke
grestore
0.000 setgray
gsave
452.545625 83.173125 translate
0.000000 rotate
0.000000 0.234375 m /one glyphshow
10.686676 0.234375 m /zero glyphshow
21.373352 0.234375 m /space glyphshow
26.712585 0.234375 m /c glyphshow
35.947586 0.234375 m /m glyphshow
grestore
0.780 0.914 0.706 setrgbcolor
gsave
410.546 64.4344 m
434.066 64.4344 l
stroke
grestore
0.000 setgray
gsave
452.545625 58.320000 translate
0.000000 rotate
0.000000 0.234375 m /one glyphshow
10.686676 0.234375 m /five glyphshow
21.373352 0.234375 m /space glyphshow
26.712585 0.234375 m /c glyphshow
35.947586 0.234375 m /m glyphshow
grestore

end
showpage
