%!PS-Adobe-3.0 EPSF-3.0
%%Title: kidney5.eps
%%Creator: matplotlib version 1.2.1, http://matplotlib.org/
%%CreationDate: Thu Jun 20 15:48:43 2013
%%Orientation: portrait
%%BoundingBox: 18 180 594 612
%%EndComments
%%BeginProlog
/mpldict 8 dict def
mpldict begin
/m { moveto } bind def
/l { lineto } bind def
/r { rlineto } bind def
/c { curveto } bind def
/cl { closepath } bind def
/box {
m
1 index 0 r
0 exch r
neg 0 r
cl
} bind def
/clipbox {
box
clip
newpath
} bind def
%!PS-Adobe-3.0 Resource-Font
%%Title: DejaVu Sans
%%Copyright: Copyright (c) 2003 by Bitstream, Inc. All Rights Reserved. Copyright (c) 2006 by Tavmjong Bah. All Rights Reserved. DejaVu changes are in public domain 
%%Creator: Converted from TrueType to type 3 by PPR
25 dict begin
/_d{bind def}bind def
/_m{moveto}_d
/_l{lineto}_d
/_cl{closepath eofill}_d
/_c{curveto}_d
/_sc{7 -1 roll{setcachedevice}{pop pop pop pop pop pop}ifelse}_d
/_e{exec}_d
/FontName /DejaVuSans def
/PaintType 0 def
/FontMatrix[.001 0 0 .001 0 0]def
/FontBBox[-1021 -415 1681 1167]def
/FontType 3 def
/Encoding [ /space /parenleft /parenright /comma /zero /one /two /three /four /five /H /a /c /d /e /f /g /i /l /m /o /r /s /t /u /y /minus ] def
/FontInfo 10 dict dup begin
/FamilyName (DejaVu Sans) def
/FullName (DejaVu Sans) def
/Notice (Copyright (c) 2003 by Bitstream, Inc. All Rights Reserved. Copyright (c) 2006 by Tavmjong Bah. All Rights Reserved. DejaVu changes are in public domain ) def
/Weight (Book) def
/Version (Version 2.33) def
/ItalicAngle 0.0 def
/isFixedPitch false def
/UnderlinePosition -130 def
/UnderlineThickness 90 def
end readonly def
/CharStrings 27 dict dup begin
/space{318 0 0 0 0 0 _sc
}_d
/parenleft{390 0 86 -131 310 759 _sc
310 759 _m
266 683 234 609 213 536 _c
191 463 181 389 181 314 _c
181 238 191 164 213 91 _c
234 17 266 -56 310 -131 _c
232 -131 _l
183 -54 146 20 122 94 _c
98 168 86 241 86 314 _c
86 386 98 459 122 533 _c
146 607 182 682 232 759 _c
310 759 _l
_cl}_d
/parenright{390 0 80 -131 304 759 _sc
80 759 _m
158 759 _l
206 682 243 607 267 533 _c
291 459 304 386 304 314 _c
304 241 291 168 267 94 _c
243 20 206 -54 158 -131 _c
80 -131 _l
123 -56 155 17 177 91 _c
198 164 209 238 209 314 _c
209 389 198 463 177 536 _c
155 609 123 683 80 759 _c
_cl}_d
/comma{318 0 77 -115 220 124 _sc
117 124 _m
220 124 _l
220 40 _l
140 -115 _l
77 -115 _l
117 40 _l
117 124 _l
_cl}_d
/zero{636 0 66 -13 570 742 _sc
318 664 _m
267 664 229 639 203 589 _c
177 539 165 464 165 364 _c
165 264 177 189 203 139 _c
229 89 267 64 318 64 _c
369 64 407 89 433 139 _c
458 189 471 264 471 364 _c
471 464 458 539 433 589 _c
407 639 369 664 318 664 _c
318 742 _m
399 742 461 709 505 645 _c
548 580 570 486 570 364 _c
570 241 548 147 505 83 _c
461 19 399 -13 318 -13 _c
236 -13 173 19 130 83 _c
87 147 66 241 66 364 _c
66 486 87 580 130 645 _c
173 709 236 742 318 742 _c
_cl}_d
/one{636 0 110 0 544 729 _sc
124 83 _m
285 83 _l
285 639 _l
110 604 _l
110 694 _l
284 729 _l
383 729 _l
383 83 _l
544 83 _l
544 0 _l
124 0 _l
124 83 _l
_cl}_d
/two{{636 0 73 0 536 742 _sc
192 83 _m
536 83 _l
536 0 _l
73 0 _l
73 83 _l
110 121 161 173 226 239 _c
290 304 331 346 348 365 _c
380 400 402 430 414 455 _c
426 479 433 504 433 528 _c
433 566 419 598 392 622 _c
365 646 330 659 286 659 _c
255 659 222 653 188 643 _c
154 632 117 616 78 594 _c
78 694 _l
118 710 155 722 189 730 _c
223 738 255 742 284 742 _c
}_e{359 742 419 723 464 685 _c
509 647 532 597 532 534 _c
532 504 526 475 515 449 _c
504 422 484 390 454 354 _c
446 344 420 317 376 272 _c
332 227 271 164 192 83 _c
_cl}_e}_d
/three{{636 0 76 -13 556 742 _sc
406 393 _m
453 383 490 362 516 330 _c
542 298 556 258 556 212 _c
556 140 531 84 482 45 _c
432 6 362 -13 271 -13 _c
240 -13 208 -10 176 -4 _c
144 1 110 10 76 22 _c
76 117 _l
103 101 133 89 166 81 _c
198 73 232 69 268 69 _c
330 69 377 81 409 105 _c
441 129 458 165 458 212 _c
458 254 443 288 413 312 _c
383 336 341 349 287 349 _c
}_e{202 349 _l
202 430 _l
291 430 _l
339 430 376 439 402 459 _c
428 478 441 506 441 543 _c
441 580 427 609 401 629 _c
374 649 336 659 287 659 _c
260 659 231 656 200 650 _c
169 644 135 635 98 623 _c
98 711 _l
135 721 170 729 203 734 _c
235 739 266 742 296 742 _c
370 742 429 725 473 691 _c
517 657 539 611 539 553 _c
539 513 527 479 504 451 _c
481 423 448 403 406 393 _c
_cl}_e}_d
/four{636 0 49 0 580 729 _sc
378 643 _m
129 254 _l
378 254 _l
378 643 _l
352 729 _m
476 729 _l
476 254 _l
580 254 _l
580 172 _l
476 172 _l
476 0 _l
378 0 _l
378 172 _l
49 172 _l
49 267 _l
352 729 _l
_cl}_d
/five{{636 0 77 -13 549 729 _sc
108 729 _m
495 729 _l
495 646 _l
198 646 _l
198 467 _l
212 472 227 476 241 478 _c
255 480 270 482 284 482 _c
365 482 429 459 477 415 _c
525 370 549 310 549 234 _c
549 155 524 94 475 51 _c
426 8 357 -13 269 -13 _c
238 -13 207 -10 175 -6 _c
143 -1 111 6 77 17 _c
77 116 _l
106 100 136 88 168 80 _c
199 72 232 69 267 69 _c
}_e{323 69 368 83 401 113 _c
433 143 450 183 450 234 _c
450 284 433 324 401 354 _c
368 384 323 399 267 399 _c
241 399 214 396 188 390 _c
162 384 135 375 108 363 _c
108 729 _l
_cl}_e}_d
/H{752 0 98 0 654 729 _sc
98 729 _m
197 729 _l
197 430 _l
555 430 _l
555 729 _l
654 729 _l
654 0 _l
555 0 _l
555 347 _l
197 347 _l
197 0 _l
98 0 _l
98 729 _l
_cl}_d
/a{{613 0 60 -13 522 560 _sc
343 275 _m
270 275 220 266 192 250 _c
164 233 150 205 150 165 _c
150 133 160 107 181 89 _c
202 70 231 61 267 61 _c
317 61 357 78 387 114 _c
417 149 432 196 432 255 _c
432 275 _l
343 275 _l
522 312 _m
522 0 _l
432 0 _l
432 83 _l
411 49 385 25 355 10 _c
325 -5 287 -13 243 -13 _c
187 -13 142 2 109 33 _c
76 64 60 106 60 159 _c
}_e{60 220 80 266 122 298 _c
163 329 224 345 306 345 _c
432 345 _l
432 354 _l
432 395 418 427 391 450 _c
364 472 326 484 277 484 _c
245 484 215 480 185 472 _c
155 464 127 453 100 439 _c
100 522 _l
132 534 164 544 195 550 _c
226 556 256 560 286 560 _c
365 560 424 539 463 498 _c
502 457 522 395 522 312 _c
_cl}_e}_d
/c{{550 0 55 -13 488 560 _sc
488 526 _m
488 442 _l
462 456 437 466 411 473 _c
385 480 360 484 334 484 _c
276 484 230 465 198 428 _c
166 391 150 339 150 273 _c
150 206 166 154 198 117 _c
230 80 276 62 334 62 _c
360 62 385 65 411 72 _c
437 79 462 90 488 104 _c
488 21 _l
462 9 436 0 410 -5 _c
383 -10 354 -13 324 -13 _c
242 -13 176 12 128 64 _c
}_e{79 115 55 185 55 273 _c
55 362 79 432 128 483 _c
177 534 244 560 330 560 _c
358 560 385 557 411 551 _c
437 545 463 537 488 526 _c
_cl}_e}_d
/d{{635 0 55 -13 544 760 _sc
454 464 _m
454 760 _l
544 760 _l
544 0 _l
454 0 _l
454 82 _l
435 49 411 25 382 10 _c
353 -5 319 -13 279 -13 _c
213 -13 159 13 117 65 _c
75 117 55 187 55 273 _c
55 359 75 428 117 481 _c
159 533 213 560 279 560 _c
319 560 353 552 382 536 _c
411 520 435 496 454 464 _c
148 273 _m
148 207 161 155 188 117 _c
215 79 253 61 301 61 _c
}_e{348 61 385 79 413 117 _c
440 155 454 207 454 273 _c
454 339 440 390 413 428 _c
385 466 348 485 301 485 _c
253 485 215 466 188 428 _c
161 390 148 339 148 273 _c
_cl}_e}_d
/e{{615 0 55 -13 562 560 _sc
562 296 _m
562 252 _l
149 252 _l
153 190 171 142 205 110 _c
238 78 284 62 344 62 _c
378 62 412 66 444 74 _c
476 82 509 95 541 113 _c
541 28 _l
509 14 476 3 442 -3 _c
408 -9 373 -13 339 -13 _c
251 -13 182 12 131 62 _c
80 112 55 181 55 268 _c
55 357 79 428 127 481 _c
175 533 241 560 323 560 _c
397 560 455 536 498 489 _c
}_e{540 441 562 377 562 296 _c
472 322 _m
471 371 457 410 431 440 _c
404 469 368 484 324 484 _c
274 484 234 469 204 441 _c
174 413 156 373 152 322 _c
472 322 _l
_cl}_e}_d
/f{352 0 23 0 371 760 _sc
371 760 _m
371 685 _l
285 685 _l
253 685 230 678 218 665 _c
205 652 199 629 199 595 _c
199 547 _l
347 547 _l
347 477 _l
199 477 _l
199 0 _l
109 0 _l
109 477 _l
23 477 _l
23 547 _l
109 547 _l
109 585 _l
109 645 123 690 151 718 _c
179 746 224 760 286 760 _c
371 760 _l
_cl}_d
/g{{635 0 55 -207 544 560 _sc
454 280 _m
454 344 440 395 414 431 _c
387 467 349 485 301 485 _c
253 485 215 467 188 431 _c
161 395 148 344 148 280 _c
148 215 161 165 188 129 _c
215 93 253 75 301 75 _c
349 75 387 93 414 129 _c
440 165 454 215 454 280 _c
544 68 _m
544 -24 523 -93 482 -139 _c
440 -184 377 -207 292 -207 _c
260 -207 231 -204 203 -200 _c
175 -195 147 -188 121 -178 _c
}_e{121 -91 _l
147 -105 173 -115 199 -122 _c
225 -129 251 -133 278 -133 _c
336 -133 380 -117 410 -87 _c
439 -56 454 -10 454 52 _c
454 96 _l
435 64 411 40 382 24 _c
353 8 319 0 279 0 _c
211 0 157 25 116 76 _c
75 127 55 195 55 280 _c
55 364 75 432 116 483 _c
157 534 211 560 279 560 _c
319 560 353 552 382 536 _c
411 520 435 496 454 464 _c
454 547 _l
544 547 _l
}_e{544 68 _l
_cl}_e}_d
/i{278 0 94 0 184 760 _sc
94 547 _m
184 547 _l
184 0 _l
94 0 _l
94 547 _l
94 760 _m
184 760 _l
184 646 _l
94 646 _l
94 760 _l
_cl}_d
/l{278 0 94 0 184 760 _sc
94 760 _m
184 760 _l
184 0 _l
94 0 _l
94 760 _l
_cl}_d
/m{{974 0 91 0 889 560 _sc
520 442 _m
542 482 569 511 600 531 _c
631 550 668 560 711 560 _c
767 560 811 540 842 500 _c
873 460 889 403 889 330 _c
889 0 _l
799 0 _l
799 327 _l
799 379 789 418 771 444 _c
752 469 724 482 686 482 _c
639 482 602 466 575 435 _c
548 404 535 362 535 309 _c
535 0 _l
445 0 _l
445 327 _l
445 379 435 418 417 444 _c
398 469 369 482 331 482 _c
}_e{285 482 248 466 221 435 _c
194 404 181 362 181 309 _c
181 0 _l
91 0 _l
91 547 _l
181 547 _l
181 462 _l
201 495 226 520 255 536 _c
283 552 317 560 357 560 _c
397 560 430 550 458 530 _c
486 510 506 480 520 442 _c
_cl}_e}_d
/o{612 0 55 -13 557 560 _sc
306 484 _m
258 484 220 465 192 427 _c
164 389 150 338 150 273 _c
150 207 163 156 191 118 _c
219 80 257 62 306 62 _c
354 62 392 80 420 118 _c
448 156 462 207 462 273 _c
462 337 448 389 420 427 _c
392 465 354 484 306 484 _c
306 560 _m
384 560 445 534 490 484 _c
534 433 557 363 557 273 _c
557 183 534 113 490 63 _c
445 12 384 -13 306 -13 _c
227 -13 165 12 121 63 _c
77 113 55 183 55 273 _c
55 363 77 433 121 484 _c
165 534 227 560 306 560 _c
_cl}_d
/r{411 0 91 0 411 560 _sc
411 463 _m
401 469 390 473 378 476 _c
366 478 353 480 339 480 _c
288 480 249 463 222 430 _c
194 397 181 350 181 288 _c
181 0 _l
91 0 _l
91 547 _l
181 547 _l
181 462 _l
199 495 224 520 254 536 _c
284 552 321 560 365 560 _c
371 560 378 559 386 559 _c
393 558 401 557 411 555 _c
411 463 _l
_cl}_d
/s{{521 0 54 -13 472 560 _sc
443 531 _m
443 446 _l
417 458 391 468 364 475 _c
336 481 308 485 279 485 _c
234 485 200 478 178 464 _c
156 450 145 430 145 403 _c
145 382 153 366 169 354 _c
185 342 217 330 265 320 _c
296 313 _l
360 299 405 279 432 255 _c
458 230 472 195 472 151 _c
472 100 452 60 412 31 _c
372 1 316 -13 246 -13 _c
216 -13 186 -10 154 -5 _c
}_e{122 0 89 8 54 20 _c
54 113 _l
87 95 120 82 152 74 _c
184 65 216 61 248 61 _c
290 61 323 68 346 82 _c
368 96 380 117 380 144 _c
380 168 371 187 355 200 _c
339 213 303 226 247 238 _c
216 245 _l
160 257 119 275 95 299 _c
70 323 58 356 58 399 _c
58 450 76 490 112 518 _c
148 546 200 560 268 560 _c
301 560 332 557 362 552 _c
391 547 418 540 443 531 _c
}_e{_cl}_e}_d
/t{392 0 27 0 368 702 _sc
183 702 _m
183 547 _l
368 547 _l
368 477 _l
183 477 _l
183 180 _l
183 135 189 106 201 94 _c
213 81 238 75 276 75 _c
368 75 _l
368 0 _l
276 0 _l
206 0 158 13 132 39 _c
106 65 93 112 93 180 _c
93 477 _l
27 477 _l
27 547 _l
93 547 _l
93 702 _l
183 702 _l
_cl}_d
/u{634 0 85 -13 543 560 _sc
85 216 _m
85 547 _l
175 547 _l
175 219 _l
175 167 185 129 205 103 _c
225 77 255 64 296 64 _c
344 64 383 79 411 110 _c
439 141 453 183 453 237 _c
453 547 _l
543 547 _l
543 0 _l
453 0 _l
453 84 _l
431 50 405 26 377 10 _c
348 -5 315 -13 277 -13 _c
214 -13 166 6 134 45 _c
101 83 85 140 85 216 _c
311 560 _m
311 560 _l
_cl}_d
/y{592 0 30 -207 562 547 _sc
322 -50 _m
296 -114 271 -157 247 -177 _c
223 -197 191 -207 151 -207 _c
79 -207 _l
79 -132 _l
132 -132 _l
156 -132 175 -126 189 -114 _c
203 -102 218 -75 235 -31 _c
251 9 _l
30 547 _l
125 547 _l
296 119 _l
467 547 _l
562 547 _l
322 -50 _l
_cl}_d
/minus{838 0 106 272 732 355 _sc
106 355 _m
732 355 _l
732 272 _l
106 272 _l
106 355 _l
_cl}_d
end readonly def

/BuildGlyph
 {exch begin
 CharStrings exch
 2 copy known not{pop /.notdef}if
 true 3 1 roll get exec
 end}_d

/BuildChar {
 1 index /Encoding get exch get
 1 index /BuildGlyph get exec
}_d

FontName currentdict end definefont pop
end
%%EndProlog
mpldict begin
18 180 translate
576 432 0 0 clipbox
gsave
0 0 m
576 0 l
576 432 l
0 432 l
cl
1.000 setgray
fill
grestore
gsave
72 43.2 m
518.4 43.2 l
518.4 388.8 l
72 388.8 l
cl
1.000 setgray
fill
grestore
1.000 setlinewidth
1 setlinejoin
2 setlinecap
[] 0 setdash
0.000 0.000 1.000 setrgbcolor
gsave
446.4 345.6 72 43.2 clipbox
288.265 67.6835 m
295.825 69.4832 l
303.385 85.4185 l
310.945 135.622 l
318.506 134.124 l
326.066 128.321 l
333.626 139.379 l
341.186 137.366 l
348.747 150.819 l
356.307 154.459 l
363.867 154.231 l
371.427 158.393 l
378.988 163.935 l
386.548 163.202 l
394.108 162.449 l
401.669 225.244 l
409.229 225.269 l
416.789 245.707 l
424.349 253.153 l
431.91 254.176 l
439.47 254.781 l
447.03 251.738 l
454.59 263.931 l
462.151 265.534 l
469.711 263.551 l
477.271 293.216 l
484.831 326.742 l
492.392 326.616 l
499.952 350.256 l
507.512 369.437 l
stroke
grestore
gsave
446.4 345.6 72 43.2 clipbox
229.799 67.6835 m
237.304 70.5611 l
244.81 81.5447 l
252.316 111.21 l
259.822 110.03 l
267.327 110.518 l
274.833 110.393 l
282.339 107.265 l
289.845 134.667 l
297.351 160.199 l
304.856 158.7 l
312.362 186.694 l
319.868 201.475 l
327.374 225.115 l
334.879 228.797 l
342.385 226.701 l
349.891 223.077 l
357.397 228.199 l
364.903 227.638 l
372.408 221.757 l
379.914 220.045 l
387.42 212.937 l
394.926 254.798 l
402.431 253.299 l
409.937 272.191 l
417.443 256.586 l
424.949 274.457 l
432.454 286.28 l
439.96 300.236 l
447.466 302.887 l
454.972 312.52 l
462.478 309.017 l
469.983 306.127 l
477.489 304.114 l
484.995 315.339 l
492.501 322.84 l
500.006 311.934 l
507.512 371.483 l
stroke
grestore
gsave
446.4 345.6 72 43.2 clipbox
222.49 67.6835 m
229.991 70.5611 l
237.491 81.5447 l
244.992 111.21 l
252.493 110.03 l
259.993 110.518 l
267.494 110.393 l
274.994 107.265 l
282.495 134.667 l
289.996 160.199 l
297.496 158.7 l
304.997 186.694 l
312.497 201.475 l
319.998 225.115 l
327.498 228.797 l
334.999 226.701 l
342.5 223.077 l
350 228.199 l
357.501 227.638 l
365.001 221.757 l
372.502 220.045 l
380.002 212.937 l
387.503 254.798 l
395.004 253.299 l
402.504 272.191 l
410.005 256.586 l
417.505 274.457 l
425.006 286.28 l
432.506 300.236 l
440.007 302.887 l
447.508 312.52 l
455.008 309.017 l
462.509 306.127 l
470.009 304.114 l
477.51 315.339 l
485.01 322.84 l
492.511 311.934 l
500.012 371.483 l
507.512 376.618 l
stroke
grestore
gsave
446.4 345.6 72 43.2 clipbox
302.881 67.6835 m
310.46 79.8027 l
318.039 78.1172 l
325.618 86.6867 l
333.197 84.9542 l
340.776 83.7756 l
348.355 102.668 l
355.934 102.437 l
363.513 100.588 l
371.091 99.3704 l
378.67 97.6382 l
386.249 118.244 l
393.828 116.23 l
401.407 189.635 l
408.986 189.541 l
416.565 197.692 l
424.144 221.938 l
431.723 229.331 l
439.302 238.567 l
446.881 246.05 l
454.46 248.816 l
462.039 291.344 l
469.618 288.178 l
477.196 294.688 l
484.775 294.4 l
492.354 347.931 l
499.933 363.595 l
507.512 374.415 l
stroke
grestore
gsave
446.4 345.6 72 43.2 clipbox
288.265 67.6835 m
295.825 79.8027 l
303.385 78.1172 l
310.945 86.6867 l
318.506 84.9542 l
326.066 83.7756 l
333.626 102.668 l
341.186 102.437 l
348.747 100.588 l
356.307 99.3704 l
363.867 97.6382 l
371.427 118.244 l
378.988 116.23 l
386.548 189.635 l
394.108 189.541 l
401.669 197.692 l
409.229 221.938 l
416.789 229.331 l
424.349 238.567 l
431.91 246.05 l
439.47 248.816 l
447.03 291.344 l
454.59 288.178 l
462.151 294.688 l
469.711 294.4 l
477.271 347.931 l
484.831 363.595 l
492.392 374.415 l
499.952 378.055 l
507.512 371.778 l
stroke
grestore
gsave
446.4 345.6 72 43.2 clipbox
339.422 67.6835 m
347.063 101.931 l
354.703 116.842 l
362.344 119.514 l
369.984 128.961 l
377.625 165.395 l
385.265 171.332 l
392.906 175.937 l
400.546 189.295 l
408.186 188.833 l
415.827 188.857 l
423.467 281.79 l
431.108 284.903 l
438.748 282.327 l
446.389 285.014 l
454.029 293.662 l
461.67 315.056 l
469.31 311.158 l
476.95 315.378 l
484.591 357.906 l
492.231 354.713 l
499.872 362.46 l
507.512 369.955 l
stroke
grestore
gsave
446.4 345.6 72 43.2 clipbox
332.114 67.6835 m
339.74 101.931 l
347.366 116.842 l
354.992 119.514 l
362.618 128.961 l
370.244 165.395 l
377.87 171.332 l
385.496 175.937 l
393.122 189.295 l
400.748 188.833 l
408.374 188.857 l
416 281.79 l
423.626 284.903 l
431.252 282.327 l
438.878 285.014 l
446.504 293.662 l
454.13 315.056 l
461.756 311.158 l
469.382 315.378 l
477.008 357.906 l
484.634 354.713 l
492.26 362.46 l
499.886 369.955 l
507.512 373.64 l
stroke
grestore
gsave
446.4 345.6 72 43.2 clipbox
156.716 67.6835 m
164.18 67.2816 l
171.644 71.9186 l
179.107 72.2402 l
186.571 87.0219 l
194.035 85.964 l
201.499 94.998 l
208.962 96.6122 l
216.426 96.5682 l
223.89 95.5382 l
231.354 93.6584 l
238.817 92.467 l
246.281 90.731 l
253.745 102.362 l
261.209 100.413 l
268.672 85.5931 l
276.136 93.5916 l
283.6 89.9407 l
291.064 116.936 l
298.527 116.439 l
305.991 143.681 l
313.455 142.794 l
320.919 140.218 l
328.382 138.958 l
335.846 145.231 l
343.31 147.23 l
350.774 147.754 l
358.237 146.303 l
365.701 152.892 l
373.165 160.497 l
380.628 158.234 l
388.092 170.252 l
395.556 168.912 l
403.02 187.417 l
410.483 184.989 l
417.947 183.854 l
425.411 213.009 l
432.875 261.145 l
440.338 260.35 l
447.802 253.242 l
455.266 254.204 l
462.73 260.335 l
470.193 254.192 l
477.657 265.819 l
485.121 287.283 l
492.585 333.468 l
500.048 344.392 l
507.512 371.455 l
stroke
grestore
gsave
446.4 345.6 72 43.2 clipbox
149.408 67.6835 m
156.868 67.2816 l
164.329 71.9186 l
171.789 72.2402 l
179.25 87.0219 l
186.71 85.964 l
194.171 94.998 l
201.631 96.6122 l
209.092 96.5682 l
216.552 95.5382 l
224.013 93.6584 l
231.473 92.467 l
238.934 90.731 l
246.394 102.362 l
253.855 100.413 l
261.315 85.5931 l
268.776 93.5916 l
276.236 89.9407 l
283.697 116.936 l
291.157 116.439 l
298.618 143.681 l
306.078 142.794 l
313.539 140.218 l
320.999 138.958 l
328.46 145.231 l
335.921 147.23 l
343.381 147.754 l
350.842 146.303 l
358.302 152.892 l
365.763 160.497 l
373.223 158.234 l
380.684 170.252 l
388.144 168.912 l
395.605 187.417 l
403.065 184.989 l
410.526 183.854 l
417.986 213.009 l
425.447 261.145 l
432.907 260.35 l
440.368 253.242 l
447.828 254.204 l
455.289 260.335 l
462.749 254.192 l
470.21 265.819 l
477.67 287.283 l
485.131 333.468 l
492.591 344.392 l
500.052 371.455 l
507.512 375.395 l
stroke
grestore
gsave
446.4 345.6 72 43.2 clipbox
207.874 67.6835 m
215.365 81.0363 l
222.856 83.4456 l
230.347 86.8781 l
237.838 115.517 l
245.329 129.856 l
252.82 131.476 l
260.311 133.091 l
267.802 146.392 l
275.292 152.658 l
282.783 180.206 l
290.274 193.559 l
297.765 193.326 l
305.256 191.095 l
312.747 192.546 l
320.238 189.119 l
327.729 186.984 l
335.22 185.926 l
342.711 181.67 l
350.202 199.852 l
357.693 211.076 l
365.184 254.179 l
372.675 257.549 l
380.166 277.741 l
387.657 288.724 l
395.148 300.416 l
402.639 309.679 l
410.13 308.428 l
417.621 313.563 l
425.112 319.689 l
432.603 331.316 l
440.094 332.872 l
447.585 337.382 l
455.075 336.334 l
462.566 329.709 l
470.057 328.364 l
477.548 340.324 l
485.039 345.771 l
492.53 345.309 l
500.021 385.523 l
507.512 370.703 l
stroke
grestore
gsave
446.4 345.6 72 43.2 clipbox
324.806 67.6835 m
332.419 66.8507 l
340.031 62.582 l
347.644 103.889 l
355.257 111.88 l
362.87 110.993 l
370.482 112.17 l
378.095 119.76 l
385.708 133.062 l
393.321 128.57 l
400.934 128.007 l
408.546 148.955 l
416.159 179.206 l
423.772 193.114 l
431.385 202.612 l
438.997 223.218 l
446.61 228.369 l
454.223 227.392 l
461.836 274.994 l
469.448 312.851 l
477.061 335.533 l
484.674 359.236 l
492.287 365.325 l
499.899 367.091 l
507.512 374.994 l
stroke
grestore
gsave
446.4 345.6 72 43.2 clipbox
273.648 67.6835 m
281.192 76.0453 l
288.736 78.7318 l
296.28 76.1905 l
303.824 111.05 l
311.368 129.427 l
318.912 125.263 l
326.456 173.383 l
334 194.846 l
341.544 180.888 l
349.088 192.711 l
356.632 192.574 l
364.176 186.138 l
371.72 195.172 l
379.264 202.135 l
386.808 210.612 l
394.352 223.901 l
401.896 229.961 l
409.44 230.091 l
416.984 248.596 l
424.528 256.958 l
432.072 255.324 l
439.616 264.468 l
447.16 259.976 l
454.704 263.946 l
462.248 261.854 l
469.792 272.997 l
477.336 320.235 l
484.88 327.121 l
492.424 335.12 l
499.968 360.37 l
507.512 370.879 l
stroke
grestore
gsave
446.4 345.6 72 43.2 clipbox
244.415 67.6835 m
251.932 76.0453 l
259.449 78.7318 l
266.966 76.1905 l
274.483 111.05 l
282 129.427 l
289.517 125.263 l
297.035 173.383 l
304.552 194.846 l
312.069 180.888 l
319.586 192.711 l
327.103 192.574 l
334.62 186.138 l
342.137 195.172 l
349.654 202.135 l
357.171 210.612 l
364.688 223.901 l
372.205 229.961 l
379.722 230.091 l
387.239 248.596 l
394.756 256.958 l
402.273 255.324 l
409.79 264.468 l
417.307 259.976 l
424.825 263.946 l
432.342 261.854 l
439.859 272.997 l
447.376 320.235 l
454.893 327.121 l
462.41 335.12 l
469.927 360.37 l
477.444 370.879 l
484.961 365.727 l
492.478 361.241 l
499.995 363.473 l
507.512 372.245 l
stroke
grestore
gsave
446.4 345.6 72 43.2 clipbox
90.9418 67.6835 m
98.3806 76.0512 l
105.819 74.9165 l
113.258 75.4049 l
120.697 99.6148 l
128.136 103.522 l
135.574 147.671 l
143.013 132.852 l
150.452 132.261 l
157.891 132.524 l
165.329 131.407 l
172.768 130.272 l
180.207 130.151 l
187.646 132.561 l
195.084 132.869 l
202.523 136.809 l
209.962 144.399 l
217.401 143.7 l
224.839 143.083 l
232.278 151.177 l
239.717 158.14 l
247.156 164.405 l
254.594 212.703 l
262.033 209.139 l
269.472 207.496 l
276.911 213.641 l
284.349 226.537 l
291.788 239.516 l
299.227 238.729 l
306.666 254.579 l
314.105 259.601 l
321.543 252.493 l
328.982 250.489 l
336.421 248.705 l
343.86 245.164 l
351.298 252.647 l
358.737 292.614 l
366.176 314.418 l
373.615 311.206 l
381.053 309.597 l
388.492 316.589 l
395.931 317.536 l
403.37 322.687 l
410.808 322.408 l
418.247 318.959 l
425.686 325.542 l
433.125 351.185 l
440.563 340.279 l
448.002 365.971 l
455.441 363.029 l
462.88 362.468 l
470.318 362.39 l
477.757 357.919 l
485.196 356.096 l
492.635 378.425 l
500.073 377.648 l
507.512 376.458 l
stroke
grestore
gsave
446.4 345.6 72 43.2 clipbox
288.265 67.6835 m
295.825 80.9841 l
303.385 65.3786 l
310.945 86.8935 l
318.506 89.6594 l
326.066 100.745 l
333.626 106.876 l
341.186 146.844 l
348.747 146.599 l
356.307 158.792 l
363.867 183.038 l
371.427 174.791 l
378.988 180.922 l
386.548 192.882 l
394.108 214.167 l
401.669 233.39 l
409.229 245.162 l
416.789 242.127 l
424.349 246.658 l
431.91 267.606 l
439.47 273.212 l
447.03 272.151 l
454.59 265.715 l
462.151 271.321 l
469.711 279.085 l
477.271 348.576 l
484.831 346.967 l
492.392 353.93 l
499.952 365.596 l
507.512 370.731 l
stroke
grestore
gsave
446.4 345.6 72 43.2 clipbox
354.039 67.6835 m
361.713 93.2155 l
369.386 106.58 l
377.06 149.683 l
384.734 161.081 l
392.407 191.19 l
400.081 225.799 l
407.755 225.52 l
415.428 252.583 l
423.102 260.529 l
430.776 258.516 l
438.449 280.77 l
446.123 277.727 l
453.797 314.84 l
461.47 327.235 l
469.144 332.343 l
476.818 335.456 l
484.491 333.321 l
492.165 326.326 l
499.839 360.574 l
507.512 371.46 l
stroke
grestore
gsave
446.4 345.6 72 43.2 clipbox
346.731 67.6835 m
354.387 93.2155 l
362.043 106.58 l
369.699 149.683 l
377.356 161.081 l
385.012 191.19 l
392.668 225.799 l
400.324 225.52 l
407.981 252.583 l
415.637 260.529 l
423.293 258.516 l
430.95 280.77 l
438.606 277.727 l
446.262 314.84 l
453.918 327.235 l
461.575 332.343 l
469.231 335.456 l
476.887 333.321 l
484.543 326.326 l
492.2 360.574 l
499.856 371.46 l
507.512 372.025 l
stroke
grestore
gsave
446.4 345.6 72 43.2 clipbox
317.498 67.6835 m
325.098 61.9618 l
332.699 66.582 l
340.299 73.0572 l
347.9 94.5206 l
355.501 94.5124 l
363.101 92.0878 l
370.702 133.955 l
378.302 158.634 l
385.903 173.383 l
393.503 178.204 l
401.104 174.639 l
408.705 267.573 l
416.305 260.053 l
423.906 287.601 l
431.506 286.848 l
439.107 292.37 l
446.708 293.926 l
454.308 298.563 l
461.909 326.949 l
469.509 332.568 l
477.11 329.221 l
484.71 329.06 l
492.311 344.53 l
499.912 347.408 l
507.512 372.426 l
stroke
grestore
gsave
446.4 345.6 72 43.2 clipbox
310.189 67.6835 m
317.779 61.9618 l
325.368 66.582 l
332.957 73.0572 l
340.547 94.5206 l
348.136 94.5124 l
355.725 92.0878 l
363.315 133.955 l
370.904 158.634 l
378.493 173.383 l
386.083 178.204 l
393.672 174.639 l
401.261 267.573 l
408.851 260.053 l
416.44 287.601 l
424.029 286.848 l
431.619 292.37 l
439.208 293.926 l
446.797 298.563 l
454.387 326.949 l
461.976 332.568 l
469.565 329.221 l
477.155 329.06 l
484.744 344.53 l
492.334 347.408 l
499.923 372.426 l
507.512 376.111 l
stroke
grestore
gsave
446.4 345.6 72 43.2 clipbox
302.881 67.6835 m
310.46 61.9618 l
318.039 66.582 l
325.618 73.0572 l
333.197 94.5206 l
340.776 94.5124 l
348.355 92.0878 l
355.934 133.955 l
363.513 158.634 l
371.091 173.383 l
378.67 178.204 l
386.249 174.639 l
393.828 267.573 l
401.407 260.053 l
408.986 287.601 l
416.565 286.848 l
424.144 292.37 l
431.723 293.926 l
439.302 298.563 l
446.881 326.949 l
454.46 332.568 l
462.039 329.221 l
469.618 329.06 l
477.196 344.53 l
484.775 347.408 l
492.354 372.426 l
499.933 376.111 l
507.512 374.083 l
stroke
grestore
gsave
446.4 345.6 72 43.2 clipbox
273.648 67.6835 m
281.192 76.0755 l
288.736 76.1472 l
296.28 85.3841 l
303.824 90.3244 l
311.368 104.28 l
318.912 100.59 l
326.456 107.553 l
334 125.623 l
341.544 132.481 l
349.088 136.455 l
356.632 133.29 l
364.176 131.25 l
371.72 147.925 l
379.264 146.502 l
386.808 239.435 l
394.352 237.826 l
401.896 240.703 l
409.44 246.027 l
416.984 247.015 l
424.528 272.267 l
432.072 267.371 l
439.616 279.388 l
447.16 276.397 l
454.704 293.046 l
462.248 291.314 l
469.792 294.819 l
477.336 352.987 l
484.88 350.951 l
492.424 349.76 l
499.968 346.643 l
507.512 370.853 l
stroke
grestore
gsave
446.4 345.6 72 43.2 clipbox
266.34 67.6835 m
273.876 76.0755 l
281.413 76.1472 l
288.95 85.3841 l
296.486 90.3244 l
304.023 104.28 l
311.56 100.59 l
319.096 107.553 l
326.633 125.623 l
334.17 132.481 l
341.706 136.455 l
349.243 133.29 l
356.779 131.25 l
364.316 147.925 l
371.853 146.502 l
379.389 239.435 l
386.926 237.826 l
394.463 240.703 l
401.999 246.027 l
409.536 247.015 l
417.073 272.267 l
424.609 267.371 l
432.146 279.388 l
439.682 276.397 l
447.219 293.046 l
454.756 291.314 l
462.292 294.819 l
469.829 352.987 l
477.366 350.951 l
484.902 349.76 l
492.439 346.643 l
499.976 370.853 l
507.512 369.205 l
stroke
grestore
gsave
446.4 345.6 72 43.2 clipbox
259.032 67.6835 m
266.561 76.0755 l
274.091 76.1472 l
281.621 85.3841 l
289.15 90.3244 l
296.68 104.28 l
304.21 100.59 l
311.74 107.553 l
319.269 125.623 l
326.799 132.481 l
334.329 136.455 l
341.858 133.29 l
349.388 131.25 l
356.918 147.925 l
364.448 146.502 l
371.977 239.435 l
379.507 237.826 l
387.037 240.703 l
394.566 246.027 l
402.096 247.015 l
409.626 272.267 l
417.156 267.371 l
424.685 279.388 l
432.215 276.397 l
439.745 293.046 l
447.274 291.314 l
454.804 294.819 l
462.334 352.987 l
469.864 350.951 l
477.393 349.76 l
484.923 346.643 l
492.453 370.853 l
499.982 369.205 l
507.512 369.142 l
stroke
grestore
gsave
446.4 345.6 72 43.2 clipbox
251.723 67.6835 m
259.247 76.0755 l
266.77 76.1472 l
274.293 85.3841 l
281.816 90.3244 l
289.339 104.28 l
296.863 100.59 l
304.386 107.553 l
311.909 125.623 l
319.432 132.481 l
326.955 136.455 l
334.479 133.29 l
342.002 131.25 l
349.525 147.925 l
357.048 146.502 l
364.571 239.435 l
372.095 237.826 l
379.618 240.703 l
387.141 246.027 l
394.664 247.015 l
402.187 272.267 l
409.711 267.371 l
417.234 279.388 l
424.757 276.397 l
432.28 293.046 l
439.803 291.314 l
447.327 294.819 l
454.85 352.987 l
462.373 350.951 l
469.896 349.76 l
477.419 346.643 l
484.943 370.853 l
492.466 369.205 l
499.989 369.142 l
507.512 376.532 l
stroke
grestore
gsave
446.4 345.6 72 43.2 clipbox
317.498 67.6835 m
325.098 117.351 l
332.699 118.374 l
340.299 116.227 l
347.9 116.163 l
355.501 114.74 l
363.101 110.522 l
370.702 177.669 l
378.302 194.554 l
385.903 207.179 l
393.503 217.857 l
401.104 215.374 l
408.705 206.714 l
416.305 215.755 l
423.906 227.152 l
431.506 251.832 l
439.107 302.036 l
446.708 298.907 l
454.308 340.214 l
461.909 344.915 l
469.509 342.736 l
477.11 343.224 l
484.71 350.448 l
492.311 361.126 l
499.912 367.457 l
507.512 372.466 l
stroke
grestore
gsave
446.4 345.6 72 43.2 clipbox
361.347 67.6835 m
369.04 62.4052 l
376.733 65.4525 l
384.426 64.2612 l
392.119 72.2597 l
399.812 74.0429 l
407.505 98.6849 l
415.197 120.598 l
422.89 117.784 l
430.583 135.9 l
438.276 144.672 l
445.969 144.21 l
453.662 146.619 l
461.355 207.241 l
469.048 227.418 l
476.741 252.06 l
484.434 254.295 l
492.126 250.094 l
499.819 381.832 l
507.512 375.798 l
stroke
grestore
gsave
446.4 345.6 72 43.2 clipbox
229.799 67.6835 m
237.304 81.0482 l
244.81 84.9226 l
252.316 81.0893 l
259.822 102.483 l
267.327 102.683 l
274.833 106.135 l
282.339 109.501 l
289.845 114.788 l
297.351 130.259 l
304.856 127.913 l
312.362 129.349 l
319.868 126.474 l
327.374 145.51 l
334.879 145.502 l
342.385 163.393 l
349.891 162.29 l
357.397 171.32 l
364.903 170.703 l
372.408 191.141 l
379.914 187.639 l
387.42 185.167 l
394.926 186.344 l
402.431 194.495 l
409.937 272.681 l
417.443 286.034 l
424.949 281.852 l
432.454 306.062 l
439.96 303.715 l
447.466 316.681 l
454.972 307.679 l
462.478 309.97 l
469.983 310.916 l
477.489 309.782 l
484.995 335.825 l
492.501 354.283 l
500.006 364.37 l
507.512 375.618 l
stroke
grestore
gsave
446.4 345.6 72 43.2 clipbox
288.265 67.6835 m
295.825 62.6206 l
303.385 60.617 l
310.945 88.6102 l
318.506 151.463 l
326.066 149.794 l
333.626 161.426 l
341.186 157.775 l
348.747 179.238 l
356.307 175.788 l
363.867 217.649 l
371.427 225.794 l
378.988 229.247 l
386.548 228.217 l
394.108 232.726 l
401.669 243.256 l
409.229 266.921 l
416.789 284.694 l
424.349 283.635 l
431.91 313.573 l
439.47 312.532 l
447.03 318.044 l
454.59 317.695 l
462.151 318.536 l
469.711 323.728 l
477.271 331.492 l
484.831 332.943 l
492.392 357.861 l
499.952 362.801 l
507.512 375.697 l
stroke
grestore
gsave
446.4 345.6 72 43.2 clipbox
280.956 67.6835 m
288.508 62.6206 l
296.06 60.617 l
303.612 88.6102 l
311.164 151.463 l
318.716 149.794 l
326.268 161.426 l
333.819 157.775 l
341.371 179.238 l
348.923 175.788 l
356.475 217.649 l
364.027 225.794 l
371.579 229.247 l
379.131 228.217 l
386.682 232.726 l
394.234 243.256 l
401.786 266.921 l
409.338 284.694 l
416.89 283.635 l
424.442 313.573 l
431.994 312.532 l
439.545 318.044 l
447.097 317.695 l
454.649 318.536 l
462.201 323.728 l
469.753 331.492 l
477.305 332.943 l
484.857 357.861 l
492.408 362.801 l
499.96 375.697 l
507.512 374.754 l
stroke
grestore
gsave
446.4 345.6 72 43.2 clipbox
229.799 67.6835 m
237.304 80.4466 l
244.81 101.962 l
252.316 104.253 l
259.822 100.997 l
267.327 96.2831 l
274.833 118.836 l
282.339 130.608 l
289.845 128.728 l
297.351 126.931 l
304.856 134.414 l
312.362 150.118 l
319.868 149.62 l
327.374 163.959 l
334.879 163.249 l
342.385 160.256 l
349.891 164.893 l
357.397 169.41 l
364.903 173.285 l
372.408 182.051 l
379.914 180.879 l
387.42 178.623 l
394.926 202.262 l
402.431 209.757 l
409.937 209.524 l
417.443 270.146 l
424.949 277.728 l
432.454 277.179 l
439.96 280.632 l
447.466 307.949 l
454.972 320.574 l
462.478 320.553 l
469.983 329.174 l
477.489 327.134 l
484.995 341.089 l
492.501 340.875 l
500.006 342.499 l
507.512 375.802 l
stroke
grestore
gsave
446.4 345.6 72 43.2 clipbox
215.182 67.6835 m
222.678 80.4466 l
230.173 101.962 l
237.669 104.253 l
245.165 100.997 l
252.66 96.2831 l
260.156 118.836 l
267.652 130.608 l
275.147 128.728 l
282.643 126.931 l
290.139 134.414 l
297.634 150.118 l
305.13 149.62 l
312.625 163.959 l
320.121 163.249 l
327.617 160.256 l
335.112 164.893 l
342.608 169.41 l
350.104 173.285 l
357.599 182.051 l
365.095 180.879 l
372.591 178.623 l
380.086 202.262 l
387.582 209.757 l
395.078 209.524 l
402.573 270.146 l
410.069 277.728 l
417.564 277.179 l
425.06 280.632 l
432.556 307.949 l
440.051 320.574 l
447.547 320.553 l
455.043 329.174 l
462.538 327.134 l
470.034 341.089 l
477.53 340.875 l
485.025 342.499 l
492.521 375.802 l
500.017 380.869 l
507.512 376.648 l
stroke
grestore
gsave
446.4 345.6 72 43.2 clipbox
310.189 67.6835 m
317.779 120.835 l
325.368 124.521 l
332.957 122.523 l
340.547 147.385 l
348.136 143.82 l
355.725 139.677 l
363.315 137.651 l
370.904 142.719 l
378.493 144.579 l
386.083 150.855 l
393.672 167.445 l
401.261 172.596 l
408.851 168.698 l
416.44 215.185 l
424.029 262.023 l
431.619 259.481 l
439.208 260.718 l
446.797 256.819 l
454.387 254.726 l
461.976 258.925 l
469.565 259.913 l
477.155 274.58 l
484.744 272.582 l
492.334 294.097 l
499.923 340.387 l
507.512 373.913 l
stroke
grestore
gsave
446.4 345.6 72 43.2 clipbox
185.949 67.6835 m
193.427 65.9513 l
200.906 64.5362 l
208.384 68.1097 l
215.862 70.4327 l
223.34 75.3226 l
230.818 93.5046 l
238.297 98.0141 l
245.775 97.724 l
253.253 96.3004 l
260.731 94.5679 l
268.209 105.792 l
275.688 113.068 l
283.166 114.835 l
290.644 143.99 l
298.122 203.539 l
305.6 204.445 l
313.079 213.682 l
320.557 217.88 l
328.035 229.897 l
335.513 234.209 l
342.992 232.661 l
350.47 231.226 l
357.948 237.701 l
365.426 234.573 l
372.904 242.941 l
380.383 240.848 l
387.861 240.849 l
395.339 265.578 l
402.817 266.602 l
410.295 277.793 l
417.774 286.185 l
425.252 280.954 l
432.73 289.726 l
440.208 297.453 l
447.686 297.652 l
455.165 308.985 l
462.643 307.337 l
470.121 322.542 l
477.599 326.116 l
485.078 330.646 l
492.556 335.798 l
500.034 333.619 l
507.512 375.258 l
stroke
grestore
gsave
446.4 345.6 72 43.2 clipbox
317.498 67.6835 m
325.098 80.1759 l
332.699 83.5499 l
340.299 100.619 l
347.9 104.158 l
355.501 125.443 l
363.101 173.388 l
370.702 185.16 l
378.302 203.895 l
385.903 206.13 l
393.503 211.799 l
401.104 242.601 l
408.705 263.548 l
416.305 260.282 l
423.906 276.967 l
431.506 295.149 l
439.107 337.148 l
446.708 332.946 l
454.308 332.059 l
461.909 329.513 l
469.509 340.496 l
477.11 340.053 l
484.71 346.642 l
492.311 352.248 l
499.912 350.832 l
507.512 375.064 l
stroke
grestore
gsave
446.4 345.6 72 43.2 clipbox
178.641 67.6835 m
186.115 64.4279 l
193.59 97.9535 l
201.064 97.4056 l
208.538 97.0654 l
216.013 127.333 l
223.487 131.207 l
230.961 130.559 l
238.436 134.2 l
245.91 140.477 l
253.384 146.742 l
260.859 148.305 l
268.333 146.632 l
275.807 139.034 l
283.282 136.493 l
290.756 156.56 l
298.23 152.849 l
305.705 157.011 l
313.179 157.32 l
320.653 155.515 l
328.128 159.547 l
335.602 158.501 l
343.077 158.039 l
350.551 156.981 l
358.025 165.132 l
365.5 183.023 l
372.974 189.388 l
380.448 212.127 l
387.923 220.713 l
395.397 238.895 l
402.871 252.196 l
410.346 284.517 l
417.82 282.481 l
425.294 291.247 l
432.769 302.645 l
440.243 314.272 l
447.717 316.056 l
455.192 313.463 l
462.666 360.307 l
470.14 361.484 l
477.615 357.444 l
485.089 360.116 l
492.563 359.303 l
500.038 366.886 l
507.512 374.162 l
stroke
grestore
gsave
446.4 345.6 72 43.2 clipbox
171.333 67.6835 m
178.803 64.4279 l
186.274 97.9535 l
193.745 97.4056 l
201.215 97.0654 l
208.686 127.333 l
216.157 131.207 l
223.627 130.559 l
231.098 134.2 l
238.568 140.477 l
246.039 146.742 l
253.51 148.305 l
260.98 146.632 l
268.451 139.034 l
275.922 136.493 l
283.392 156.56 l
290.863 152.849 l
298.334 157.011 l
305.804 157.32 l
313.275 155.515 l
320.746 159.547 l
328.216 158.501 l
335.687 158.039 l
343.158 156.981 l
350.628 165.132 l
358.099 183.023 l
365.57 189.388 l
373.04 212.127 l
380.511 220.713 l
387.982 238.895 l
395.452 252.196 l
402.923 284.517 l
410.394 282.481 l
417.864 291.247 l
425.335 302.645 l
432.806 314.272 l
440.276 316.056 l
447.747 313.463 l
455.218 360.307 l
462.688 361.484 l
470.159 357.444 l
477.63 360.116 l
485.1 359.303 l
492.571 366.886 l
500.042 374.162 l
507.512 377.039 l
stroke
grestore
gsave
446.4 345.6 72 43.2 clipbox
156.716 67.6835 m
164.18 64.4279 l
171.644 97.9535 l
179.107 97.4056 l
186.571 97.0654 l
194.035 127.333 l
201.499 131.207 l
208.962 130.559 l
216.426 134.2 l
223.89 140.477 l
231.354 146.742 l
238.817 148.305 l
246.281 146.632 l
253.745 139.034 l
261.209 136.493 l
268.672 156.56 l
276.136 152.849 l
283.6 157.011 l
291.064 157.32 l
298.527 155.515 l
305.991 159.547 l
313.455 158.501 l
320.919 158.039 l
328.382 156.981 l
335.846 165.132 l
343.31 183.023 l
350.774 189.388 l
358.237 212.127 l
365.701 220.713 l
373.165 238.895 l
380.628 252.196 l
388.092 284.517 l
395.556 282.481 l
403.02 291.247 l
410.483 302.645 l
417.947 314.272 l
425.411 316.056 l
432.875 313.463 l
440.338 360.307 l
447.802 361.484 l
455.266 357.444 l
462.73 360.116 l
470.193 359.303 l
477.657 366.886 l
485.121 374.162 l
492.585 377.039 l
500.048 378.642 l
507.512 373.348 l
stroke
grestore
gsave
446.4 345.6 72 43.2 clipbox
134.791 67.6835 m
142.246 64.4279 l
149.7 97.9535 l
157.155 97.4056 l
164.609 97.0654 l
172.063 127.333 l
179.518 131.207 l
186.972 130.559 l
194.427 134.2 l
201.881 140.477 l
209.335 146.742 l
216.79 148.305 l
224.244 146.632 l
231.699 139.034 l
239.153 136.493 l
246.608 156.56 l
254.062 152.849 l
261.516 157.011 l
268.971 157.32 l
276.425 155.515 l
283.88 159.547 l
291.334 158.501 l
298.789 158.039 l
306.243 156.981 l
313.697 165.132 l
321.152 183.023 l
328.606 189.388 l
336.061 212.127 l
343.515 220.713 l
350.969 238.895 l
358.424 252.196 l
365.878 284.517 l
373.333 282.481 l
380.787 291.247 l
388.242 302.645 l
395.696 314.272 l
403.15 316.056 l
410.605 313.463 l
418.059 360.307 l
425.514 361.484 l
432.968 357.444 l
440.422 360.116 l
447.877 359.303 l
455.331 366.886 l
462.786 374.162 l
470.24 377.039 l
477.695 378.642 l
485.149 373.348 l
492.603 379.22 l
500.058 377.508 l
507.512 377.278 l
stroke
grestore
gsave
446.4 345.6 72 43.2 clipbox
120.175 67.6835 m
127.624 64.4279 l
135.072 97.9535 l
142.521 97.4056 l
149.97 97.0654 l
157.419 127.333 l
164.868 131.207 l
172.316 130.559 l
179.765 134.2 l
187.214 140.477 l
194.663 146.742 l
202.112 148.305 l
209.56 146.632 l
217.009 139.034 l
224.458 136.493 l
231.907 156.56 l
239.356 152.849 l
246.804 157.011 l
254.253 157.32 l
261.702 155.515 l
269.151 159.547 l
276.6 158.501 l
284.048 158.039 l
291.497 156.981 l
298.946 165.132 l
306.395 183.023 l
313.844 189.388 l
321.292 212.127 l
328.741 220.713 l
336.19 238.895 l
343.639 252.196 l
351.087 284.517 l
358.536 282.481 l
365.985 291.247 l
373.434 302.645 l
380.883 314.272 l
388.331 316.056 l
395.78 313.463 l
403.229 360.307 l
410.678 361.484 l
418.127 357.444 l
425.575 360.116 l
433.024 359.303 l
440.473 366.886 l
447.922 374.162 l
455.371 377.039 l
462.819 378.642 l
470.268 373.348 l
477.717 379.22 l
485.166 377.508 l
492.615 377.278 l
500.063 368.618 l
507.512 377.389 l
stroke
grestore
gsave
446.4 345.6 72 43.2 clipbox
237.107 67.6835 m
244.618 65.6578 l
252.129 69.1101 l
259.641 115.597 l
267.152 117.16 l
274.663 115.132 l
282.174 121.921 l
289.686 139.792 l
297.197 176.075 l
304.708 196.022 l
312.219 196.282 l
319.731 195.678 l
327.242 194.575 l
334.753 197.804 l
342.264 197.571 l
349.776 195.059 l
357.287 202.212 l
364.798 213.984 l
372.31 219.136 l
379.821 242.271 l
387.332 238.639 l
394.843 246.134 l
402.355 279.456 l
409.866 277.473 l
417.377 276.924 l
424.888 274.777 l
432.4 294.188 l
439.911 302.809 l
447.422 304.237 l
454.933 303.972 l
462.445 315.197 l
469.956 339.839 l
477.467 338.034 l
484.978 352.944 l
492.49 368.415 l
500.001 377.658 l
507.512 374.598 l
stroke
grestore
gsave
446.4 345.6 72 43.2 clipbox
229.799 67.6835 m
237.304 65.6578 l
244.81 69.1101 l
252.316 115.597 l
259.822 117.16 l
267.327 115.132 l
274.833 121.921 l
282.339 139.792 l
289.845 176.075 l
297.351 196.022 l
304.856 196.282 l
312.362 195.678 l
319.868 194.575 l
327.374 197.804 l
334.879 197.571 l
342.385 195.059 l
349.891 202.212 l
357.397 213.984 l
364.903 219.136 l
372.408 242.271 l
379.914 238.639 l
387.42 246.134 l
394.926 279.456 l
402.431 277.473 l
409.937 276.924 l
417.443 274.777 l
424.949 294.188 l
432.454 302.809 l
439.96 304.237 l
447.466 303.972 l
454.972 315.197 l
462.478 339.839 l
469.983 338.034 l
477.489 352.944 l
484.995 368.415 l
492.501 377.658 l
500.006 374.598 l
507.512 369.386 l
stroke
grestore
gsave
446.4 345.6 72 43.2 clipbox
339.422 67.6835 m
347.063 72.2284 l
354.703 86.7098 l
362.344 102.414 l
369.984 106.288 l
377.625 125.489 l
385.265 174.269 l
392.906 182.42 l
400.546 177.599 l
408.186 186.966 l
415.827 204.963 l
423.467 216.63 l
431.108 240.812 l
438.748 240.116 l
446.389 241.062 l
454.029 270.663 l
461.67 292.057 l
469.31 290.533 l
476.95 320.784 l
484.591 318.301 l
492.231 328.192 l
499.872 338.768 l
507.512 373.627 l
stroke
grestore
gsave
446.4 345.6 72 43.2 clipbox
273.648 67.6835 m
281.192 81.0412 l
288.736 87.1868 l
296.28 88.9865 l
303.824 136.932 l
311.368 129.522 l
318.912 128.093 l
326.456 123.601 l
334 123.158 l
341.544 119.946 l
349.088 119.715 l
356.632 134.589 l
364.176 165.751 l
371.72 183.822 l
379.264 179.351 l
386.808 179.003 l
394.352 184.671 l
401.896 186.67 l
409.44 195.062 l
416.984 201.682 l
424.528 224.235 l
432.072 223.17 l
439.616 221.91 l
447.16 227.185 l
454.704 275.483 l
462.248 271.942 l
469.792 270.884 l
477.336 321.151 l
484.88 368.753 l
492.424 367.041 l
499.968 378.266 l
507.512 375.137 l
stroke
grestore
gsave
446.4 345.6 72 43.2 clipbox
354.039 67.6835 m
361.713 141.088 l
369.386 140.56 l
377.06 145.086 l
384.734 149.723 l
392.407 149.013 l
400.081 154.633 l
407.755 286.37 l
415.428 298.33 l
423.102 317.229 l
430.776 308.227 l
438.449 310.462 l
446.123 312.228 l
453.797 311.58 l
461.47 316.602 l
469.144 341.62 l
476.818 340.808 l
484.491 340.832 l
492.165 344.716 l
499.839 349.302 l
507.512 374.321 l
stroke
grestore
gsave
446.4 345.6 72 43.2 clipbox
339.422 67.6835 m
347.063 141.088 l
354.703 140.56 l
362.344 145.086 l
369.984 149.723 l
377.625 149.013 l
385.265 154.633 l
392.906 286.37 l
400.546 298.33 l
408.186 317.229 l
415.827 308.227 l
423.467 310.462 l
431.108 312.228 l
438.748 311.58 l
446.389 316.602 l
454.029 341.62 l
461.67 340.808 l
469.31 340.832 l
476.95 344.716 l
484.591 349.302 l
492.231 374.321 l
499.872 378.205 l
507.512 377.404 l
stroke
grestore
gsave
446.4 345.6 72 43.2 clipbox
244.415 67.6835 m
251.932 72.2698 l
259.449 72.5271 l
266.966 77.8144 l
274.483 77.794 l
282 76.7528 l
289.517 91.0384 l
297.035 87.4072 l
304.552 90.946 l
312.069 88.98 l
319.586 91.3673 l
327.103 111.425 l
334.62 114.137 l
342.137 138.353 l
349.654 133.867 l
357.171 136.099 l
364.688 133.474 l
372.205 130.599 l
379.722 133.365 l
387.239 151.116 l
394.756 147.076 l
402.273 145.096 l
409.79 142.866 l
417.307 142.808 l
424.825 154.067 l
432.342 204.27 l
439.859 212.919 l
447.376 218.791 l
454.893 233.967 l
462.41 239.574 l
469.927 296.313 l
477.444 312.117 l
484.961 324.88 l
492.478 334 l
499.995 363.634 l
507.512 374.143 l
stroke
grestore
gsave
446.4 345.6 72 43.2 clipbox
237.107 67.6835 m
244.618 72.2698 l
252.129 72.5271 l
259.641 77.8144 l
267.152 77.794 l
274.663 76.7528 l
282.174 91.0384 l
289.686 87.4072 l
297.197 90.946 l
304.708 88.98 l
312.219 91.3673 l
319.731 111.425 l
327.242 114.137 l
334.753 138.353 l
342.264 133.867 l
349.776 136.099 l
357.287 133.474 l
364.798 130.599 l
372.31 133.365 l
379.821 151.116 l
387.332 147.076 l
394.843 145.096 l
402.355 142.866 l
409.866 142.808 l
417.377 154.067 l
424.888 204.27 l
432.4 212.919 l
439.911 218.791 l
447.422 233.967 l
454.933 239.574 l
462.445 296.313 l
469.956 312.117 l
477.467 324.88 l
484.978 334 l
492.49 363.634 l
500.001 374.143 l
507.512 371.719 l
stroke
grestore
gsave
446.4 345.6 72 43.2 clipbox
229.799 67.6835 m
237.304 72.2698 l
244.81 72.5271 l
252.316 77.8144 l
259.822 77.794 l
267.327 76.7528 l
274.833 91.0384 l
282.339 87.4072 l
289.845 90.946 l
297.351 88.98 l
304.856 91.3673 l
312.362 111.425 l
319.868 114.137 l
327.374 138.353 l
334.879 133.867 l
342.385 136.099 l
349.891 133.474 l
357.397 130.599 l
364.903 133.365 l
372.408 151.116 l
379.914 147.076 l
387.42 145.096 l
394.926 142.866 l
402.431 142.808 l
409.937 154.067 l
417.443 204.27 l
424.949 212.919 l
432.454 218.791 l
439.96 233.967 l
447.466 239.574 l
454.972 296.313 l
462.478 312.117 l
469.983 324.88 l
477.489 334 l
484.995 363.634 l
492.501 374.143 l
500.006 371.719 l
507.512 371.291 l
stroke
grestore
gsave
446.4 345.6 72 43.2 clipbox
310.189 67.6835 m
317.779 84.1716 l
325.368 97.1509 l
332.957 92.6589 l
340.547 90.6615 l
348.136 90.3553 l
355.725 148.524 l
363.315 145.582 l
370.904 173.575 l
378.493 230.314 l
386.083 261.477 l
393.672 260.06 l
401.261 255.842 l
408.851 265.733 l
416.44 284.632 l
424.029 281.819 l
431.619 289.86 l
439.208 293.542 l
446.797 294.565 l
454.387 294.401 l
461.976 301.338 l
469.565 299.887 l
477.155 311.659 l
484.744 311.538 l
492.334 320.658 l
499.923 316.39 l
507.512 374.259 l
stroke
grestore
gsave
446.4 345.6 72 43.2 clipbox
302.881 67.6835 m
310.46 84.1716 l
318.039 97.1509 l
325.618 92.6589 l
333.197 90.6615 l
340.776 90.3553 l
348.355 148.524 l
355.934 145.582 l
363.513 173.575 l
371.091 230.314 l
378.67 261.477 l
386.249 260.06 l
393.828 255.842 l
401.407 265.733 l
408.986 284.632 l
416.565 281.819 l
424.144 289.86 l
431.723 293.542 l
439.302 294.565 l
446.881 294.401 l
454.46 301.338 l
462.039 299.887 l
469.618 311.659 l
477.196 311.538 l
484.775 320.658 l
492.354 316.39 l
499.933 374.259 l
507.512 373.911 l
stroke
grestore
gsave
446.4 345.6 72 43.2 clipbox
288.265 67.6835 m
295.825 63.8502 l
303.385 66.1466 l
310.945 70.1786 l
318.506 67.7065 l
326.066 68.2231 l
333.626 81.2025 l
341.186 79.2223 l
348.747 78.6673 l
356.307 84.8123 l
363.867 177.745 l
371.427 182.35 l
378.988 180.773 l
386.548 178.678 l
394.108 176.829 l
401.669 213.779 l
409.229 219.904 l
416.789 221.14 l
424.349 219.896 l
431.91 231.568 l
439.47 229.014 l
447.03 255.155 l
454.59 266.24 l
462.151 264.825 l
469.711 269.356 l
477.271 273.24 l
484.831 271.093 l
492.392 281.18 l
499.952 320.908 l
507.512 374.06 l
stroke
grestore
gsave
446.4 345.6 72 43.2 clipbox
280.956 67.6835 m
288.508 63.8502 l
296.06 66.1466 l
303.612 70.1786 l
311.164 67.7065 l
318.716 68.2231 l
326.268 81.2025 l
333.819 79.2223 l
341.371 78.6673 l
348.923 84.8123 l
356.475 177.745 l
364.027 182.35 l
371.579 180.773 l
379.131 178.678 l
386.682 176.829 l
394.234 213.779 l
401.786 219.904 l
409.338 221.14 l
416.89 219.896 l
424.442 231.568 l
431.994 229.014 l
439.545 255.155 l
447.097 266.24 l
454.649 264.825 l
462.201 269.356 l
469.753 273.24 l
477.305 271.093 l
484.857 281.18 l
492.408 320.908 l
499.96 374.06 l
507.512 371.636 l
stroke
grestore
gsave
446.4 345.6 72 43.2 clipbox
215.182 67.6835 m
222.678 61.0588 l
230.173 59.9718 l
237.669 75.1767 l
245.165 78.629 l
252.66 95.2183 l
260.156 134.947 l
267.652 142.748 l
275.147 151.892 l
282.643 160.478 l
290.139 160.015 l
297.634 183.194 l
305.13 169.235 l
312.625 162.24 l
320.121 159.729 l
327.617 155.242 l
335.112 212.085 l
342.608 233.48 l
350.104 242.44 l
357.599 242.168 l
365.095 241.564 l
372.591 241.335 l
380.086 252.689 l
387.582 253.187 l
395.078 260.689 l
402.573 259.913 l
410.069 258.414 l
417.564 293.013 l
425.06 311.47 l
432.556 310.429 l
440.051 309.764 l
447.547 310.253 l
455.043 319.025 l
462.538 317.011 l
470.034 324.776 l
477.53 328.974 l
485.025 326.97 l
492.521 335.54 l
500.017 347.171 l
507.512 369.724 l
stroke
grestore
gsave
446.4 345.6 72 43.2 clipbox
185.949 67.6835 m
193.427 58.681 l
200.906 81.0521 l
208.384 80.7399 l
215.862 80.4958 l
223.34 92.6892 l
230.818 129.123 l
238.297 130.111 l
245.775 129.991 l
253.253 132.223 l
260.731 136.107 l
268.209 146.473 l
275.688 154.853 l
283.166 171.977 l
290.644 173.837 l
298.122 199.089 l
305.6 218.27 l
313.079 222.801 l
320.557 226.41 l
328.035 241.192 l
335.513 256.016 l
342.992 260.104 l
350.47 269.438 l
357.948 274.63 l
365.426 287.596 l
372.904 282.7 l
380.383 284.997 l
387.861 285.601 l
395.339 294.373 l
402.817 292.39 l
410.295 311.801 l
417.774 310.698 l
425.252 327.768 l
432.73 325.225 l
440.208 322.571 l
447.686 321.136 l
455.165 321.053 l
462.643 332.278 l
470.121 353.073 l
477.599 360.975 l
485.078 365.984 l
492.556 367.768 l
500.034 367.143 l
507.512 372.252 l
stroke
grestore
gsave
446.4 345.6 72 43.2 clipbox
178.641 67.6835 m
186.115 58.681 l
193.59 81.0521 l
201.064 80.7399 l
208.538 80.4958 l
216.013 92.6892 l
223.487 129.123 l
230.961 130.111 l
238.436 129.991 l
245.91 132.223 l
253.384 136.107 l
260.859 146.473 l
268.333 154.853 l
275.807 171.977 l
283.282 173.837 l
290.756 199.089 l
298.23 218.27 l
305.705 222.801 l
313.179 226.41 l
320.653 241.192 l
328.128 256.016 l
335.602 260.104 l
343.077 269.438 l
350.551 274.63 l
358.025 287.596 l
365.5 282.7 l
372.974 284.997 l
380.448 285.601 l
387.923 294.373 l
395.397 292.39 l
402.871 311.801 l
410.346 310.698 l
417.82 327.768 l
425.294 325.225 l
432.769 322.571 l
440.243 321.136 l
447.717 321.053 l
455.192 332.278 l
462.666 353.073 l
470.14 360.975 l
477.615 365.984 l
485.089 367.768 l
492.563 367.143 l
500.038 372.252 l
507.512 373.092 l
stroke
grestore
gsave
446.4 345.6 72 43.2 clipbox
171.333 67.6835 m
178.803 58.681 l
186.274 81.0521 l
193.745 80.7399 l
201.215 80.4958 l
208.686 92.6892 l
216.157 129.123 l
223.627 130.111 l
231.098 129.991 l
238.568 132.223 l
246.039 136.107 l
253.51 146.473 l
260.98 154.853 l
268.451 171.977 l
275.922 173.837 l
283.392 199.089 l
290.863 218.27 l
298.334 222.801 l
305.804 226.41 l
313.275 241.192 l
320.746 256.016 l
328.216 260.104 l
335.687 269.438 l
343.158 274.63 l
350.628 287.596 l
358.099 282.7 l
365.57 284.997 l
373.04 285.601 l
380.511 294.373 l
387.982 292.39 l
395.452 311.801 l
402.923 310.698 l
410.394 327.768 l
417.864 325.225 l
425.335 322.571 l
432.806 321.136 l
440.276 321.053 l
447.747 332.278 l
455.218 353.073 l
462.688 360.975 l
470.159 365.984 l
477.63 367.768 l
485.1 367.143 l
492.571 372.252 l
500.042 373.092 l
507.512 369.402 l
stroke
grestore
gsave
446.4 345.6 72 43.2 clipbox
368.655 67.6835 m
376.37 121.229 l
384.084 119.744 l
391.798 127.786 l
399.512 156.94 l
407.227 175.745 l
414.941 181.876 l
422.655 240.045 l
430.37 238.401 l
438.084 223.582 l
445.798 271.142 l
453.512 279.018 l
461.227 278.73 l
468.941 278.302 l
476.655 286.891 l
484.369 328.771 l
492.084 330.493 l
499.798 352.822 l
507.512 372.879 l
stroke
grestore
gsave
446.4 345.6 72 43.2 clipbox
317.498 67.6835 m
325.098 107.651 l
332.699 114.234 l
340.299 130.131 l
347.9 135.282 l
355.501 140.724 l
363.101 148.207 l
370.702 177.224 l
378.302 177.098 l
385.903 183.687 l
393.503 199.947 l
401.104 206.422 l
408.705 206.679 l
416.305 207.52 l
423.906 213.475 l
431.506 248.334 l
439.107 251.908 l
446.708 300.206 l
454.308 312.026 l
461.909 330.023 l
469.509 341.166 l
477.11 346.842 l
484.71 358.508 l
492.311 355.913 l
499.912 365.111 l
507.512 369.731 l
stroke
grestore
gsave
446.4 345.6 72 43.2 clipbox
317.498 67.6835 m
325.098 66.7589 l
332.699 125.797 l
340.299 125.776 l
347.9 120.482 l
355.501 129.929 l
363.101 127.946 l
370.702 139.09 l
378.302 181.017 l
385.903 195.802 l
393.503 201.696 l
401.104 199.11 l
408.705 195.068 l
416.305 210.772 l
423.906 204.628 l
431.506 250.919 l
439.107 277.982 l
446.708 277.519 l
454.308 275.871 l
461.909 270.975 l
469.509 298.968 l
477.11 302.853 l
484.71 351.633 l
492.311 349.848 l
499.912 346.421 l
507.512 370.641 l
stroke
grestore
gsave
446.4 345.6 72 43.2 clipbox
244.415 67.6835 m
251.932 73.65 l
259.449 77.5896 l
266.966 95.0171 l
274.483 108.318 l
282 114.594 l
289.517 140.736 l
297.035 190.077 l
304.552 189.016 l
312.069 188.995 l
319.586 196.441 l
327.103 205.213 l
334.62 202.02 l
342.137 205.386 l
349.654 208.152 l
357.171 211.199 l
364.688 214.885 l
372.205 219.103 l
379.722 224.225 l
387.239 226.803 l
394.756 226.349 l
402.273 224.77 l
409.79 216.291 l
417.307 254.569 l
424.825 269.318 l
432.342 275.683 l
439.859 282.109 l
447.376 281.094 l
454.893 284.969 l
462.41 292.193 l
469.927 290.052 l
477.444 322.373 l
484.961 324.096 l
492.478 337.453 l
499.995 363.595 l
507.512 373.931 l
stroke
grestore
gsave
446.4 345.6 72 43.2 clipbox
280.956 67.6835 m
288.508 76.9125 l
296.06 81.9342 l
303.612 86.6306 l
311.164 82.9406 l
318.716 79.2278 l
326.268 98.2644 l
333.819 99.1695 l
341.371 118.581 l
348.923 116.968 l
356.475 154.095 l
364.027 146.988 l
371.579 176.004 l
379.131 202.146 l
386.682 211.513 l
394.234 222.632 l
401.786 231.592 l
409.338 273.453 l
416.89 282.951 l
424.442 287.648 l
431.994 297.309 l
439.545 296.814 l
447.097 294.831 l
454.649 316.226 l
462.201 315.449 l
469.753 311.818 l
477.305 317.175 l
484.857 337.781 l
492.408 341.755 l
499.96 357.652 l
507.512 372.434 l
stroke
grestore
gsave
446.4 345.6 72 43.2 clipbox
244.415 67.6835 m
251.932 76.9125 l
259.449 81.9342 l
266.966 86.6306 l
274.483 82.9406 l
282 79.2278 l
289.517 98.2644 l
297.035 99.1695 l
304.552 118.581 l
312.069 116.968 l
319.586 154.095 l
327.103 146.988 l
334.62 176.004 l
342.137 202.146 l
349.654 211.513 l
357.171 222.632 l
364.688 231.592 l
372.205 273.453 l
379.722 282.951 l
387.239 287.648 l
394.756 297.309 l
402.273 296.814 l
409.79 294.831 l
417.307 316.226 l
424.825 315.449 l
432.342 311.818 l
439.859 317.175 l
447.376 337.781 l
454.893 341.755 l
462.41 357.652 l
469.927 372.434 l
477.444 367.536 l
484.961 366.267 l
492.478 364.253 l
499.995 363.605 l
507.512 371.187 l
stroke
grestore
gsave
446.4 345.6 72 43.2 clipbox
266.34 67.6835 m
273.876 67.663 l
281.413 92.913 l
288.95 88.421 l
296.486 138.688 l
304.023 152.041 l
311.56 153.665 l
319.096 165.292 l
326.633 163.062 l
334.17 184.577 l
341.706 181.984 l
349.243 180.834 l
356.779 190.032 l
364.316 199.479 l
371.853 199.315 l
379.389 221.997 l
386.926 221.767 l
394.463 232.58 l
401.999 230.089 l
409.536 280.356 l
417.073 279.165 l
424.609 277.433 l
432.146 285.18 l
439.682 314.139 l
447.219 318.114 l
454.756 334.176 l
462.292 336.688 l
469.829 336.61 l
477.366 335.737 l
484.902 331.847 l
492.439 343.619 l
499.976 361.69 l
507.512 376.514 l
stroke
grestore
gsave
446.4 345.6 72 43.2 clipbox
164.024 67.6835 m
171.491 63.4811 l
178.959 110.325 l
186.426 109.381 l
193.893 114.032 l
201.36 112.007 l
208.827 133.47 l
216.294 130.844 l
223.761 138.449 l
231.228 143.339 l
238.696 141.299 l
246.163 171.408 l
253.63 183.342 l
261.097 182.283 l
268.564 182.308 l
276.031 181.263 l
283.498 178.838 l
290.965 177.658 l
298.433 186.802 l
305.9 185.622 l
313.367 185.534 l
320.834 190.601 l
328.301 189.357 l
335.768 188.543 l
343.235 184.709 l
350.703 193.853 l
358.17 192.929 l
365.637 197.459 l
373.104 198.3 l
380.571 214.889 l
388.038 220.336 l
395.505 219.274 l
402.972 224.942 l
410.44 218.317 l
417.907 216.337 l
425.374 216.835 l
432.841 241.017 l
440.308 229.689 l
447.775 251.083 l
455.242 250.839 l
462.709 268.836 l
470.177 266.633 l
477.644 275.399 l
485.111 334.437 l
492.578 333.461 l
500.045 363.061 l
507.512 369.335 l
stroke
grestore
gsave
446.4 345.6 72 43.2 clipbox
251.723 67.6835 m
259.247 66.654 l
266.77 66.1062 l
274.293 87.5004 l
281.816 144.344 l
289.339 142.141 l
296.863 167.059 l
304.386 176.95 l
311.909 178.872 l
319.432 178.646 l
326.955 193.431 l
334.479 199.037 l
342.002 211.156 l
349.525 214.034 l
357.048 229.239 l
364.571 222.293 l
372.095 225.473 l
379.618 247.278 l
387.141 249.789 l
394.664 246.286 l
402.187 240.617 l
409.711 251.97 l
417.234 250.71 l
424.757 244.007 l
432.28 236.22 l
439.803 295.257 l
447.327 313.762 l
454.85 314.026 l
462.373 318.405 l
469.896 323.728 l
477.419 321.498 l
484.943 323.885 l
492.466 346.134 l
499.989 347.994 l
507.512 375.419 l
stroke
grestore
gsave
446.4 345.6 72 43.2 clipbox
354.039 67.6835 m
361.713 86.5754 l
369.386 129.103 l
377.06 150.566 l
384.734 148.094 l
392.407 173.688 l
400.081 171.263 l
407.755 177.394 l
415.428 202.644 l
423.102 199.228 l
430.776 245.715 l
438.449 256.535 l
446.123 271.317 l
453.797 282.402 l
461.47 288.907 l
469.144 330.283 l
476.818 334.792 l
484.491 334.33 l
492.165 334.322 l
499.839 347.288 l
507.512 369.36 l
stroke
grestore
gsave
446.4 345.6 72 43.2 clipbox
339.422 67.6835 m
347.063 86.5754 l
354.703 129.103 l
362.344 150.566 l
369.984 148.094 l
377.625 173.688 l
385.265 171.263 l
392.906 177.394 l
400.546 202.644 l
408.186 199.228 l
415.827 245.715 l
423.467 256.535 l
431.108 271.317 l
438.748 282.402 l
446.389 288.907 l
454.029 330.283 l
461.67 334.792 l
469.31 334.33 l
476.95 334.322 l
484.591 347.288 l
492.231 369.36 l
499.872 378.694 l
507.512 375.577 l
stroke
grestore
gsave
446.4 345.6 72 43.2 clipbox
332.114 67.6835 m
339.74 86.5754 l
347.366 129.103 l
354.992 150.566 l
362.618 148.094 l
370.244 173.688 l
377.87 171.263 l
385.496 177.394 l
393.122 202.644 l
400.748 199.228 l
408.374 245.715 l
416 256.535 l
423.626 271.317 l
431.252 282.402 l
438.878 288.907 l
446.504 330.283 l
454.13 334.792 l
461.756 334.33 l
469.382 334.322 l
477.008 347.288 l
484.634 369.36 l
492.26 378.694 l
499.886 375.577 l
507.512 373.782 l
stroke
grestore
gsave
446.4 345.6 72 43.2 clipbox
324.806 67.6835 m
332.419 86.5754 l
340.031 129.103 l
347.644 150.566 l
355.257 148.094 l
362.87 173.688 l
370.482 171.263 l
378.095 177.394 l
385.708 202.644 l
393.321 199.228 l
400.934 245.715 l
408.546 256.535 l
416.159 271.317 l
423.772 282.402 l
431.385 288.907 l
438.997 330.283 l
446.61 334.792 l
454.223 334.33 l
461.836 334.322 l
469.448 347.288 l
477.061 369.36 l
484.674 378.694 l
492.287 375.577 l
499.899 373.782 l
507.512 372.133 l
stroke
grestore
gsave
446.4 345.6 72 43.2 clipbox
317.498 67.6835 m
325.098 86.5754 l
332.699 129.103 l
340.299 150.566 l
347.9 148.094 l
355.501 173.688 l
363.101 171.263 l
370.702 177.394 l
378.302 202.644 l
385.903 199.228 l
393.503 245.715 l
401.104 256.535 l
408.705 271.317 l
416.305 282.402 l
423.906 288.907 l
431.506 330.283 l
439.107 334.792 l
446.708 334.33 l
454.308 334.322 l
461.909 347.288 l
469.509 369.36 l
477.11 378.694 l
484.71 375.577 l
492.311 373.782 l
499.912 372.133 l
507.512 371.016 l
stroke
grestore
gsave
446.4 345.6 72 43.2 clipbox
295.573 67.6835 m
303.142 86.5754 l
310.711 129.103 l
318.281 150.566 l
325.85 148.094 l
333.419 173.688 l
340.988 171.263 l
348.558 177.394 l
356.127 202.644 l
363.696 199.228 l
371.265 245.715 l
378.835 256.535 l
386.404 271.317 l
393.973 282.402 l
401.543 288.907 l
409.112 330.283 l
416.681 334.792 l
424.25 334.33 l
431.82 334.322 l
439.389 347.288 l
446.958 369.36 l
454.527 378.694 l
462.097 375.577 l
469.666 373.782 l
477.235 372.133 l
484.804 371.016 l
492.374 366.814 l
499.943 361.751 l
507.512 376.418 l
stroke
grestore
gsave
446.4 345.6 72 43.2 clipbox
288.265 67.6835 m
295.825 86.5754 l
303.385 129.103 l
310.945 150.566 l
318.506 148.094 l
326.066 173.688 l
333.626 171.263 l
341.186 177.394 l
348.747 202.644 l
356.307 199.228 l
363.867 245.715 l
371.427 256.535 l
378.988 271.317 l
386.548 282.402 l
394.108 288.907 l
401.669 330.283 l
409.229 334.792 l
416.789 334.33 l
424.349 334.322 l
431.91 347.288 l
439.47 369.36 l
447.03 378.694 l
454.59 375.577 l
462.151 373.782 l
469.711 372.133 l
477.271 371.016 l
484.831 366.814 l
492.392 361.751 l
499.952 376.418 l
507.512 372.375 l
stroke
grestore
gsave
446.4 345.6 72 43.2 clipbox
280.956 67.6835 m
288.508 86.5754 l
296.06 129.103 l
303.612 150.566 l
311.164 148.094 l
318.716 173.688 l
326.268 171.263 l
333.819 177.394 l
341.371 202.644 l
348.923 199.228 l
356.475 245.715 l
364.027 256.535 l
371.579 271.317 l
379.131 282.402 l
386.682 288.907 l
394.234 330.283 l
401.786 334.792 l
409.338 334.33 l
416.89 334.322 l
424.442 347.288 l
431.994 369.36 l
439.545 378.694 l
447.097 375.577 l
454.649 373.782 l
462.201 372.133 l
469.753 371.016 l
477.305 366.814 l
484.857 361.751 l
492.408 376.418 l
499.96 372.375 l
507.512 371.361 l
stroke
grestore
gsave
446.4 345.6 72 43.2 clipbox
273.648 67.6835 m
281.192 86.5754 l
288.736 129.103 l
296.28 150.566 l
303.824 148.094 l
311.368 173.688 l
318.912 171.263 l
326.456 177.394 l
334 202.644 l
341.544 199.228 l
349.088 245.715 l
356.632 256.535 l
364.176 271.317 l
371.72 282.402 l
379.264 288.907 l
386.808 330.283 l
394.352 334.792 l
401.896 334.33 l
409.44 334.322 l
416.984 347.288 l
424.528 369.36 l
432.072 378.694 l
439.616 375.577 l
447.16 373.782 l
454.704 372.133 l
462.248 371.016 l
469.792 366.814 l
477.336 361.751 l
484.88 376.418 l
492.424 372.375 l
499.968 371.361 l
507.512 370.833 l
stroke
grestore
gsave
446.4 345.6 72 43.2 clipbox
266.34 67.6835 m
273.876 86.5754 l
281.413 129.103 l
288.95 150.566 l
296.486 148.094 l
304.023 173.688 l
311.56 171.263 l
319.096 177.394 l
326.633 202.644 l
334.17 199.228 l
341.706 245.715 l
349.243 256.535 l
356.779 271.317 l
364.316 282.402 l
371.853 288.907 l
379.389 330.283 l
386.926 334.792 l
394.463 334.33 l
401.999 334.322 l
409.536 347.288 l
417.073 369.36 l
424.609 378.694 l
432.146 375.577 l
439.682 373.782 l
447.219 372.133 l
454.756 371.016 l
462.292 366.814 l
469.829 361.751 l
477.366 376.418 l
484.902 372.375 l
492.439 371.361 l
499.976 370.833 l
507.512 369.583 l
stroke
grestore
gsave
446.4 345.6 72 43.2 clipbox
200.566 67.6835 m
208.052 100.476 l
215.539 98.0038 l
223.025 112.485 l
230.512 109.035 l
237.998 107.303 l
245.485 110.181 l
252.971 118.548 l
260.458 140.919 l
267.944 143.431 l
275.431 141.399 l
282.917 149.441 l
290.404 149.957 l
297.89 178.974 l
305.377 180.896 l
312.863 217.865 l
320.35 221.572 l
327.836 217.156 l
335.323 218.132 l
342.809 209.481 l
350.296 245.764 l
357.782 255.262 l
365.269 265.771 l
372.755 275.858 l
380.242 272.815 l
387.728 270.849 l
395.215 272.74 l
402.701 271.071 l
410.188 308.927 l
417.674 301.517 l
425.161 300.327 l
432.647 327.322 l
440.134 336.565 l
447.62 345.186 l
455.107 355.264 l
462.593 352.721 l
470.08 351.174 l
477.566 349.982 l
485.053 348.198 l
492.539 362.979 l
500.026 362.707 l
507.512 369.257 l
stroke
grestore
gsave
446.4 345.6 72 43.2 clipbox
200.566 67.6835 m
208.052 66.0106 l
215.539 65.0168 l
223.025 71.8743 l
230.512 63.2225 l
237.998 54.7955 l
245.485 56.9402 l
252.971 55.3686 l
260.458 51.8279 l
267.944 56.9495 l
275.431 62.3704 l
282.917 69.2557 l
290.404 81.7481 l
297.89 79.8993 l
305.377 79.5742 l
312.863 125.759 l
320.35 178.068 l
327.836 184.075 l
335.323 194.388 l
342.809 197.302 l
350.296 206.073 l
357.782 208.443 l
365.269 262.933 l
372.755 275.696 l
380.242 275.304 l
387.728 273.159 l
395.215 303.829 l
402.701 313.72 l
410.188 311.689 l
417.674 319.135 l
425.161 318.032 l
432.647 317.03 l
440.134 319.399 l
447.62 317.185 l
455.107 315.77 l
462.593 327.401 l
470.08 333.973 l
477.566 331.941 l
485.053 349.489 l
492.539 355.496 l
500.026 363.101 l
507.512 371.953 l
stroke
grestore
gsave
446.4 345.6 72 43.2 clipbox
259.032 67.6835 m
266.561 70.053 l
274.091 86.3126 l
281.621 89.7649 l
289.15 87.4835 l
296.68 96.6272 l
304.21 125.587 l
311.74 129.293 l
319.269 123.387 l
326.799 150.629 l
334.329 156.169 l
341.858 148.875 l
349.388 156.805 l
356.918 230.209 l
364.448 237.799 l
371.977 285.401 l
379.507 287.724 l
387.037 279.936 l
394.566 276.313 l
402.096 294.69 l
409.626 291.748 l
417.156 294.26 l
424.685 323.424 l
432.215 327.803 l
439.745 339.922 l
447.274 336.757 l
454.804 345.136 l
462.334 348.183 l
469.864 346.378 l
477.393 346.699 l
484.923 358.331 l
492.453 357.621 l
499.982 355.641 l
507.512 374.445 l
stroke
grestore
gsave
446.4 345.6 72 43.2 clipbox
207.874 67.6835 m
215.365 78.7689 l
222.856 71.3588 l
230.347 95.0235 l
237.838 86.545 l
245.329 87.9733 l
252.82 103.637 l
260.311 113.27 l
267.802 109.437 l
275.292 129.504 l
282.783 137.495 l
290.274 146.726 l
297.765 151.745 l
305.256 152.937 l
312.747 169.823 l
320.238 170.077 l
327.729 182.475 l
335.22 207.493 l
342.711 205.921 l
350.202 205.519 l
357.693 200.621 l
365.184 210.7 l
372.675 206.113 l
380.166 204.1 l
387.657 201.203 l
395.148 205.087 l
402.639 230.983 l
410.13 236.27 l
417.621 234.538 l
425.112 237.591 l
432.603 249.985 l
440.094 281.643 l
447.585 279.015 l
455.075 288.244 l
462.566 279.592 l
470.057 279.377 l
477.548 329.644 l
485.039 355.176 l
492.53 365.854 l
500.021 384.036 l
507.512 376.248 l
stroke
grestore
gsave
446.4 345.6 72 43.2 clipbox
215.182 67.6835 m
222.678 102.292 l
230.173 128.913 l
237.669 153.223 l
245.165 157.86 l
252.66 163.929 l
260.156 166.13 l
267.652 163.073 l
275.147 178.872 l
282.643 178.584 l
290.139 179.073 l
297.634 185.548 l
305.13 194.668 l
312.625 193.61 l
320.121 202.753 l
327.617 198.369 l
335.112 212.708 l
342.608 217.404 l
350.104 222.761 l
357.599 223.016 l
365.095 232.258 l
372.591 237.267 l
380.086 284.111 l
387.582 287.397 l
395.078 279.878 l
402.573 285.641 l
410.069 308.94 l
417.564 306.394 l
425.06 304.164 l
432.556 303.423 l
440.051 308.865 l
447.547 305.085 l
455.043 323.201 l
462.538 328.311 l
470.034 326.678 l
477.53 357.348 l
485.025 356.853 l
492.521 355.98 l
500.017 364.549 l
507.512 370.15 l
stroke
grestore
gsave
446.4 345.6 72 43.2 clipbox
200.566 67.6835 m
208.052 102.292 l
215.539 128.913 l
223.025 153.223 l
230.512 157.86 l
237.998 163.929 l
245.485 166.13 l
252.971 163.073 l
260.458 178.872 l
267.944 178.584 l
275.431 179.073 l
282.917 185.548 l
290.404 194.668 l
297.89 193.61 l
305.377 202.753 l
312.863 198.369 l
320.35 212.708 l
327.836 217.404 l
335.323 222.761 l
342.809 223.016 l
350.296 232.258 l
357.782 237.267 l
365.269 284.111 l
372.755 287.397 l
380.242 279.878 l
387.728 285.641 l
395.215 308.94 l
402.701 306.394 l
410.188 304.164 l
417.674 303.423 l
425.161 308.865 l
432.647 305.085 l
440.134 323.201 l
447.62 328.311 l
455.107 326.678 l
462.593 357.348 l
470.08 356.853 l
477.566 355.98 l
485.053 364.549 l
492.539 370.15 l
500.026 368.538 l
507.512 372.036 l
stroke
grestore
gsave
446.4 345.6 72 43.2 clipbox
193.257 67.6835 m
200.74 102.292 l
208.222 128.913 l
215.704 153.223 l
223.186 157.86 l
230.669 163.929 l
238.151 166.13 l
245.633 163.073 l
253.115 178.872 l
260.598 178.584 l
268.08 179.073 l
275.562 185.548 l
283.044 194.668 l
290.527 193.61 l
298.009 202.753 l
305.491 198.369 l
312.973 212.708 l
320.456 217.404 l
327.938 222.761 l
335.42 223.016 l
342.903 232.258 l
350.385 237.267 l
357.867 284.111 l
365.349 287.397 l
372.832 279.878 l
380.314 285.641 l
387.796 308.94 l
395.278 306.394 l
402.761 304.164 l
410.243 303.423 l
417.725 308.865 l
425.207 305.085 l
432.69 323.201 l
440.172 328.311 l
447.654 326.678 l
455.136 357.348 l
462.619 356.853 l
470.101 355.98 l
477.583 364.549 l
485.065 370.15 l
492.548 368.538 l
500.03 372.036 l
507.512 370.089 l
stroke
grestore
gsave
446.4 345.6 72 43.2 clipbox
185.949 67.6835 m
193.427 102.292 l
200.906 128.913 l
208.384 153.223 l
215.862 157.86 l
223.34 163.929 l
230.818 166.13 l
238.297 163.073 l
245.775 178.872 l
253.253 178.584 l
260.731 179.073 l
268.209 185.548 l
275.688 194.668 l
283.166 193.61 l
290.644 202.753 l
298.122 198.369 l
305.6 212.708 l
313.079 217.404 l
320.557 222.761 l
328.035 223.016 l
335.513 232.258 l
342.992 237.267 l
350.47 284.111 l
357.948 287.397 l
365.426 279.878 l
372.904 285.641 l
380.383 308.94 l
387.861 306.394 l
395.339 304.164 l
402.817 303.423 l
410.295 308.865 l
417.774 305.085 l
425.252 323.201 l
432.73 328.311 l
440.208 326.678 l
447.686 357.348 l
455.165 356.853 l
462.643 355.98 l
470.121 364.549 l
477.599 370.15 l
485.078 368.538 l
492.556 372.036 l
500.034 370.089 l
507.512 375.323 l
stroke
grestore
gsave
446.4 345.6 72 43.2 clipbox
178.641 67.6835 m
186.115 102.292 l
193.59 128.913 l
201.064 153.223 l
208.538 157.86 l
216.013 163.929 l
223.487 166.13 l
230.961 163.073 l
238.436 178.872 l
245.91 178.584 l
253.384 179.073 l
260.859 185.548 l
268.333 194.668 l
275.807 193.61 l
283.282 202.753 l
290.756 198.369 l
298.23 212.708 l
305.705 217.404 l
313.179 222.761 l
320.653 223.016 l
328.128 232.258 l
335.602 237.267 l
343.077 284.111 l
350.551 287.397 l
358.025 279.878 l
365.5 285.641 l
372.974 308.94 l
380.448 306.394 l
387.923 304.164 l
395.397 303.423 l
402.871 308.865 l
410.346 305.085 l
417.82 323.201 l
425.294 328.311 l
432.769 326.678 l
440.243 357.348 l
447.717 356.853 l
455.192 355.98 l
462.666 364.549 l
470.14 370.15 l
477.615 368.538 l
485.089 372.036 l
492.563 370.089 l
500.038 375.323 l
507.512 375.198 l
stroke
grestore
gsave
446.4 345.6 72 43.2 clipbox
200.566 67.6835 m
208.052 65.6472 l
215.539 87.7198 l
223.025 87.5989 l
230.512 106.498 l
237.998 104.485 l
245.485 110.027 l
252.971 108.029 l
260.458 107.756 l
267.944 108.597 l
275.431 106.315 l
282.917 124.821 l
290.404 160.309 l
297.89 156.598 l
305.377 150.564 l
312.863 150.255 l
320.35 146.691 l
327.836 155.651 l
335.323 154.073 l
342.809 150.358 l
350.296 149.139 l
357.782 175.041 l
365.269 174.376 l
372.755 177.489 l
380.242 201.671 l
387.728 200.023 l
395.215 216.698 l
402.701 214.186 l
410.188 218.407 l
417.674 245.47 l
425.161 277.894 l
432.647 276.899 l
440.134 273.839 l
447.62 283.102 l
455.107 331.882 l
462.593 324.588 l
470.08 323.501 l
477.566 317.358 l
485.053 315.342 l
492.539 362.856 l
500.026 366.888 l
507.512 373.393 l
stroke
grestore
gsave
446.4 345.6 72 43.2 clipbox
383.272 67.6835 m
391.037 73.809 l
398.802 85.6324 l
406.567 110.884 l
414.332 115.952 l
422.097 117.055 l
429.862 141.238 l
437.627 150.677 l
445.392 150.678 l
453.157 152.445 l
460.922 187.933 l
468.687 246.101 l
476.452 244.104 l
484.217 263.097 l
491.982 292.261 l
499.747 288.844 l
507.512 374.788 l
stroke
grestore
gsave
446.4 345.6 72 43.2 clipbox
295.573 67.6835 m
303.142 75.1782 l
310.711 80.2458 l
318.281 79.8438 l
325.85 83.7513 l
333.419 113.386 l
340.988 124.719 l
348.558 182.887 l
356.127 182.571 l
363.696 178.187 l
371.265 181.415 l
378.835 185.299 l
386.404 233.435 l
393.973 228.553 l
401.543 227.666 l
409.112 236.999 l
416.681 242.121 l
424.25 240.508 l
431.82 239.009 l
439.389 236.996 l
446.958 245.141 l
454.527 258.202 l
462.097 298.169 l
469.666 344.354 l
477.235 365.149 l
484.804 367.8 l
492.374 368.365 l
499.943 368.345 l
507.512 373.166 l
stroke
grestore
gsave
446.4 345.6 72 43.2 clipbox
280.956 67.6835 m
288.508 75.1782 l
296.06 80.2458 l
303.612 79.8438 l
311.164 83.7513 l
318.716 113.386 l
326.268 124.719 l
333.819 182.887 l
341.371 182.571 l
348.923 178.187 l
356.475 181.415 l
364.027 185.299 l
371.579 233.435 l
379.131 228.553 l
386.682 227.666 l
394.234 236.999 l
401.786 242.121 l
409.338 240.508 l
416.89 239.009 l
424.442 236.996 l
431.994 245.141 l
439.545 258.202 l
447.097 298.169 l
454.649 344.354 l
462.201 365.149 l
469.753 367.8 l
477.305 368.365 l
484.857 368.345 l
492.408 373.166 l
499.96 379.168 l
507.512 372.106 l
stroke
grestore
gsave
446.4 345.6 72 43.2 clipbox
273.648 67.6835 m
281.192 75.1782 l
288.736 80.2458 l
296.28 79.8438 l
303.824 83.7513 l
311.368 113.386 l
318.912 124.719 l
326.456 182.887 l
334 182.571 l
341.544 178.187 l
349.088 181.415 l
356.632 185.299 l
364.176 233.435 l
371.72 228.553 l
379.264 227.666 l
386.808 236.999 l
394.352 242.121 l
401.896 240.508 l
409.44 239.009 l
416.984 236.996 l
424.528 245.141 l
432.072 258.202 l
439.616 298.169 l
447.16 344.354 l
454.704 365.149 l
462.248 367.8 l
469.792 368.365 l
477.336 368.345 l
484.88 373.166 l
492.424 379.168 l
499.968 372.106 l
507.512 369.843 l
stroke
grestore
gsave
446.4 345.6 72 43.2 clipbox
134.791 67.6835 m
142.246 68.3754 l
149.7 65.3843 l
157.155 63.9332 l
164.609 63.0462 l
172.063 68.9404 l
179.518 116.454 l
186.972 113.052 l
194.427 130.923 l
201.881 132.115 l
209.335 125.395 l
216.79 131.396 l
224.244 128.924 l
231.699 137.884 l
239.153 137.456 l
246.608 174.433 l
254.062 174.032 l
261.516 173.225 l
268.971 172.18 l
276.425 196.859 l
283.88 195.798 l
291.334 212.286 l
298.789 224.479 l
306.243 222.332 l
313.697 223.888 l
321.152 225.992 l
328.606 227.775 l
336.061 231.996 l
343.515 247.659 l
350.969 259.677 l
358.424 259.275 l
365.878 265.4 l
373.333 274.441 l
380.787 279.55 l
388.242 278.133 l
395.696 281.639 l
403.15 286.982 l
410.605 292.049 l
418.059 287.671 l
425.514 286.93 l
432.968 285.827 l
440.422 278.039 l
447.877 331.57 l
455.331 332.673 l
462.786 329.824 l
470.24 329.767 l
477.695 335.892 l
485.149 329.859 l
492.603 352.412 l
500.058 348.522 l
507.512 369.317 l
stroke
grestore
gsave
446.4 345.6 72 43.2 clipbox
302.881 67.6835 m
310.46 91.9029 l
318.039 96.5399 l
325.618 119.675 l
333.197 122.062 l
340.776 152.33 l
348.355 152.057 l
355.934 181.212 l
363.513 190.332 l
371.091 231.841 l
378.67 236.906 l
386.249 236.378 l
393.828 235.331 l
401.407 281.621 l
408.986 287.897 l
416.565 293.966 l
424.144 308.252 l
431.723 310.639 l
439.302 319.288 l
446.881 342.466 l
454.46 355.432 l
462.039 353.852 l
469.618 360.71 l
477.196 353.353 l
484.775 352.162 l
492.354 365.729 l
499.933 351.77 l
507.512 374.024 l
stroke
grestore
gsave
446.4 345.6 72 43.2 clipbox
171.333 67.6835 m
178.803 84.5692 l
186.274 84.444 l
193.745 80.6106 l
201.215 130.814 l
208.686 123.027 l
216.157 122.796 l
223.627 121.372 l
231.098 151.482 l
238.568 152.113 l
246.039 166.289 l
253.51 174.036 l
260.98 185.663 l
268.451 184.235 l
275.922 202.612 l
283.392 201.394 l
290.863 203.317 l
298.334 198.938 l
305.804 194.056 l
313.275 221.481 l
320.746 220.052 l
328.216 211.4 l
335.687 219.987 l
343.158 221.437 l
350.628 232.347 l
358.099 254.9 l
365.57 253.252 l
373.04 262.293 l
380.511 261.765 l
387.982 282.475 l
395.452 281.372 l
402.923 279.561 l
410.394 281.452 l
417.864 296.118 l
425.335 292.853 l
432.806 291.219 l
440.276 319.859 l
447.747 318.668 l
455.218 320.959 l
462.688 313.44 l
470.159 321.534 l
477.63 336.711 l
485.1 344.709 l
492.571 347.006 l
500.042 353.481 l
507.512 375.809 l
stroke
grestore
gsave
446.4 345.6 72 43.2 clipbox
295.573 67.6835 m
303.142 65.2115 l
310.711 75.7414 l
318.281 74.9288 l
325.85 105.599 l
333.419 129.909 l
340.988 129.096 l
348.558 150.044 l
356.127 183.569 l
363.696 191.961 l
371.265 215.072 l
378.835 199.466 l
386.404 214.29 l
393.973 206.503 l
401.543 215.532 l
409.112 208.239 l
416.681 218.317 l
424.25 216.818 l
431.82 210.193 l
439.389 215.258 l
446.958 214.53 l
454.527 287.934 l
462.097 296.302 l
469.666 280.697 l
477.235 289.059 l
484.804 311.299 l
492.374 308.402 l
499.943 324.107 l
507.512 370.944 l
stroke
grestore
gsave
446.4 345.6 72 43.2 clipbox
288.265 67.6835 m
295.825 65.2115 l
303.385 75.7414 l
310.945 74.9288 l
318.506 105.599 l
326.066 129.909 l
333.626 129.096 l
341.186 150.044 l
348.747 183.569 l
356.307 191.961 l
363.867 215.072 l
371.427 199.466 l
378.988 214.29 l
386.548 206.503 l
394.108 215.532 l
401.669 208.239 l
409.229 218.317 l
416.789 216.818 l
424.349 210.193 l
431.91 215.258 l
439.47 214.53 l
447.03 287.934 l
454.59 296.302 l
462.151 280.697 l
469.711 289.059 l
477.271 311.299 l
484.831 308.402 l
492.392 324.107 l
499.952 370.944 l
507.512 369.509 l
stroke
grestore
gsave
446.4 345.6 72 43.2 clipbox
200.566 67.6835 m
208.052 83.153 l
215.539 113.404 l
223.025 126.769 l
230.512 128.389 l
237.998 125.54 l
245.485 122.481 l
252.971 121.433 l
260.458 126.975 l
267.944 126.744 l
275.431 128.263 l
282.917 147.067 l
290.404 159.674 l
297.89 211.766 l
305.377 216.788 l
312.863 215.872 l
320.35 223.801 l
327.836 227.507 l
335.323 244.183 l
342.809 243.239 l
350.296 241.224 l
357.782 245.71 l
365.269 241.877 l
372.755 247.266 l
380.242 246.289 l
387.728 261.074 l
395.215 330.565 l
402.701 334.785 l
410.188 358.995 l
417.674 355.371 l
425.161 349.338 l
432.647 349.066 l
440.134 349.323 l
447.62 347.527 l
455.107 348.044 l
462.593 357.307 l
470.08 354.314 l
477.566 353.573 l
485.053 338.753 l
492.539 344.442 l
500.026 352.593 l
507.512 372.004 l
stroke
grestore
0.500 setlinewidth
0 setlinecap
0.000 setgray
gsave
/o {
gsave
newpath
translate
0.5 setlinewidth
1 setlinejoin
0 setlinecap
0 0 m
0 4 l
gsave
0.000 setgray
fill
grestore
stroke
grestore
} bind def
72 43.2 o
grestore
gsave
/o {
gsave
newpath
translate
0.5 setlinewidth
1 setlinejoin
0 setlinecap
0 0 m
0 -4 l
gsave
0.000 setgray
fill
grestore
stroke
grestore
} bind def
72 388.8 o
grestore
/DejaVuSans findfont
14.000 scalefont
setfont
gsave
58.429688 28.606250 translate
0.000000 rotate
0.000000 0.203125 m /minus glyphshow
11.730469 0.203125 m /four glyphshow
20.637695 0.203125 m /zero glyphshow
grestore
gsave
/o {
gsave
newpath
translate
0.5 setlinewidth
1 setlinejoin
0 setlinecap
0 0 m
0 4 l
gsave
0.000 setgray
fill
grestore
stroke
grestore
} bind def
126.439 43.2 o
grestore
gsave
/o {
gsave
newpath
translate
0.5 setlinewidth
1 setlinejoin
0 setlinecap
0 0 m
0 -4 l
gsave
0.000 setgray
fill
grestore
stroke
grestore
} bind def
126.439 388.8 o
grestore
gsave
113.017149 28.606250 translate
0.000000 rotate
0.000000 0.203125 m /minus glyphshow
11.730469 0.203125 m /three glyphshow
20.637695 0.203125 m /five glyphshow
grestore
gsave
/o {
gsave
newpath
translate
0.5 setlinewidth
1 setlinejoin
0 setlinecap
0 0 m
0 4 l
gsave
0.000 setgray
fill
grestore
stroke
grestore
} bind def
180.878 43.2 o
grestore
gsave
/o {
gsave
newpath
translate
0.5 setlinewidth
1 setlinejoin
0 setlinecap
0 0 m
0 -4 l
gsave
0.000 setgray
fill
grestore
stroke
grestore
} bind def
180.878 388.8 o
grestore
gsave
167.307736 28.606250 translate
0.000000 rotate
0.000000 0.203125 m /minus glyphshow
11.730469 0.203125 m /three glyphshow
20.637695 0.203125 m /zero glyphshow
grestore
gsave
/o {
gsave
newpath
translate
0.5 setlinewidth
1 setlinejoin
0 setlinecap
0 0 m
0 4 l
gsave
0.000 setgray
fill
grestore
stroke
grestore
} bind def
235.317 43.2 o
grestore
gsave
/o {
gsave
newpath
translate
0.5 setlinewidth
1 setlinejoin
0 setlinecap
0 0 m
0 -4 l
gsave
0.000 setgray
fill
grestore
stroke
grestore
} bind def
235.317 388.8 o
grestore
gsave
221.895198 28.606250 translate
0.000000 rotate
0.000000 0.203125 m /minus glyphshow
11.730469 0.203125 m /two glyphshow
20.637695 0.203125 m /five glyphshow
grestore
gsave
/o {
gsave
newpath
translate
0.5 setlinewidth
1 setlinejoin
0 setlinecap
0 0 m
0 4 l
gsave
0.000 setgray
fill
grestore
stroke
grestore
} bind def
289.756 43.2 o
grestore
gsave
/o {
gsave
newpath
translate
0.5 setlinewidth
1 setlinejoin
0 setlinecap
0 0 m
0 -4 l
gsave
0.000 setgray
fill
grestore
stroke
grestore
} bind def
289.756 388.8 o
grestore
gsave
276.185785 28.606250 translate
0.000000 rotate
0.000000 0.203125 m /minus glyphshow
11.730469 0.203125 m /two glyphshow
20.637695 0.203125 m /zero glyphshow
grestore
gsave
/o {
gsave
newpath
translate
0.5 setlinewidth
1 setlinejoin
0 setlinecap
0 0 m
0 4 l
gsave
0.000 setgray
fill
grestore
stroke
grestore
} bind def
344.195 43.2 o
grestore
gsave
/o {
gsave
newpath
translate
0.5 setlinewidth
1 setlinejoin
0 setlinecap
0 0 m
0 -4 l
gsave
0.000 setgray
fill
grestore
stroke
grestore
} bind def
344.195 388.8 o
grestore
gsave
330.773247 28.793750 translate
0.000000 rotate
0.000000 0.203125 m /minus glyphshow
11.730469 0.203125 m /one glyphshow
20.637695 0.203125 m /five glyphshow
grestore
gsave
/o {
gsave
newpath
translate
0.5 setlinewidth
1 setlinejoin
0 setlinecap
0 0 m
0 4 l
gsave
0.000 setgray
fill
grestore
stroke
grestore
} bind def
398.634 43.2 o
grestore
gsave
/o {
gsave
newpath
translate
0.5 setlinewidth
1 setlinejoin
0 setlinecap
0 0 m
0 -4 l
gsave
0.000 setgray
fill
grestore
stroke
grestore
} bind def
398.634 388.8 o
grestore
gsave
385.063834 28.606250 translate
0.000000 rotate
0.000000 0.203125 m /minus glyphshow
11.730469 0.203125 m /one glyphshow
20.637695 0.203125 m /zero glyphshow
grestore
gsave
/o {
gsave
newpath
translate
0.5 setlinewidth
1 setlinejoin
0 setlinecap
0 0 m
0 4 l
gsave
0.000 setgray
fill
grestore
stroke
grestore
} bind def
453.073 43.2 o
grestore
gsave
/o {
gsave
newpath
translate
0.5 setlinewidth
1 setlinejoin
0 setlinecap
0 0 m
0 -4 l
gsave
0.000 setgray
fill
grestore
stroke
grestore
} bind def
453.073 388.8 o
grestore
gsave
444.104421 28.793750 translate
0.000000 rotate
0.000000 0.203125 m /minus glyphshow
11.730469 0.203125 m /five glyphshow
grestore
gsave
/o {
gsave
newpath
translate
0.5 setlinewidth
1 setlinejoin
0 setlinecap
0 0 m
0 4 l
gsave
0.000 setgray
fill
grestore
stroke
grestore
} bind def
507.512 43.2 o
grestore
gsave
/o {
gsave
newpath
translate
0.5 setlinewidth
1 setlinejoin
0 setlinecap
0 0 m
0 -4 l
gsave
0.000 setgray
fill
grestore
stroke
grestore
} bind def
507.512 388.8 o
grestore
gsave
503.980945 28.606250 translate
0.000000 rotate
0.000000 0.203125 m /zero glyphshow
grestore
gsave
276.496875 12.856250 translate
0.000000 rotate
0.000000 2.906250 m /y glyphshow
8.285156 2.906250 m /e glyphshow
16.898438 2.906250 m /a glyphshow
25.477539 2.906250 m /r glyphshow
31.233398 2.906250 m /s glyphshow
grestore
gsave
/o {
gsave
newpath
translate
0.5 setlinewidth
1 setlinejoin
0 setlinecap
0 0 m
4 0 l
gsave
0.000 setgray
fill
grestore
stroke
grestore
} bind def
72 179.051 o
grestore
gsave
/o {
gsave
newpath
translate
0.5 setlinewidth
1 setlinejoin
0 setlinecap
0 0 m
-4 0 l
gsave
0.000 setgray
fill
grestore
stroke
grestore
} bind def
518.4 179.051 o
grestore
gsave
42.000000 170.551229 translate
0.000000 rotate
/DejaVuSans findfont
14.0 scalefont
setfont
0.000000 1.632812 moveto
/one glyphshow

8.907227 1.632812 moveto
/zero glyphshow

/DejaVuSans findfont
9.8 scalefont
setfont
17.814453 9.726562 moveto
/zero glyphshow


grestore
gsave
/o {
gsave
newpath
translate
0.5 setlinewidth
1 setlinejoin
0 setlinecap
0 0 m
4 0 l
gsave
0.000 setgray
fill
grestore
stroke
grestore
} bind def
72 373.41 o
grestore
gsave
/o {
gsave
newpath
translate
0.5 setlinewidth
1 setlinejoin
0 setlinecap
0 0 m
-4 0 l
gsave
0.000 setgray
fill
grestore
stroke
grestore
} bind def
518.4 373.41 o
grestore
gsave
42.000000 364.910399 translate
0.000000 rotate
/DejaVuSans findfont
14.0 scalefont
setfont
0.000000 1.764063 moveto
/one glyphshow

8.907227 1.764063 moveto
/zero glyphshow

/DejaVuSans findfont
9.8 scalefont
setfont
17.814453 9.857813 moveto
/one glyphshow


grestore
gsave
/o {
gsave
newpath
translate
0.5 setlinewidth
1 setlinejoin
0 setlinecap
0 0 m
2 0 l
gsave
0.000 setgray
fill
grestore
stroke
grestore
} bind def
72 43.2 o
grestore
gsave
/o {
gsave
newpath
translate
0.5 setlinewidth
1 setlinejoin
0 setlinecap
0 0 m
-2 0 l
gsave
0.000 setgray
fill
grestore
stroke
grestore
} bind def
518.4 43.2 o
grestore
gsave
/o {
gsave
newpath
translate
0.5 setlinewidth
1 setlinejoin
0 setlinecap
0 0 m
2 0 l
gsave
0.000 setgray
fill
grestore
stroke
grestore
} bind def
72 77.425 o
grestore
gsave
/o {
gsave
newpath
translate
0.5 setlinewidth
1 setlinejoin
0 setlinecap
0 0 m
-2 0 l
gsave
0.000 setgray
fill
grestore
stroke
grestore
} bind def
518.4 77.425 o
grestore
gsave
/o {
gsave
newpath
translate
0.5 setlinewidth
1 setlinejoin
0 setlinecap
0 0 m
2 0 l
gsave
0.000 setgray
fill
grestore
stroke
grestore
} bind def
72 101.708 o
grestore
gsave
/o {
gsave
newpath
translate
0.5 setlinewidth
1 setlinejoin
0 setlinecap
0 0 m
-2 0 l
gsave
0.000 setgray
fill
grestore
stroke
grestore
} bind def
518.4 101.708 o
grestore
gsave
/o {
gsave
newpath
translate
0.5 setlinewidth
1 setlinejoin
0 setlinecap
0 0 m
2 0 l
gsave
0.000 setgray
fill
grestore
stroke
grestore
} bind def
72 120.543 o
grestore
gsave
/o {
gsave
newpath
translate
0.5 setlinewidth
1 setlinejoin
0 setlinecap
0 0 m
-2 0 l
gsave
0.000 setgray
fill
grestore
stroke
grestore
} bind def
518.4 120.543 o
grestore
gsave
/o {
gsave
newpath
translate
0.5 setlinewidth
1 setlinejoin
0 setlinecap
0 0 m
2 0 l
gsave
0.000 setgray
fill
grestore
stroke
grestore
} bind def
72 135.933 o
grestore
gsave
/o {
gsave
newpath
translate
0.5 setlinewidth
1 setlinejoin
0 setlinecap
0 0 m
-2 0 l
gsave
0.000 setgray
fill
grestore
stroke
grestore
} bind def
518.4 135.933 o
grestore
gsave
/o {
gsave
newpath
translate
0.5 setlinewidth
1 setlinejoin
0 setlinecap
0 0 m
2 0 l
gsave
0.000 setgray
fill
grestore
stroke
grestore
} bind def
72 148.945 o
grestore
gsave
/o {
gsave
newpath
translate
0.5 setlinewidth
1 setlinejoin
0 setlinecap
0 0 m
-2 0 l
gsave
0.000 setgray
fill
grestore
stroke
grestore
} bind def
518.4 148.945 o
grestore
gsave
/o {
gsave
newpath
translate
0.5 setlinewidth
1 setlinejoin
0 setlinecap
0 0 m
2 0 l
gsave
0.000 setgray
fill
grestore
stroke
grestore
} bind def
72 160.216 o
grestore
gsave
/o {
gsave
newpath
translate
0.5 setlinewidth
1 setlinejoin
0 setlinecap
0 0 m
-2 0 l
gsave
0.000 setgray
fill
grestore
stroke
grestore
} bind def
518.4 160.216 o
grestore
gsave
/o {
gsave
newpath
translate
0.5 setlinewidth
1 setlinejoin
0 setlinecap
0 0 m
2 0 l
gsave
0.000 setgray
fill
grestore
stroke
grestore
} bind def
72 170.158 o
grestore
gsave
/o {
gsave
newpath
translate
0.5 setlinewidth
1 setlinejoin
0 setlinecap
0 0 m
-2 0 l
gsave
0.000 setgray
fill
grestore
stroke
grestore
} bind def
518.4 170.158 o
grestore
gsave
/o {
gsave
newpath
translate
0.5 setlinewidth
1 setlinejoin
0 setlinecap
0 0 m
2 0 l
gsave
0.000 setgray
fill
grestore
stroke
grestore
} bind def
72 237.559 o
grestore
gsave
/o {
gsave
newpath
translate
0.5 setlinewidth
1 setlinejoin
0 setlinecap
0 0 m
-2 0 l
gsave
0.000 setgray
fill
grestore
stroke
grestore
} bind def
518.4 237.559 o
grestore
gsave
/o {
gsave
newpath
translate
0.5 setlinewidth
1 setlinejoin
0 setlinecap
0 0 m
2 0 l
gsave
0.000 setgray
fill
grestore
stroke
grestore
} bind def
72 271.784 o
grestore
gsave
/o {
gsave
newpath
translate
0.5 setlinewidth
1 setlinejoin
0 setlinecap
0 0 m
-2 0 l
gsave
0.000 setgray
fill
grestore
stroke
grestore
} bind def
518.4 271.784 o
grestore
gsave
/o {
gsave
newpath
translate
0.5 setlinewidth
1 setlinejoin
0 setlinecap
0 0 m
2 0 l
gsave
0.000 setgray
fill
grestore
stroke
grestore
} bind def
72 296.067 o
grestore
gsave
/o {
gsave
newpath
translate
0.5 setlinewidth
1 setlinejoin
0 setlinecap
0 0 m
-2 0 l
gsave
0.000 setgray
fill
grestore
stroke
grestore
} bind def
518.4 296.067 o
grestore
gsave
/o {
gsave
newpath
translate
0.5 setlinewidth
1 setlinejoin
0 setlinecap
0 0 m
2 0 l
gsave
0.000 setgray
fill
grestore
stroke
grestore
} bind def
72 314.902 o
grestore
gsave
/o {
gsave
newpath
translate
0.5 setlinewidth
1 setlinejoin
0 setlinecap
0 0 m
-2 0 l
gsave
0.000 setgray
fill
grestore
stroke
grestore
} bind def
518.4 314.902 o
grestore
gsave
/o {
gsave
newpath
translate
0.5 setlinewidth
1 setlinejoin
0 setlinecap
0 0 m
2 0 l
gsave
0.000 setgray
fill
grestore
stroke
grestore
} bind def
72 330.292 o
grestore
gsave
/o {
gsave
newpath
translate
0.5 setlinewidth
1 setlinejoin
0 setlinecap
0 0 m
-2 0 l
gsave
0.000 setgray
fill
grestore
stroke
grestore
} bind def
518.4 330.292 o
grestore
gsave
/o {
gsave
newpath
translate
0.5 setlinewidth
1 setlinejoin
0 setlinecap
0 0 m
2 0 l
gsave
0.000 setgray
fill
grestore
stroke
grestore
} bind def
72 343.304 o
grestore
gsave
/o {
gsave
newpath
translate
0.5 setlinewidth
1 setlinejoin
0 setlinecap
0 0 m
-2 0 l
gsave
0.000 setgray
fill
grestore
stroke
grestore
} bind def
518.4 343.304 o
grestore
gsave
/o {
gsave
newpath
translate
0.5 setlinewidth
1 setlinejoin
0 setlinecap
0 0 m
2 0 l
gsave
0.000 setgray
fill
grestore
stroke
grestore
} bind def
72 354.575 o
grestore
gsave
/o {
gsave
newpath
translate
0.5 setlinewidth
1 setlinejoin
0 setlinecap
0 0 m
-2 0 l
gsave
0.000 setgray
fill
grestore
stroke
grestore
} bind def
518.4 354.575 o
grestore
gsave
/o {
gsave
newpath
translate
0.5 setlinewidth
1 setlinejoin
0 setlinecap
0 0 m
2 0 l
gsave
0.000 setgray
fill
grestore
stroke
grestore
} bind def
72 364.517 o
grestore
gsave
/o {
gsave
newpath
translate
0.5 setlinewidth
1 setlinejoin
0 setlinecap
0 0 m
-2 0 l
gsave
0.000 setgray
fill
grestore
stroke
grestore
} bind def
518.4 364.517 o
grestore
gsave
37.000000 131.117188 translate
90.000000 rotate
0.000000 2.906250 m /d glyphshow
8.886719 2.906250 m /i glyphshow
12.776367 2.906250 m /a glyphshow
21.355469 2.906250 m /m glyphshow
34.993164 2.906250 m /e glyphshow
43.606445 2.906250 m /t glyphshow
49.095703 2.906250 m /e glyphshow
57.708984 2.906250 m /r glyphshow
63.464844 2.906250 m /space glyphshow
67.915039 2.906250 m /parenleft glyphshow
73.376953 2.906250 m /c glyphshow
81.074219 2.906250 m /m glyphshow
94.711914 2.906250 m /comma glyphshow
99.162109 2.906250 m /space glyphshow
103.612305 2.906250 m /l glyphshow
107.501953 2.906250 m /o glyphshow
116.067383 2.906250 m /g glyphshow
124.954102 2.906250 m /space glyphshow
129.404297 2.906250 m /s glyphshow
136.698242 2.906250 m /c glyphshow
144.395508 2.906250 m /a glyphshow
152.974609 2.906250 m /l glyphshow
156.864258 2.906250 m /e glyphshow
165.477539 2.906250 m /parenright glyphshow
grestore
1.000 setlinewidth
2 setlinecap
gsave
72 388.8 m
518.4 388.8 l
stroke
grestore
gsave
518.4 43.2 m
518.4 388.8 l
stroke
grestore
gsave
72 43.2 m
518.4 43.2 l
stroke
grestore
gsave
72 43.2 m
72 388.8 l
stroke
grestore
/DejaVuSans findfont
16.800 scalefont
setfont
gsave
178.700000 390.268750 translate
0.000000 rotate
0.000000 3.531250 m /H glyphshow
12.630463 3.531250 m /i glyphshow
17.297165 3.531250 m /s glyphshow
26.048264 3.531250 m /t glyphshow
32.634140 3.531250 m /o glyphshow
42.910736 3.531250 m /r glyphshow
49.816483 3.531250 m /y glyphshow
59.756821 3.531250 m /space glyphshow
65.096054 3.531250 m /o glyphshow
75.372650 3.531250 m /f glyphshow
81.285995 3.531250 m /space glyphshow
86.625229 3.531250 m /s glyphshow
95.376328 3.531250 m /i glyphshow
100.043030 3.531250 m /m glyphshow
116.405212 3.531250 m /u glyphshow
127.050888 3.531250 m /l glyphshow
131.717590 3.531250 m /a glyphshow
142.010590 3.531250 m /t glyphshow
148.596466 3.531250 m /e glyphshow
158.930481 3.531250 m /d glyphshow
169.592560 3.531250 m /space glyphshow
174.931793 3.531250 m /t glyphshow
181.517670 3.531250 m /u glyphshow
192.163345 3.531250 m /m glyphshow
208.525528 3.531250 m /o glyphshow
218.802124 3.531250 m /r glyphshow
225.707870 3.531250 m /s glyphshow
grestore

end
showpage
