%!PS-Adobe-3.0 EPSF-3.0
%%Title: sat_posteriors_eff.eps
%%Creator: matplotlib version 1.2.1, http://matplotlib.org/
%%CreationDate: Fri Jul  5 12:11:02 2013
%%Orientation: portrait
%%BoundingBox: 90 180 522 612
%%EndComments
%%BeginProlog
/mpldict 8 dict def
mpldict begin
/m { moveto } bind def
/l { lineto } bind def
/r { rlineto } bind def
/c { curveto } bind def
/cl { closepath } bind def
/box {
m
1 index 0 r
0 exch r
neg 0 r
cl
} bind def
/clipbox {
box
clip
newpath
} bind def
%!PS-Adobe-3.0 Resource-Font
%%Title: DejaVu Sans
%%Copyright: Copyright (c) 2003 by Bitstream, Inc. All Rights Reserved. Copyright (c) 2006 by Tavmjong Bah. All Rights Reserved. DejaVu changes are in public domain 
%%Creator: Converted from TrueType to type 3 by PPR
25 dict begin
/_d{bind def}bind def
/_m{moveto}_d
/_l{lineto}_d
/_cl{closepath eofill}_d
/_c{curveto}_d
/_sc{7 -1 roll{setcachedevice}{pop pop pop pop pop pop}ifelse}_d
/_e{exec}_d
/FontName /DejaVuSans def
/PaintType 0 def
/FontMatrix[.001 0 0 .001 0 0]def
/FontBBox[-1021 -415 1681 1167]def
/FontType 3 def
/Encoding [ /space /period /zero /one /two /three /four /six /seven /eight /C /D /F /a /c /e /f /i /o /p /r /s /t /y ] def
/FontInfo 10 dict dup begin
/FamilyName (DejaVu Sans) def
/FullName (DejaVu Sans) def
/Notice (Copyright (c) 2003 by Bitstream, Inc. All Rights Reserved. Copyright (c) 2006 by Tavmjong Bah. All Rights Reserved. DejaVu changes are in public domain ) def
/Weight (Book) def
/Version (Version 2.33) def
/ItalicAngle 0.0 def
/isFixedPitch false def
/UnderlinePosition -130 def
/UnderlineThickness 90 def
end readonly def
/CharStrings 24 dict dup begin
/space{318 0 0 0 0 0 _sc
}_d
/period{318 0 107 0 210 124 _sc
107 124 _m
210 124 _l
210 0 _l
107 0 _l
107 124 _l
_cl}_d
/zero{636 0 66 -13 570 742 _sc
318 664 _m
267 664 229 639 203 589 _c
177 539 165 464 165 364 _c
165 264 177 189 203 139 _c
229 89 267 64 318 64 _c
369 64 407 89 433 139 _c
458 189 471 264 471 364 _c
471 464 458 539 433 589 _c
407 639 369 664 318 664 _c
318 742 _m
399 742 461 709 505 645 _c
548 580 570 486 570 364 _c
570 241 548 147 505 83 _c
461 19 399 -13 318 -13 _c
236 -13 173 19 130 83 _c
87 147 66 241 66 364 _c
66 486 87 580 130 645 _c
173 709 236 742 318 742 _c
_cl}_d
/one{636 0 110 0 544 729 _sc
124 83 _m
285 83 _l
285 639 _l
110 604 _l
110 694 _l
284 729 _l
383 729 _l
383 83 _l
544 83 _l
544 0 _l
124 0 _l
124 83 _l
_cl}_d
/two{{636 0 73 0 536 742 _sc
192 83 _m
536 83 _l
536 0 _l
73 0 _l
73 83 _l
110 121 161 173 226 239 _c
290 304 331 346 348 365 _c
380 400 402 430 414 455 _c
426 479 433 504 433 528 _c
433 566 419 598 392 622 _c
365 646 330 659 286 659 _c
255 659 222 653 188 643 _c
154 632 117 616 78 594 _c
78 694 _l
118 710 155 722 189 730 _c
223 738 255 742 284 742 _c
}_e{359 742 419 723 464 685 _c
509 647 532 597 532 534 _c
532 504 526 475 515 449 _c
504 422 484 390 454 354 _c
446 344 420 317 376 272 _c
332 227 271 164 192 83 _c
_cl}_e}_d
/three{{636 0 76 -13 556 742 _sc
406 393 _m
453 383 490 362 516 330 _c
542 298 556 258 556 212 _c
556 140 531 84 482 45 _c
432 6 362 -13 271 -13 _c
240 -13 208 -10 176 -4 _c
144 1 110 10 76 22 _c
76 117 _l
103 101 133 89 166 81 _c
198 73 232 69 268 69 _c
330 69 377 81 409 105 _c
441 129 458 165 458 212 _c
458 254 443 288 413 312 _c
383 336 341 349 287 349 _c
}_e{202 349 _l
202 430 _l
291 430 _l
339 430 376 439 402 459 _c
428 478 441 506 441 543 _c
441 580 427 609 401 629 _c
374 649 336 659 287 659 _c
260 659 231 656 200 650 _c
169 644 135 635 98 623 _c
98 711 _l
135 721 170 729 203 734 _c
235 739 266 742 296 742 _c
370 742 429 725 473 691 _c
517 657 539 611 539 553 _c
539 513 527 479 504 451 _c
481 423 448 403 406 393 _c
_cl}_e}_d
/four{636 0 49 0 580 729 _sc
378 643 _m
129 254 _l
378 254 _l
378 643 _l
352 729 _m
476 729 _l
476 254 _l
580 254 _l
580 172 _l
476 172 _l
476 0 _l
378 0 _l
378 172 _l
49 172 _l
49 267 _l
352 729 _l
_cl}_d
/six{{636 0 70 -13 573 742 _sc
330 404 _m
286 404 251 388 225 358 _c
199 328 186 286 186 234 _c
186 181 199 139 225 109 _c
251 79 286 64 330 64 _c
374 64 409 79 435 109 _c
461 139 474 181 474 234 _c
474 286 461 328 435 358 _c
409 388 374 404 330 404 _c
526 713 _m
526 623 _l
501 635 476 644 451 650 _c
425 656 400 659 376 659 _c
310 659 260 637 226 593 _c
}_e{192 549 172 482 168 394 _c
187 422 211 444 240 459 _c
269 474 301 482 336 482 _c
409 482 467 459 509 415 _c
551 371 573 310 573 234 _c
573 159 550 99 506 54 _c
462 9 403 -13 330 -13 _c
246 -13 181 19 137 83 _c
92 147 70 241 70 364 _c
70 479 97 571 152 639 _c
206 707 280 742 372 742 _c
396 742 421 739 447 735 _c
472 730 498 723 526 713 _c
_cl}_e}_d
/seven{636 0 82 0 551 729 _sc
82 729 _m
551 729 _l
551 687 _l
286 0 _l
183 0 _l
432 646 _l
82 646 _l
82 729 _l
_cl}_d
/eight{{636 0 68 -13 568 742 _sc
318 346 _m
271 346 234 333 207 308 _c
180 283 167 249 167 205 _c
167 161 180 126 207 101 _c
234 76 271 64 318 64 _c
364 64 401 76 428 102 _c
455 127 469 161 469 205 _c
469 249 455 283 429 308 _c
402 333 365 346 318 346 _c
219 388 _m
177 398 144 418 120 447 _c
96 476 85 511 85 553 _c
85 611 105 657 147 691 _c
188 725 245 742 318 742 _c
}_e{390 742 447 725 489 691 _c
530 657 551 611 551 553 _c
551 511 539 476 515 447 _c
491 418 459 398 417 388 _c
464 377 501 355 528 323 _c
554 291 568 251 568 205 _c
568 134 546 80 503 43 _c
459 5 398 -13 318 -13 _c
237 -13 175 5 132 43 _c
89 80 68 134 68 205 _c
68 251 81 291 108 323 _c
134 355 171 377 219 388 _c
183 544 _m
183 506 194 476 218 455 _c
}_e{242 434 275 424 318 424 _c
360 424 393 434 417 455 _c
441 476 453 506 453 544 _c
453 582 441 611 417 632 _c
393 653 360 664 318 664 _c
275 664 242 653 218 632 _c
194 611 183 582 183 544 _c
_cl}_e}_d
/C{{698 0 56 -13 644 742 _sc
644 673 _m
644 569 _l
610 599 575 622 537 638 _c
499 653 460 661 418 661 _c
334 661 270 635 226 584 _c
182 533 160 460 160 364 _c
160 268 182 194 226 143 _c
270 92 334 67 418 67 _c
460 67 499 74 537 90 _c
575 105 610 128 644 159 _c
644 56 _l
609 32 572 15 534 4 _c
496 -7 455 -13 412 -13 _c
302 -13 215 20 151 87 _c
}_e{87 154 56 246 56 364 _c
56 481 87 573 151 641 _c
215 708 302 742 412 742 _c
456 742 497 736 535 725 _c
573 713 610 696 644 673 _c
_cl}_e}_d
/D{770 0 98 0 711 729 _sc
197 648 _m
197 81 _l
316 81 _l
416 81 490 103 537 149 _c
583 195 607 267 607 365 _c
607 463 583 534 537 580 _c
490 625 416 648 316 648 _c
197 648 _l
98 729 _m
301 729 _l
442 729 546 699 612 641 _c
678 582 711 490 711 365 _c
711 239 677 147 611 88 _c
545 29 441 0 301 0 _c
98 0 _l
98 729 _l
_cl}_d
/F{575 0 98 0 517 729 _sc
98 729 _m
517 729 _l
517 646 _l
197 646 _l
197 431 _l
486 431 _l
486 348 _l
197 348 _l
197 0 _l
98 0 _l
98 729 _l
_cl}_d
/a{{613 0 60 -13 522 560 _sc
343 275 _m
270 275 220 266 192 250 _c
164 233 150 205 150 165 _c
150 133 160 107 181 89 _c
202 70 231 61 267 61 _c
317 61 357 78 387 114 _c
417 149 432 196 432 255 _c
432 275 _l
343 275 _l
522 312 _m
522 0 _l
432 0 _l
432 83 _l
411 49 385 25 355 10 _c
325 -5 287 -13 243 -13 _c
187 -13 142 2 109 33 _c
76 64 60 106 60 159 _c
}_e{60 220 80 266 122 298 _c
163 329 224 345 306 345 _c
432 345 _l
432 354 _l
432 395 418 427 391 450 _c
364 472 326 484 277 484 _c
245 484 215 480 185 472 _c
155 464 127 453 100 439 _c
100 522 _l
132 534 164 544 195 550 _c
226 556 256 560 286 560 _c
365 560 424 539 463 498 _c
502 457 522 395 522 312 _c
_cl}_e}_d
/c{{550 0 55 -13 488 560 _sc
488 526 _m
488 442 _l
462 456 437 466 411 473 _c
385 480 360 484 334 484 _c
276 484 230 465 198 428 _c
166 391 150 339 150 273 _c
150 206 166 154 198 117 _c
230 80 276 62 334 62 _c
360 62 385 65 411 72 _c
437 79 462 90 488 104 _c
488 21 _l
462 9 436 0 410 -5 _c
383 -10 354 -13 324 -13 _c
242 -13 176 12 128 64 _c
}_e{79 115 55 185 55 273 _c
55 362 79 432 128 483 _c
177 534 244 560 330 560 _c
358 560 385 557 411 551 _c
437 545 463 537 488 526 _c
_cl}_e}_d
/e{{615 0 55 -13 562 560 _sc
562 296 _m
562 252 _l
149 252 _l
153 190 171 142 205 110 _c
238 78 284 62 344 62 _c
378 62 412 66 444 74 _c
476 82 509 95 541 113 _c
541 28 _l
509 14 476 3 442 -3 _c
408 -9 373 -13 339 -13 _c
251 -13 182 12 131 62 _c
80 112 55 181 55 268 _c
55 357 79 428 127 481 _c
175 533 241 560 323 560 _c
397 560 455 536 498 489 _c
}_e{540 441 562 377 562 296 _c
472 322 _m
471 371 457 410 431 440 _c
404 469 368 484 324 484 _c
274 484 234 469 204 441 _c
174 413 156 373 152 322 _c
472 322 _l
_cl}_e}_d
/f{352 0 23 0 371 760 _sc
371 760 _m
371 685 _l
285 685 _l
253 685 230 678 218 665 _c
205 652 199 629 199 595 _c
199 547 _l
347 547 _l
347 477 _l
199 477 _l
199 0 _l
109 0 _l
109 477 _l
23 477 _l
23 547 _l
109 547 _l
109 585 _l
109 645 123 690 151 718 _c
179 746 224 760 286 760 _c
371 760 _l
_cl}_d
/i{278 0 94 0 184 760 _sc
94 547 _m
184 547 _l
184 0 _l
94 0 _l
94 547 _l
94 760 _m
184 760 _l
184 646 _l
94 646 _l
94 760 _l
_cl}_d
/o{612 0 55 -13 557 560 _sc
306 484 _m
258 484 220 465 192 427 _c
164 389 150 338 150 273 _c
150 207 163 156 191 118 _c
219 80 257 62 306 62 _c
354 62 392 80 420 118 _c
448 156 462 207 462 273 _c
462 337 448 389 420 427 _c
392 465 354 484 306 484 _c
306 560 _m
384 560 445 534 490 484 _c
534 433 557 363 557 273 _c
557 183 534 113 490 63 _c
445 12 384 -13 306 -13 _c
227 -13 165 12 121 63 _c
77 113 55 183 55 273 _c
55 363 77 433 121 484 _c
165 534 227 560 306 560 _c
_cl}_d
/p{{635 0 91 -207 580 560 _sc
181 82 _m
181 -207 _l
91 -207 _l
91 547 _l
181 547 _l
181 464 _l
199 496 223 520 252 536 _c
281 552 316 560 356 560 _c
422 560 476 533 518 481 _c
559 428 580 359 580 273 _c
580 187 559 117 518 65 _c
476 13 422 -13 356 -13 _c
316 -13 281 -5 252 10 _c
223 25 199 49 181 82 _c
487 273 _m
487 339 473 390 446 428 _c
418 466 381 485 334 485 _c
}_e{286 485 249 466 222 428 _c
194 390 181 339 181 273 _c
181 207 194 155 222 117 _c
249 79 286 61 334 61 _c
381 61 418 79 446 117 _c
473 155 487 207 487 273 _c
_cl}_e}_d
/r{411 0 91 0 411 560 _sc
411 463 _m
401 469 390 473 378 476 _c
366 478 353 480 339 480 _c
288 480 249 463 222 430 _c
194 397 181 350 181 288 _c
181 0 _l
91 0 _l
91 547 _l
181 547 _l
181 462 _l
199 495 224 520 254 536 _c
284 552 321 560 365 560 _c
371 560 378 559 386 559 _c
393 558 401 557 411 555 _c
411 463 _l
_cl}_d
/s{{521 0 54 -13 472 560 _sc
443 531 _m
443 446 _l
417 458 391 468 364 475 _c
336 481 308 485 279 485 _c
234 485 200 478 178 464 _c
156 450 145 430 145 403 _c
145 382 153 366 169 354 _c
185 342 217 330 265 320 _c
296 313 _l
360 299 405 279 432 255 _c
458 230 472 195 472 151 _c
472 100 452 60 412 31 _c
372 1 316 -13 246 -13 _c
216 -13 186 -10 154 -5 _c
}_e{122 0 89 8 54 20 _c
54 113 _l
87 95 120 82 152 74 _c
184 65 216 61 248 61 _c
290 61 323 68 346 82 _c
368 96 380 117 380 144 _c
380 168 371 187 355 200 _c
339 213 303 226 247 238 _c
216 245 _l
160 257 119 275 95 299 _c
70 323 58 356 58 399 _c
58 450 76 490 112 518 _c
148 546 200 560 268 560 _c
301 560 332 557 362 552 _c
391 547 418 540 443 531 _c
}_e{_cl}_e}_d
/t{392 0 27 0 368 702 _sc
183 702 _m
183 547 _l
368 547 _l
368 477 _l
183 477 _l
183 180 _l
183 135 189 106 201 94 _c
213 81 238 75 276 75 _c
368 75 _l
368 0 _l
276 0 _l
206 0 158 13 132 39 _c
106 65 93 112 93 180 _c
93 477 _l
27 477 _l
27 547 _l
93 547 _l
93 702 _l
183 702 _l
_cl}_d
/y{592 0 30 -207 562 547 _sc
322 -50 _m
296 -114 271 -157 247 -177 _c
223 -197 191 -207 151 -207 _c
79 -207 _l
79 -132 _l
132 -132 _l
156 -132 175 -126 189 -114 _c
203 -102 218 -75 235 -31 _c
251 9 _l
30 547 _l
125 547 _l
296 119 _l
467 547 _l
562 547 _l
322 -50 _l
_cl}_d
end readonly def

/BuildGlyph
 {exch begin
 CharStrings exch
 2 copy known not{pop /.notdef}if
 true 3 1 roll get exec
 end}_d

/BuildChar {
 1 index /Encoding get exch get
 1 index /BuildGlyph get exec
}_d

FontName currentdict end definefont pop
end
%%EndProlog
mpldict begin
90 180 translate
432 432 0 0 clipbox
gsave
0 0 m
432 0 l
432 432 l
0 432 l
cl
1.000 setgray
fill
grestore
gsave
54 43.2 m
388.8 43.2 l
388.8 388.8 l
54 388.8 l
cl
1.000 setgray
fill
grestore
3.000 setlinewidth
1 setlinejoin
2 setlinecap
[] 0 setdash
0.145 0.204 0.580 setrgbcolor
gsave
334.8 345.6 54 43.2 clipbox
50.7248 43.2 m
54 43.2 l
54 43.2 l
54 43.2 l
54 43.2 l
185.009 43.3009 l
185.009 43.3496 l
191.559 43.4186 l
191.559 43.5151 l
194.834 43.5151 l
194.834 43.6478 l
198.11 43.6478 l
198.11 43.8281 l
201.385 43.8281 l
201.385 44.0697 l
204.66 44.0697 l
204.66 44.3888 l
207.935 44.3888 l
207.935 44.8052 l
211.21 44.8052 l
211.21 45.3412 l
214.486 45.3412 l
214.486 46.023 l
217.761 46.023 l
217.761 46.8794 l
221.036 46.8794 l
221.036 47.9425 l
224.311 47.9425 l
224.311 49.2469 l
227.587 49.2469 l
227.587 50.8293 l
230.862 50.8293 l
230.862 52.728 l
234.137 52.728 l
234.137 54.9817 l
237.412 54.9817 l
237.412 57.6289 l
240.687 57.6289 l
240.687 60.7069 l
243.963 60.7069 l
243.963 64.2504 l
247.238 64.2504 l
247.238 68.2907 l
250.513 68.2907 l
250.513 72.8542 l
253.788 72.8542 l
253.788 77.9622 l
257.063 77.9622 l
257.063 83.6289 l
260.339 83.6289 l
260.339 89.8618 l
263.614 89.8618 l
263.614 96.6604 l
266.889 96.6604 l
266.889 104.016 l
270.164 104.016 l
270.164 111.912 l
273.44 111.912 l
273.44 120.323 l
276.715 120.323 l
276.715 129.217 l
279.99 129.217 l
279.99 138.553 l
283.265 138.553 l
283.265 148.287 l
286.54 148.287 l
286.54 158.366 l
289.816 158.366 l
289.816 168.735 l
293.091 168.735 l
293.091 179.334 l
296.366 179.334 l
296.366 190.101 l
299.641 190.101 l
299.641 200.975 l
302.917 200.975 l
302.917 211.892 l
306.192 211.892 l
306.192 222.792 l
309.467 222.792 l
309.467 233.615 l
312.742 233.615 l
312.742 244.306 l
316.017 244.306 l
316.017 254.813 l
319.293 254.813 l
319.293 265.087 l
322.568 265.087 l
322.568 275.086 l
325.843 275.086 l
325.843 284.772 l
329.118 284.772 l
329.118 294.113 l
332.393 294.113 l
332.393 303.081 l
335.669 303.081 l
335.669 311.656 l
338.944 311.656 l
338.944 319.821 l
342.219 319.821 l
342.219 327.565 l
345.494 327.565 l
345.494 334.881 l
348.77 334.881 l
348.77 341.767 l
352.045 341.767 l
352.045 348.225 l
355.32 348.225 l
355.32 354.261 l
358.595 354.261 l
358.595 359.882 l
361.87 359.882 l
361.87 365.1 l
365.146 365.1 l
365.146 369.929 l
368.421 369.929 l
368.421 374.383 l
371.696 374.383 l
371.696 378.479 l
374.971 378.479 l
374.971 382.235 l
378.247 382.235 l
378.247 385.669 l
381.522 385.669 l
381.522 388.8 l
381.522 388.8 l
stroke
grestore
0.114 0.569 0.753 setrgbcolor
gsave
334.8 345.6 54 43.2 clipbox
50.7248 43.2 m
54 43.2 l
54 43.2 l
54 43.2 l
54 43.2 l
158.807 43.3017 l
158.807 43.3569 l
165.357 43.4384 l
165.357 43.5563 l
168.633 43.5563 l
168.633 43.7241 l
171.908 43.7241 l
171.908 43.9592 l
175.183 43.9592 l
175.183 44.2831 l
178.458 44.2831 l
178.458 44.7224 l
181.733 44.7224 l
181.733 45.3091 l
185.009 45.3091 l
185.009 46.0808 l
188.284 46.0808 l
188.284 47.0805 l
191.559 47.0805 l
191.559 48.3571 l
194.834 48.3571 l
194.834 49.9638 l
198.11 49.9638 l
198.11 51.9578 l
201.385 51.9578 l
201.385 54.3988 l
204.66 54.3988 l
204.66 57.347 l
207.935 57.347 l
207.935 60.8615 l
211.21 60.8615 l
211.21 64.9976 l
214.486 64.9976 l
214.486 69.8047 l
217.761 69.8047 l
217.761 75.3238 l
221.036 75.3238 l
221.036 81.5851 l
224.311 81.5851 l
224.311 88.6065 l
227.587 88.6065 l
227.587 96.3915 l
230.862 96.3915 l
230.862 104.928 l
234.137 104.928 l
234.137 114.189 l
237.412 114.189 l
237.412 124.131 l
240.687 124.131 l
240.687 134.695 l
243.963 134.695 l
243.963 145.811 l
247.238 145.811 l
247.238 157.393 l
250.513 157.393 l
250.513 169.351 l
253.788 169.351 l
253.788 181.582 l
257.063 181.582 l
257.063 193.984 l
260.339 193.984 l
260.339 206.45 l
263.614 206.45 l
263.614 218.878 l
266.889 218.878 l
266.889 231.167 l
270.164 231.167 l
270.164 243.222 l
273.44 243.222 l
273.44 254.96 l
276.715 254.96 l
276.715 266.302 l
279.99 266.302 l
279.99 277.185 l
283.265 277.185 l
283.265 287.554 l
286.54 287.554 l
286.54 297.367 l
289.816 297.367 l
289.816 306.593 l
293.091 306.593 l
293.091 315.212 l
296.366 315.212 l
296.366 323.214 l
299.641 323.214 l
299.641 330.6 l
302.917 330.6 l
302.917 337.377 l
306.192 337.377 l
306.192 343.561 l
309.467 343.561 l
309.467 349.173 l
312.742 349.173 l
312.742 354.24 l
316.017 354.24 l
316.017 358.79 l
319.293 358.79 l
319.293 362.857 l
322.568 362.857 l
322.568 366.474 l
325.843 366.474 l
325.843 369.676 l
329.118 369.676 l
329.118 372.499 l
332.393 372.499 l
332.393 374.976 l
335.669 374.976 l
335.669 377.14 l
338.944 377.14 l
338.944 379.023 l
342.219 379.023 l
342.219 380.656 l
345.494 380.656 l
345.494 382.065 l
348.77 382.065 l
348.77 383.278 l
352.045 383.278 l
352.045 384.317 l
355.32 384.317 l
355.32 385.205 l
358.595 385.205 l
358.595 385.961 l
361.87 385.961 l
361.87 386.602 l
365.146 386.602 l
365.146 387.144 l
368.421 387.144 l
368.421 387.601 l
371.696 387.601 l
371.696 387.985 l
374.971 387.985 l
374.971 388.307 l
378.247 388.307 l
378.247 388.576 l
381.522 388.576 l
381.522 388.8 l
381.522 388.8 l
stroke
grestore
0.500 setlinewidth
0 setlinecap
0.000 setgray
gsave
/o {
gsave
newpath
translate
0.5 setlinewidth
1 setlinejoin
0 setlinecap
0 0 m
0 4 l
gsave
0.000 setgray
fill
grestore
stroke
grestore
} bind def
54 43.2 o
grestore
gsave
/o {
gsave
newpath
translate
0.5 setlinewidth
1 setlinejoin
0 setlinecap
0 0 m
0 -4 l
gsave
0.000 setgray
fill
grestore
stroke
grestore
} bind def
54 388.8 o
grestore
/DejaVuSans findfont
14.000 scalefont
setfont
gsave
50.468750 28.606250 translate
0.000000 rotate
0.000000 0.203125 m /zero glyphshow
grestore
gsave
/o {
gsave
newpath
translate
0.5 setlinewidth
1 setlinejoin
0 setlinecap
0 0 m
0 4 l
gsave
0.000 setgray
fill
grestore
stroke
grestore
} bind def
126.783 43.2 o
grestore
gsave
/o {
gsave
newpath
translate
0.5 setlinewidth
1 setlinejoin
0 setlinecap
0 0 m
0 -4 l
gsave
0.000 setgray
fill
grestore
stroke
grestore
} bind def
126.783 388.8 o
grestore
gsave
123.751359 28.996875 translate
0.000000 rotate
0.000000 0.000000 m /one glyphshow
grestore
gsave
/o {
gsave
newpath
translate
0.5 setlinewidth
1 setlinejoin
0 setlinecap
0 0 m
0 4 l
gsave
0.000 setgray
fill
grestore
stroke
grestore
} bind def
199.565 43.2 o
grestore
gsave
/o {
gsave
newpath
translate
0.5 setlinewidth
1 setlinejoin
0 setlinecap
0 0 m
0 -4 l
gsave
0.000 setgray
fill
grestore
stroke
grestore
} bind def
199.565 388.8 o
grestore
gsave
196.330842 28.809375 translate
0.000000 rotate
0.000000 0.000000 m /two glyphshow
grestore
gsave
/o {
gsave
newpath
translate
0.5 setlinewidth
1 setlinejoin
0 setlinecap
0 0 m
0 4 l
gsave
0.000 setgray
fill
grestore
stroke
grestore
} bind def
272.348 43.2 o
grestore
gsave
/o {
gsave
newpath
translate
0.5 setlinewidth
1 setlinejoin
0 setlinecap
0 0 m
0 -4 l
gsave
0.000 setgray
fill
grestore
stroke
grestore
} bind def
272.348 388.8 o
grestore
gsave
268.988451 28.606250 translate
0.000000 rotate
0.000000 0.203125 m /three glyphshow
grestore
gsave
/o {
gsave
newpath
translate
0.5 setlinewidth
1 setlinejoin
0 setlinecap
0 0 m
0 4 l
gsave
0.000 setgray
fill
grestore
stroke
grestore
} bind def
345.13 43.2 o
grestore
gsave
/o {
gsave
newpath
translate
0.5 setlinewidth
1 setlinejoin
0 setlinecap
0 0 m
0 -4 l
gsave
0.000 setgray
fill
grestore
stroke
grestore
} bind def
345.13 388.8 o
grestore
gsave
341.411685 28.996875 translate
0.000000 rotate
0.000000 0.000000 m /four glyphshow
grestore
gsave
194.673438 10.059375 translate
0.000000 rotate
0.000000 2.906250 m /e glyphshow
8.613281 2.906250 m /f glyphshow
13.541992 2.906250 m /f glyphshow
18.470703 2.906250 m /i glyphshow
22.360352 2.906250 m /c glyphshow
30.057617 2.906250 m /a glyphshow
38.636719 2.906250 m /c glyphshow
46.333984 2.906250 m /y glyphshow
grestore
gsave
/o {
gsave
newpath
translate
0.5 setlinewidth
1 setlinejoin
0 setlinecap
0 0 m
4 0 l
gsave
0.000 setgray
fill
grestore
stroke
grestore
} bind def
54 43.2 o
grestore
gsave
/o {
gsave
newpath
translate
0.5 setlinewidth
1 setlinejoin
0 setlinecap
0 0 m
-4 0 l
gsave
0.000 setgray
fill
grestore
stroke
grestore
} bind def
388.8 43.2 o
grestore
gsave
29.578125 37.903125 translate
0.000000 rotate
0.000000 0.203125 m /zero glyphshow
8.907227 0.203125 m /period glyphshow
13.357422 0.203125 m /zero glyphshow
grestore
gsave
/o {
gsave
newpath
translate
0.5 setlinewidth
1 setlinejoin
0 setlinecap
0 0 m
4 0 l
gsave
0.000 setgray
fill
grestore
stroke
grestore
} bind def
54 112.32 o
grestore
gsave
/o {
gsave
newpath
translate
0.5 setlinewidth
1 setlinejoin
0 setlinecap
0 0 m
-4 0 l
gsave
0.000 setgray
fill
grestore
stroke
grestore
} bind def
388.8 112.32 o
grestore
gsave
30.062500 107.023125 translate
0.000000 rotate
0.000000 0.203125 m /zero glyphshow
8.907227 0.203125 m /period glyphshow
13.357422 0.203125 m /two glyphshow
grestore
gsave
/o {
gsave
newpath
translate
0.5 setlinewidth
1 setlinejoin
0 setlinecap
0 0 m
4 0 l
gsave
0.000 setgray
fill
grestore
stroke
grestore
} bind def
54 181.44 o
grestore
gsave
/o {
gsave
newpath
translate
0.5 setlinewidth
1 setlinejoin
0 setlinecap
0 0 m
-4 0 l
gsave
0.000 setgray
fill
grestore
stroke
grestore
} bind def
388.8 181.44 o
grestore
gsave
29.437500 176.143125 translate
0.000000 rotate
0.000000 0.203125 m /zero glyphshow
8.907227 0.203125 m /period glyphshow
13.357422 0.203125 m /four glyphshow
grestore
gsave
/o {
gsave
newpath
translate
0.5 setlinewidth
1 setlinejoin
0 setlinecap
0 0 m
4 0 l
gsave
0.000 setgray
fill
grestore
stroke
grestore
} bind def
54 250.56 o
grestore
gsave
/o {
gsave
newpath
translate
0.5 setlinewidth
1 setlinejoin
0 setlinecap
0 0 m
-4 0 l
gsave
0.000 setgray
fill
grestore
stroke
grestore
} bind def
388.8 250.56 o
grestore
gsave
29.531250 245.263125 translate
0.000000 rotate
0.000000 0.203125 m /zero glyphshow
8.907227 0.203125 m /period glyphshow
13.357422 0.203125 m /six glyphshow
grestore
gsave
/o {
gsave
newpath
translate
0.5 setlinewidth
1 setlinejoin
0 setlinecap
0 0 m
4 0 l
gsave
0.000 setgray
fill
grestore
stroke
grestore
} bind def
54 319.68 o
grestore
gsave
/o {
gsave
newpath
translate
0.5 setlinewidth
1 setlinejoin
0 setlinecap
0 0 m
-4 0 l
gsave
0.000 setgray
fill
grestore
stroke
grestore
} bind def
388.8 319.68 o
grestore
gsave
29.609375 314.383125 translate
0.000000 rotate
0.000000 0.203125 m /zero glyphshow
8.907227 0.203125 m /period glyphshow
13.357422 0.203125 m /eight glyphshow
grestore
gsave
/o {
gsave
newpath
translate
0.5 setlinewidth
1 setlinejoin
0 setlinecap
0 0 m
4 0 l
gsave
0.000 setgray
fill
grestore
stroke
grestore
} bind def
54 388.8 o
grestore
gsave
/o {
gsave
newpath
translate
0.5 setlinewidth
1 setlinejoin
0 setlinecap
0 0 m
-4 0 l
gsave
0.000 setgray
fill
grestore
stroke
grestore
} bind def
388.8 388.8 o
grestore
gsave
30.203125 383.503125 translate
0.000000 rotate
0.000000 0.203125 m /one glyphshow
8.907227 0.203125 m /period glyphshow
13.357422 0.203125 m /zero glyphshow
grestore
gsave
24.437500 202.492188 translate
90.000000 rotate
0.000000 0.203125 m /C glyphshow
9.775391 0.203125 m /D glyphshow
20.555664 0.203125 m /F glyphshow
grestore
1.000 setlinewidth
2 setlinecap
gsave
54 388.8 m
388.8 388.8 l
stroke
grestore
gsave
388.8 43.2 m
388.8 388.8 l
stroke
grestore
gsave
54 43.2 m
388.8 43.2 l
stroke
grestore
gsave
54 43.2 m
54 388.8 l
stroke
grestore
gsave
62.4 325.654 m
234.255 325.654 l
234.255 380.4 l
62.4 380.4 l
62.4 325.654 l
cl
gsave
1.000 setgray
fill
grestore
stroke
grestore
3.000 setlinewidth
0.145 0.204 0.580 setrgbcolor
gsave
74.16 366.638 m
97.68 366.638 l
stroke
grestore
0.000 setgray
/DejaVuSans findfont
16.800 scalefont
setfont
gsave
116.160000 357.226875 translate
0.000000 rotate
0.000000 3.531250 m /p glyphshow
10.662079 3.531250 m /o glyphshow
20.938675 3.531250 m /s glyphshow
29.689774 3.531250 m /t glyphshow
36.275650 3.531250 m /e glyphshow
46.609665 3.531250 m /r glyphshow
53.515411 3.531250 m /i glyphshow
58.182114 3.531250 m /o glyphshow
68.458710 3.531250 m /r glyphshow
75.364456 3.531250 m /space glyphshow
80.703690 3.531250 m /seven glyphshow
91.390366 3.531250 m /eight glyphshow
102.077042 3.531250 m /zero glyphshow
grestore
0.114 0.569 0.753 setrgbcolor
gsave
74.16 341.785 m
97.68 341.785 l
stroke
grestore
0.000 setgray
gsave
116.160000 332.373750 translate
0.000000 rotate
0.000000 3.531250 m /p glyphshow
10.662079 3.531250 m /o glyphshow
20.938675 3.531250 m /s glyphshow
29.689774 3.531250 m /t glyphshow
36.275650 3.531250 m /e glyphshow
46.609665 3.531250 m /r glyphshow
53.515411 3.531250 m /i glyphshow
58.182114 3.531250 m /o glyphshow
68.458710 3.531250 m /r glyphshow
75.364456 3.531250 m /space glyphshow
80.703690 3.531250 m /seven glyphshow
91.390366 3.531250 m /four glyphshow
102.077042 3.531250 m /zero glyphshow
grestore

end
showpage
