%!PS-Adobe-3.0 EPSF-3.0
%%Title: sat_joint.eps
%%Creator: matplotlib version 1.2.1, http://matplotlib.org/
%%CreationDate: Fri Jul  5 12:11:01 2013
%%Orientation: portrait
%%BoundingBox: 90 180 522 612
%%EndComments
%%BeginProlog
/mpldict 8 dict def
mpldict begin
/m { moveto } bind def
/l { lineto } bind def
/r { rlineto } bind def
/c { curveto } bind def
/cl { closepath } bind def
/box {
m
1 index 0 r
0 exch r
neg 0 r
cl
} bind def
/clipbox {
box
clip
newpath
} bind def
%!PS-Adobe-3.0 Resource-Font
%%Title: DejaVu Sans
%%Copyright: Copyright (c) 2003 by Bitstream, Inc. All Rights Reserved. Copyright (c) 2006 by Tavmjong Bah. All Rights Reserved. DejaVu changes are in public domain 
%%Creator: Converted from TrueType to type 3 by PPR
25 dict begin
/_d{bind def}bind def
/_m{moveto}_d
/_l{lineto}_d
/_cl{closepath eofill}_d
/_c{curveto}_d
/_sc{7 -1 roll{setcachedevice}{pop pop pop pop pop pop}ifelse}_d
/_e{exec}_d
/FontName /DejaVuSans def
/PaintType 0 def
/FontMatrix[.001 0 0 .001 0 0]def
/FontBBox[-1021 -415 1681 1167]def
/FontType 3 def
/Encoding [ /space /period /zero /one /five /eight /nine /A /B /underscore /b /c /e /i /l /o /p /r /t ] def
/FontInfo 10 dict dup begin
/FamilyName (DejaVu Sans) def
/FullName (DejaVu Sans) def
/Notice (Copyright (c) 2003 by Bitstream, Inc. All Rights Reserved. Copyright (c) 2006 by Tavmjong Bah. All Rights Reserved. DejaVu changes are in public domain ) def
/Weight (Book) def
/Version (Version 2.33) def
/ItalicAngle 0.0 def
/isFixedPitch false def
/UnderlinePosition -130 def
/UnderlineThickness 90 def
end readonly def
/CharStrings 19 dict dup begin
/space{318 0 0 0 0 0 _sc
}_d
/period{318 0 107 0 210 124 _sc
107 124 _m
210 124 _l
210 0 _l
107 0 _l
107 124 _l
_cl}_d
/zero{636 0 66 -13 570 742 _sc
318 664 _m
267 664 229 639 203 589 _c
177 539 165 464 165 364 _c
165 264 177 189 203 139 _c
229 89 267 64 318 64 _c
369 64 407 89 433 139 _c
458 189 471 264 471 364 _c
471 464 458 539 433 589 _c
407 639 369 664 318 664 _c
318 742 _m
399 742 461 709 505 645 _c
548 580 570 486 570 364 _c
570 241 548 147 505 83 _c
461 19 399 -13 318 -13 _c
236 -13 173 19 130 83 _c
87 147 66 241 66 364 _c
66 486 87 580 130 645 _c
173 709 236 742 318 742 _c
_cl}_d
/one{636 0 110 0 544 729 _sc
124 83 _m
285 83 _l
285 639 _l
110 604 _l
110 694 _l
284 729 _l
383 729 _l
383 83 _l
544 83 _l
544 0 _l
124 0 _l
124 83 _l
_cl}_d
/five{{636 0 77 -13 549 729 _sc
108 729 _m
495 729 _l
495 646 _l
198 646 _l
198 467 _l
212 472 227 476 241 478 _c
255 480 270 482 284 482 _c
365 482 429 459 477 415 _c
525 370 549 310 549 234 _c
549 155 524 94 475 51 _c
426 8 357 -13 269 -13 _c
238 -13 207 -10 175 -6 _c
143 -1 111 6 77 17 _c
77 116 _l
106 100 136 88 168 80 _c
199 72 232 69 267 69 _c
}_e{323 69 368 83 401 113 _c
433 143 450 183 450 234 _c
450 284 433 324 401 354 _c
368 384 323 399 267 399 _c
241 399 214 396 188 390 _c
162 384 135 375 108 363 _c
108 729 _l
_cl}_e}_d
/eight{{636 0 68 -13 568 742 _sc
318 346 _m
271 346 234 333 207 308 _c
180 283 167 249 167 205 _c
167 161 180 126 207 101 _c
234 76 271 64 318 64 _c
364 64 401 76 428 102 _c
455 127 469 161 469 205 _c
469 249 455 283 429 308 _c
402 333 365 346 318 346 _c
219 388 _m
177 398 144 418 120 447 _c
96 476 85 511 85 553 _c
85 611 105 657 147 691 _c
188 725 245 742 318 742 _c
}_e{390 742 447 725 489 691 _c
530 657 551 611 551 553 _c
551 511 539 476 515 447 _c
491 418 459 398 417 388 _c
464 377 501 355 528 323 _c
554 291 568 251 568 205 _c
568 134 546 80 503 43 _c
459 5 398 -13 318 -13 _c
237 -13 175 5 132 43 _c
89 80 68 134 68 205 _c
68 251 81 291 108 323 _c
134 355 171 377 219 388 _c
183 544 _m
183 506 194 476 218 455 _c
}_e{242 434 275 424 318 424 _c
360 424 393 434 417 455 _c
441 476 453 506 453 544 _c
453 582 441 611 417 632 _c
393 653 360 664 318 664 _c
275 664 242 653 218 632 _c
194 611 183 582 183 544 _c
_cl}_e}_d
/nine{{636 0 63 -13 566 742 _sc
110 15 _m
110 105 _l
134 93 159 84 185 78 _c
210 72 235 69 260 69 _c
324 69 374 90 408 134 _c
442 178 462 244 468 334 _c
448 306 424 284 396 269 _c
367 254 335 247 300 247 _c
226 247 168 269 126 313 _c
84 357 63 417 63 494 _c
63 568 85 628 129 674 _c
173 719 232 742 306 742 _c
390 742 455 709 499 645 _c
543 580 566 486 566 364 _c
}_e{566 248 538 157 484 89 _c
429 21 356 -13 264 -13 _c
239 -13 214 -10 189 -6 _c
163 -2 137 5 110 15 _c
306 324 _m
350 324 385 339 411 369 _c
437 399 450 441 450 494 _c
450 546 437 588 411 618 _c
385 648 350 664 306 664 _c
262 664 227 648 201 618 _c
175 588 162 546 162 494 _c
162 441 175 399 201 369 _c
227 339 262 324 306 324 _c
_cl}_e}_d
/A{684 0 8 0 676 729 _sc
342 632 _m
208 269 _l
476 269 _l
342 632 _l
286 729 _m
398 729 _l
676 0 _l
573 0 _l
507 187 _l
178 187 _l
112 0 _l
8 0 _l
286 729 _l
_cl}_d
/B{{686 0 98 0 615 729 _sc
197 348 _m
197 81 _l
355 81 _l
408 81 447 92 473 114 _c
498 136 511 169 511 215 _c
511 260 498 293 473 315 _c
447 337 408 348 355 348 _c
197 348 _l
197 648 _m
197 428 _l
343 428 _l
391 428 426 437 450 455 _c
474 473 486 500 486 538 _c
486 574 474 602 450 620 _c
426 638 391 648 343 648 _c
197 648 _l
98 729 _m
350 729 _l
}_e{425 729 483 713 524 682 _c
564 650 585 606 585 549 _c
585 504 574 468 553 442 _c
532 416 502 399 462 393 _c
510 382 548 360 575 327 _c
601 294 615 253 615 204 _c
615 138 592 88 548 53 _c
504 17 441 0 360 0 _c
98 0 _l
98 729 _l
_cl}_e}_d
/underscore{500 0 -9 -235 510 -165 _sc
510 -165 _m
510 -235 _l
-9 -235 _l
-9 -165 _l
510 -165 _l
_cl}_d
/b{{635 0 91 -13 580 760 _sc
487 273 _m
487 339 473 390 446 428 _c
418 466 381 485 334 485 _c
286 485 249 466 222 428 _c
194 390 181 339 181 273 _c
181 207 194 155 222 117 _c
249 79 286 61 334 61 _c
381 61 418 79 446 117 _c
473 155 487 207 487 273 _c
181 464 _m
199 496 223 520 252 536 _c
281 552 316 560 356 560 _c
422 560 476 533 518 481 _c
559 428 580 359 580 273 _c
}_e{580 187 559 117 518 65 _c
476 13 422 -13 356 -13 _c
316 -13 281 -5 252 10 _c
223 25 199 49 181 82 _c
181 0 _l
91 0 _l
91 760 _l
181 760 _l
181 464 _l
_cl}_e}_d
/c{{550 0 55 -13 488 560 _sc
488 526 _m
488 442 _l
462 456 437 466 411 473 _c
385 480 360 484 334 484 _c
276 484 230 465 198 428 _c
166 391 150 339 150 273 _c
150 206 166 154 198 117 _c
230 80 276 62 334 62 _c
360 62 385 65 411 72 _c
437 79 462 90 488 104 _c
488 21 _l
462 9 436 0 410 -5 _c
383 -10 354 -13 324 -13 _c
242 -13 176 12 128 64 _c
}_e{79 115 55 185 55 273 _c
55 362 79 432 128 483 _c
177 534 244 560 330 560 _c
358 560 385 557 411 551 _c
437 545 463 537 488 526 _c
_cl}_e}_d
/e{{615 0 55 -13 562 560 _sc
562 296 _m
562 252 _l
149 252 _l
153 190 171 142 205 110 _c
238 78 284 62 344 62 _c
378 62 412 66 444 74 _c
476 82 509 95 541 113 _c
541 28 _l
509 14 476 3 442 -3 _c
408 -9 373 -13 339 -13 _c
251 -13 182 12 131 62 _c
80 112 55 181 55 268 _c
55 357 79 428 127 481 _c
175 533 241 560 323 560 _c
397 560 455 536 498 489 _c
}_e{540 441 562 377 562 296 _c
472 322 _m
471 371 457 410 431 440 _c
404 469 368 484 324 484 _c
274 484 234 469 204 441 _c
174 413 156 373 152 322 _c
472 322 _l
_cl}_e}_d
/i{278 0 94 0 184 760 _sc
94 547 _m
184 547 _l
184 0 _l
94 0 _l
94 547 _l
94 760 _m
184 760 _l
184 646 _l
94 646 _l
94 760 _l
_cl}_d
/l{278 0 94 0 184 760 _sc
94 760 _m
184 760 _l
184 0 _l
94 0 _l
94 760 _l
_cl}_d
/o{612 0 55 -13 557 560 _sc
306 484 _m
258 484 220 465 192 427 _c
164 389 150 338 150 273 _c
150 207 163 156 191 118 _c
219 80 257 62 306 62 _c
354 62 392 80 420 118 _c
448 156 462 207 462 273 _c
462 337 448 389 420 427 _c
392 465 354 484 306 484 _c
306 560 _m
384 560 445 534 490 484 _c
534 433 557 363 557 273 _c
557 183 534 113 490 63 _c
445 12 384 -13 306 -13 _c
227 -13 165 12 121 63 _c
77 113 55 183 55 273 _c
55 363 77 433 121 484 _c
165 534 227 560 306 560 _c
_cl}_d
/p{{635 0 91 -207 580 560 _sc
181 82 _m
181 -207 _l
91 -207 _l
91 547 _l
181 547 _l
181 464 _l
199 496 223 520 252 536 _c
281 552 316 560 356 560 _c
422 560 476 533 518 481 _c
559 428 580 359 580 273 _c
580 187 559 117 518 65 _c
476 13 422 -13 356 -13 _c
316 -13 281 -5 252 10 _c
223 25 199 49 181 82 _c
487 273 _m
487 339 473 390 446 428 _c
418 466 381 485 334 485 _c
}_e{286 485 249 466 222 428 _c
194 390 181 339 181 273 _c
181 207 194 155 222 117 _c
249 79 286 61 334 61 _c
381 61 418 79 446 117 _c
473 155 487 207 487 273 _c
_cl}_e}_d
/r{411 0 91 0 411 560 _sc
411 463 _m
401 469 390 473 378 476 _c
366 478 353 480 339 480 _c
288 480 249 463 222 430 _c
194 397 181 350 181 288 _c
181 0 _l
91 0 _l
91 547 _l
181 547 _l
181 462 _l
199 495 224 520 254 536 _c
284 552 321 560 365 560 _c
371 560 378 559 386 559 _c
393 558 401 557 411 555 _c
411 463 _l
_cl}_d
/t{392 0 27 0 368 702 _sc
183 702 _m
183 547 _l
368 547 _l
368 477 _l
183 477 _l
183 180 _l
183 135 189 106 201 94 _c
213 81 238 75 276 75 _c
368 75 _l
368 0 _l
276 0 _l
206 0 158 13 132 39 _c
106 65 93 112 93 180 _c
93 477 _l
27 477 _l
27 547 _l
93 547 _l
93 702 _l
183 702 _l
_cl}_d
end readonly def

/BuildGlyph
 {exch begin
 CharStrings exch
 2 copy known not{pop /.notdef}if
 true 3 1 roll get exec
 end}_d

/BuildChar {
 1 index /Encoding get exch get
 1 index /BuildGlyph get exec
}_d

FontName currentdict end definefont pop
end
%%EndProlog
mpldict begin
90 180 translate
432 432 0 0 clipbox
gsave
0 0 m
432 0 l
432 432 l
0 432 l
cl
1.000 setgray
fill
grestore
gsave
54 43.2 m
388.8 43.2 l
388.8 388.8 l
54 388.8 l
cl
1.000 setgray
fill
grestore
/p0_0 {
newpath
translate
71.05 60.8 m
109.8 60.8 l
109.8 100.8 l
71.05 100.8 l
71.05 60.8 l
} bind def
/p0_1 {
newpath
translate
109.8 60.8 m
135.633 60.8 l
135.633 100.8 l
109.8 100.8 l
109.8 60.8 l
} bind def
/p0_2 {
newpath
translate
135.633 60.8 m
161.467 60.8 l
161.467 100.8 l
135.633 100.8 l
135.633 60.8 l
} bind def
/p0_3 {
newpath
translate
161.467 60.8 m
187.3 60.8 l
187.3 100.8 l
161.467 100.8 l
161.467 60.8 l
} bind def
/p0_4 {
newpath
translate
187.3 60.8 m
213.133 60.8 l
213.133 100.8 l
187.3 100.8 l
187.3 60.8 l
} bind def
/p0_5 {
newpath
translate
213.133 60.8 m
238.967 60.8 l
238.967 100.8 l
213.133 100.8 l
213.133 60.8 l
} bind def
/p0_6 {
newpath
translate
238.967 60.8 m
264.8 60.8 l
264.8 100.8 l
238.967 100.8 l
238.967 60.8 l
} bind def
/p0_7 {
newpath
translate
264.8 60.8 m
280.3 60.8 l
280.3 100.8 l
264.8 100.8 l
264.8 60.8 l
} bind def
/p0_8 {
newpath
translate
280.3 60.8 m
295.8 60.8 l
295.8 100.8 l
280.3 100.8 l
280.3 60.8 l
} bind def
/p0_9 {
newpath
translate
295.8 60.8 m
311.3 60.8 l
311.3 100.8 l
295.8 100.8 l
295.8 60.8 l
} bind def
/p0_a {
newpath
translate
311.3 60.8 m
326.8 60.8 l
326.8 100.8 l
311.3 100.8 l
311.3 60.8 l
} bind def
/p0_b {
newpath
translate
326.8 60.8 m
342.3 60.8 l
342.3 100.8 l
326.8 100.8 l
326.8 60.8 l
} bind def
/p0_c {
newpath
translate
342.3 60.8 m
357.8 60.8 l
357.8 100.8 l
342.3 100.8 l
342.3 60.8 l
} bind def
/p0_d {
newpath
translate
357.8 60.8 m
373.3 60.8 l
373.3 100.8 l
357.8 100.8 l
357.8 60.8 l
} bind def
/p0_e {
newpath
translate
373.3 60.8 m
388.8 60.8 l
388.8 100.8 l
373.3 100.8 l
373.3 60.8 l
} bind def
/p0_f {
newpath
translate
71.05 100.8 m
109.8 100.8 l
109.8 127.467 l
71.05 127.467 l
71.05 100.8 l
} bind def
/p0_10 {
newpath
translate
109.8 100.8 m
135.633 100.8 l
135.633 127.467 l
109.8 127.467 l
109.8 100.8 l
} bind def
/p0_11 {
newpath
translate
135.633 100.8 m
161.467 100.8 l
161.467 127.467 l
135.633 127.467 l
135.633 100.8 l
} bind def
/p0_12 {
newpath
translate
161.467 100.8 m
187.3 100.8 l
187.3 127.467 l
161.467 127.467 l
161.467 100.8 l
} bind def
/p0_13 {
newpath
translate
187.3 100.8 m
213.133 100.8 l
213.133 127.467 l
187.3 127.467 l
187.3 100.8 l
} bind def
/p0_14 {
newpath
translate
213.133 100.8 m
238.967 100.8 l
238.967 127.467 l
213.133 127.467 l
213.133 100.8 l
} bind def
/p0_15 {
newpath
translate
238.967 100.8 m
264.8 100.8 l
264.8 127.467 l
238.967 127.467 l
238.967 100.8 l
} bind def
/p0_16 {
newpath
translate
264.8 100.8 m
280.3 100.8 l
280.3 127.467 l
264.8 127.467 l
264.8 100.8 l
} bind def
/p0_17 {
newpath
translate
280.3 100.8 m
295.8 100.8 l
295.8 127.467 l
280.3 127.467 l
280.3 100.8 l
} bind def
/p0_18 {
newpath
translate
295.8 100.8 m
311.3 100.8 l
311.3 127.467 l
295.8 127.467 l
295.8 100.8 l
} bind def
/p0_19 {
newpath
translate
311.3 100.8 m
326.8 100.8 l
326.8 127.467 l
311.3 127.467 l
311.3 100.8 l
} bind def
/p0_1a {
newpath
translate
326.8 100.8 m
342.3 100.8 l
342.3 127.467 l
326.8 127.467 l
326.8 100.8 l
} bind def
/p0_1b {
newpath
translate
342.3 100.8 m
357.8 100.8 l
357.8 127.467 l
342.3 127.467 l
342.3 100.8 l
} bind def
/p0_1c {
newpath
translate
357.8 100.8 m
373.3 100.8 l
373.3 127.467 l
357.8 127.467 l
357.8 100.8 l
} bind def
/p0_1d {
newpath
translate
373.3 100.8 m
388.8 100.8 l
388.8 127.467 l
373.3 127.467 l
373.3 100.8 l
} bind def
/p0_1e {
newpath
translate
71.05 127.467 m
109.8 127.467 l
109.8 154.133 l
71.05 154.133 l
71.05 127.467 l
} bind def
/p0_1f {
newpath
translate
109.8 127.467 m
135.633 127.467 l
135.633 154.133 l
109.8 154.133 l
109.8 127.467 l
} bind def
/p0_20 {
newpath
translate
135.633 127.467 m
161.467 127.467 l
161.467 154.133 l
135.633 154.133 l
135.633 127.467 l
} bind def
/p0_21 {
newpath
translate
161.467 127.467 m
187.3 127.467 l
187.3 154.133 l
161.467 154.133 l
161.467 127.467 l
} bind def
/p0_22 {
newpath
translate
187.3 127.467 m
213.133 127.467 l
213.133 154.133 l
187.3 154.133 l
187.3 127.467 l
} bind def
/p0_23 {
newpath
translate
213.133 127.467 m
238.967 127.467 l
238.967 154.133 l
213.133 154.133 l
213.133 127.467 l
} bind def
/p0_24 {
newpath
translate
238.967 127.467 m
264.8 127.467 l
264.8 154.133 l
238.967 154.133 l
238.967 127.467 l
} bind def
/p0_25 {
newpath
translate
264.8 127.467 m
280.3 127.467 l
280.3 154.133 l
264.8 154.133 l
264.8 127.467 l
} bind def
/p0_26 {
newpath
translate
280.3 127.467 m
295.8 127.467 l
295.8 154.133 l
280.3 154.133 l
280.3 127.467 l
} bind def
/p0_27 {
newpath
translate
295.8 127.467 m
311.3 127.467 l
311.3 154.133 l
295.8 154.133 l
295.8 127.467 l
} bind def
/p0_28 {
newpath
translate
311.3 127.467 m
326.8 127.467 l
326.8 154.133 l
311.3 154.133 l
311.3 127.467 l
} bind def
/p0_29 {
newpath
translate
326.8 127.467 m
342.3 127.467 l
342.3 154.133 l
326.8 154.133 l
326.8 127.467 l
} bind def
/p0_2a {
newpath
translate
342.3 127.467 m
357.8 127.467 l
357.8 154.133 l
342.3 154.133 l
342.3 127.467 l
} bind def
/p0_2b {
newpath
translate
357.8 127.467 m
373.3 127.467 l
373.3 154.133 l
357.8 154.133 l
357.8 127.467 l
} bind def
/p0_2c {
newpath
translate
373.3 127.467 m
388.8 127.467 l
388.8 154.133 l
373.3 154.133 l
373.3 127.467 l
} bind def
/p0_2d {
newpath
translate
71.05 154.133 m
109.8 154.133 l
109.8 180.8 l
71.05 180.8 l
71.05 154.133 l
} bind def
/p0_2e {
newpath
translate
109.8 154.133 m
135.633 154.133 l
135.633 180.8 l
109.8 180.8 l
109.8 154.133 l
} bind def
/p0_2f {
newpath
translate
135.633 154.133 m
161.467 154.133 l
161.467 180.8 l
135.633 180.8 l
135.633 154.133 l
} bind def
/p0_30 {
newpath
translate
161.467 154.133 m
187.3 154.133 l
187.3 180.8 l
161.467 180.8 l
161.467 154.133 l
} bind def
/p0_31 {
newpath
translate
187.3 154.133 m
213.133 154.133 l
213.133 180.8 l
187.3 180.8 l
187.3 154.133 l
} bind def
/p0_32 {
newpath
translate
213.133 154.133 m
238.967 154.133 l
238.967 180.8 l
213.133 180.8 l
213.133 154.133 l
} bind def
/p0_33 {
newpath
translate
238.967 154.133 m
264.8 154.133 l
264.8 180.8 l
238.967 180.8 l
238.967 154.133 l
} bind def
/p0_34 {
newpath
translate
264.8 154.133 m
280.3 154.133 l
280.3 180.8 l
264.8 180.8 l
264.8 154.133 l
} bind def
/p0_35 {
newpath
translate
280.3 154.133 m
295.8 154.133 l
295.8 180.8 l
280.3 180.8 l
280.3 154.133 l
} bind def
/p0_36 {
newpath
translate
295.8 154.133 m
311.3 154.133 l
311.3 180.8 l
295.8 180.8 l
295.8 154.133 l
} bind def
/p0_37 {
newpath
translate
311.3 154.133 m
326.8 154.133 l
326.8 180.8 l
311.3 180.8 l
311.3 154.133 l
} bind def
/p0_38 {
newpath
translate
326.8 154.133 m
342.3 154.133 l
342.3 180.8 l
326.8 180.8 l
326.8 154.133 l
} bind def
/p0_39 {
newpath
translate
342.3 154.133 m
357.8 154.133 l
357.8 180.8 l
342.3 180.8 l
342.3 154.133 l
} bind def
/p0_3a {
newpath
translate
357.8 154.133 m
373.3 154.133 l
373.3 180.8 l
357.8 180.8 l
357.8 154.133 l
} bind def
/p0_3b {
newpath
translate
373.3 154.133 m
388.8 154.133 l
388.8 180.8 l
373.3 180.8 l
373.3 154.133 l
} bind def
/p0_3c {
newpath
translate
71.05 180.8 m
109.8 180.8 l
109.8 207.467 l
71.05 207.467 l
71.05 180.8 l
} bind def
/p0_3d {
newpath
translate
109.8 180.8 m
135.633 180.8 l
135.633 207.467 l
109.8 207.467 l
109.8 180.8 l
} bind def
/p0_3e {
newpath
translate
135.633 180.8 m
161.467 180.8 l
161.467 207.467 l
135.633 207.467 l
135.633 180.8 l
} bind def
/p0_3f {
newpath
translate
161.467 180.8 m
187.3 180.8 l
187.3 207.467 l
161.467 207.467 l
161.467 180.8 l
} bind def
/p0_40 {
newpath
translate
187.3 180.8 m
213.133 180.8 l
213.133 207.467 l
187.3 207.467 l
187.3 180.8 l
} bind def
/p0_41 {
newpath
translate
213.133 180.8 m
238.967 180.8 l
238.967 207.467 l
213.133 207.467 l
213.133 180.8 l
} bind def
/p0_42 {
newpath
translate
238.967 180.8 m
264.8 180.8 l
264.8 207.467 l
238.967 207.467 l
238.967 180.8 l
} bind def
/p0_43 {
newpath
translate
264.8 180.8 m
280.3 180.8 l
280.3 207.467 l
264.8 207.467 l
264.8 180.8 l
} bind def
/p0_44 {
newpath
translate
280.3 180.8 m
295.8 180.8 l
295.8 207.467 l
280.3 207.467 l
280.3 180.8 l
} bind def
/p0_45 {
newpath
translate
295.8 180.8 m
311.3 180.8 l
311.3 207.467 l
295.8 207.467 l
295.8 180.8 l
} bind def
/p0_46 {
newpath
translate
311.3 180.8 m
326.8 180.8 l
326.8 207.467 l
311.3 207.467 l
311.3 180.8 l
} bind def
/p0_47 {
newpath
translate
326.8 180.8 m
342.3 180.8 l
342.3 207.467 l
326.8 207.467 l
326.8 180.8 l
} bind def
/p0_48 {
newpath
translate
342.3 180.8 m
357.8 180.8 l
357.8 207.467 l
342.3 207.467 l
342.3 180.8 l
} bind def
/p0_49 {
newpath
translate
357.8 180.8 m
373.3 180.8 l
373.3 207.467 l
357.8 207.467 l
357.8 180.8 l
} bind def
/p0_4a {
newpath
translate
373.3 180.8 m
388.8 180.8 l
388.8 207.467 l
373.3 207.467 l
373.3 180.8 l
} bind def
/p0_4b {
newpath
translate
71.05 207.467 m
109.8 207.467 l
109.8 234.133 l
71.05 234.133 l
71.05 207.467 l
} bind def
/p0_4c {
newpath
translate
109.8 207.467 m
135.633 207.467 l
135.633 234.133 l
109.8 234.133 l
109.8 207.467 l
} bind def
/p0_4d {
newpath
translate
135.633 207.467 m
161.467 207.467 l
161.467 234.133 l
135.633 234.133 l
135.633 207.467 l
} bind def
/p0_4e {
newpath
translate
161.467 207.467 m
187.3 207.467 l
187.3 234.133 l
161.467 234.133 l
161.467 207.467 l
} bind def
/p0_4f {
newpath
translate
187.3 207.467 m
213.133 207.467 l
213.133 234.133 l
187.3 234.133 l
187.3 207.467 l
} bind def
/p0_50 {
newpath
translate
213.133 207.467 m
238.967 207.467 l
238.967 234.133 l
213.133 234.133 l
213.133 207.467 l
} bind def
/p0_51 {
newpath
translate
238.967 207.467 m
264.8 207.467 l
264.8 234.133 l
238.967 234.133 l
238.967 207.467 l
} bind def
/p0_52 {
newpath
translate
264.8 207.467 m
280.3 207.467 l
280.3 234.133 l
264.8 234.133 l
264.8 207.467 l
} bind def
/p0_53 {
newpath
translate
280.3 207.467 m
295.8 207.467 l
295.8 234.133 l
280.3 234.133 l
280.3 207.467 l
} bind def
/p0_54 {
newpath
translate
295.8 207.467 m
311.3 207.467 l
311.3 234.133 l
295.8 234.133 l
295.8 207.467 l
} bind def
/p0_55 {
newpath
translate
311.3 207.467 m
326.8 207.467 l
326.8 234.133 l
311.3 234.133 l
311.3 207.467 l
} bind def
/p0_56 {
newpath
translate
326.8 207.467 m
342.3 207.467 l
342.3 234.133 l
326.8 234.133 l
326.8 207.467 l
} bind def
/p0_57 {
newpath
translate
342.3 207.467 m
357.8 207.467 l
357.8 234.133 l
342.3 234.133 l
342.3 207.467 l
} bind def
/p0_58 {
newpath
translate
357.8 207.467 m
373.3 207.467 l
373.3 234.133 l
357.8 234.133 l
357.8 207.467 l
} bind def
/p0_59 {
newpath
translate
373.3 207.467 m
388.8 207.467 l
388.8 234.133 l
373.3 234.133 l
373.3 207.467 l
} bind def
/p0_5a {
newpath
translate
71.05 234.133 m
109.8 234.133 l
109.8 260.8 l
71.05 260.8 l
71.05 234.133 l
} bind def
/p0_5b {
newpath
translate
109.8 234.133 m
135.633 234.133 l
135.633 260.8 l
109.8 260.8 l
109.8 234.133 l
} bind def
/p0_5c {
newpath
translate
135.633 234.133 m
161.467 234.133 l
161.467 260.8 l
135.633 260.8 l
135.633 234.133 l
} bind def
/p0_5d {
newpath
translate
161.467 234.133 m
187.3 234.133 l
187.3 260.8 l
161.467 260.8 l
161.467 234.133 l
} bind def
/p0_5e {
newpath
translate
187.3 234.133 m
213.133 234.133 l
213.133 260.8 l
187.3 260.8 l
187.3 234.133 l
} bind def
/p0_5f {
newpath
translate
213.133 234.133 m
238.967 234.133 l
238.967 260.8 l
213.133 260.8 l
213.133 234.133 l
} bind def
/p0_60 {
newpath
translate
238.967 234.133 m
264.8 234.133 l
264.8 260.8 l
238.967 260.8 l
238.967 234.133 l
} bind def
/p0_61 {
newpath
translate
264.8 234.133 m
280.3 234.133 l
280.3 260.8 l
264.8 260.8 l
264.8 234.133 l
} bind def
/p0_62 {
newpath
translate
280.3 234.133 m
295.8 234.133 l
295.8 260.8 l
280.3 260.8 l
280.3 234.133 l
} bind def
/p0_63 {
newpath
translate
295.8 234.133 m
311.3 234.133 l
311.3 260.8 l
295.8 260.8 l
295.8 234.133 l
} bind def
/p0_64 {
newpath
translate
311.3 234.133 m
326.8 234.133 l
326.8 260.8 l
311.3 260.8 l
311.3 234.133 l
} bind def
/p0_65 {
newpath
translate
326.8 234.133 m
342.3 234.133 l
342.3 260.8 l
326.8 260.8 l
326.8 234.133 l
} bind def
/p0_66 {
newpath
translate
342.3 234.133 m
357.8 234.133 l
357.8 260.8 l
342.3 260.8 l
342.3 234.133 l
} bind def
/p0_67 {
newpath
translate
357.8 234.133 m
373.3 234.133 l
373.3 260.8 l
357.8 260.8 l
357.8 234.133 l
} bind def
/p0_68 {
newpath
translate
373.3 234.133 m
388.8 234.133 l
388.8 260.8 l
373.3 260.8 l
373.3 234.133 l
} bind def
/p0_69 {
newpath
translate
71.05 260.8 m
109.8 260.8 l
109.8 276.8 l
71.05 276.8 l
71.05 260.8 l
} bind def
/p0_6a {
newpath
translate
109.8 260.8 m
135.633 260.8 l
135.633 276.8 l
109.8 276.8 l
109.8 260.8 l
} bind def
/p0_6b {
newpath
translate
135.633 260.8 m
161.467 260.8 l
161.467 276.8 l
135.633 276.8 l
135.633 260.8 l
} bind def
/p0_6c {
newpath
translate
161.467 260.8 m
187.3 260.8 l
187.3 276.8 l
161.467 276.8 l
161.467 260.8 l
} bind def
/p0_6d {
newpath
translate
187.3 260.8 m
213.133 260.8 l
213.133 276.8 l
187.3 276.8 l
187.3 260.8 l
} bind def
/p0_6e {
newpath
translate
213.133 260.8 m
238.967 260.8 l
238.967 276.8 l
213.133 276.8 l
213.133 260.8 l
} bind def
/p0_6f {
newpath
translate
238.967 260.8 m
264.8 260.8 l
264.8 276.8 l
238.967 276.8 l
238.967 260.8 l
} bind def
/p0_70 {
newpath
translate
264.8 260.8 m
280.3 260.8 l
280.3 276.8 l
264.8 276.8 l
264.8 260.8 l
} bind def
/p0_71 {
newpath
translate
280.3 260.8 m
295.8 260.8 l
295.8 276.8 l
280.3 276.8 l
280.3 260.8 l
} bind def
/p0_72 {
newpath
translate
295.8 260.8 m
311.3 260.8 l
311.3 276.8 l
295.8 276.8 l
295.8 260.8 l
} bind def
/p0_73 {
newpath
translate
311.3 260.8 m
326.8 260.8 l
326.8 276.8 l
311.3 276.8 l
311.3 260.8 l
} bind def
/p0_74 {
newpath
translate
326.8 260.8 m
342.3 260.8 l
342.3 276.8 l
326.8 276.8 l
326.8 260.8 l
} bind def
/p0_75 {
newpath
translate
342.3 260.8 m
357.8 260.8 l
357.8 276.8 l
342.3 276.8 l
342.3 260.8 l
} bind def
/p0_76 {
newpath
translate
357.8 260.8 m
373.3 260.8 l
373.3 276.8 l
357.8 276.8 l
357.8 260.8 l
} bind def
/p0_77 {
newpath
translate
373.3 260.8 m
388.8 260.8 l
388.8 276.8 l
373.3 276.8 l
373.3 260.8 l
} bind def
/p0_78 {
newpath
translate
71.05 276.8 m
109.8 276.8 l
109.8 292.8 l
71.05 292.8 l
71.05 276.8 l
} bind def
/p0_79 {
newpath
translate
109.8 276.8 m
135.633 276.8 l
135.633 292.8 l
109.8 292.8 l
109.8 276.8 l
} bind def
/p0_7a {
newpath
translate
135.633 276.8 m
161.467 276.8 l
161.467 292.8 l
135.633 292.8 l
135.633 276.8 l
} bind def
/p0_7b {
newpath
translate
161.467 276.8 m
187.3 276.8 l
187.3 292.8 l
161.467 292.8 l
161.467 276.8 l
} bind def
/p0_7c {
newpath
translate
187.3 276.8 m
213.133 276.8 l
213.133 292.8 l
187.3 292.8 l
187.3 276.8 l
} bind def
/p0_7d {
newpath
translate
213.133 276.8 m
238.967 276.8 l
238.967 292.8 l
213.133 292.8 l
213.133 276.8 l
} bind def
/p0_7e {
newpath
translate
238.967 276.8 m
264.8 276.8 l
264.8 292.8 l
238.967 292.8 l
238.967 276.8 l
} bind def
/p0_7f {
newpath
translate
264.8 276.8 m
280.3 276.8 l
280.3 292.8 l
264.8 292.8 l
264.8 276.8 l
} bind def
/p0_80 {
newpath
translate
280.3 276.8 m
295.8 276.8 l
295.8 292.8 l
280.3 292.8 l
280.3 276.8 l
} bind def
/p0_81 {
newpath
translate
295.8 276.8 m
311.3 276.8 l
311.3 292.8 l
295.8 292.8 l
295.8 276.8 l
} bind def
/p0_82 {
newpath
translate
311.3 276.8 m
326.8 276.8 l
326.8 292.8 l
311.3 292.8 l
311.3 276.8 l
} bind def
/p0_83 {
newpath
translate
326.8 276.8 m
342.3 276.8 l
342.3 292.8 l
326.8 292.8 l
326.8 276.8 l
} bind def
/p0_84 {
newpath
translate
342.3 276.8 m
357.8 276.8 l
357.8 292.8 l
342.3 292.8 l
342.3 276.8 l
} bind def
/p0_85 {
newpath
translate
357.8 276.8 m
373.3 276.8 l
373.3 292.8 l
357.8 292.8 l
357.8 276.8 l
} bind def
/p0_86 {
newpath
translate
373.3 276.8 m
388.8 276.8 l
388.8 292.8 l
373.3 292.8 l
373.3 276.8 l
} bind def
/p0_87 {
newpath
translate
71.05 292.8 m
109.8 292.8 l
109.8 308.8 l
71.05 308.8 l
71.05 292.8 l
} bind def
/p0_88 {
newpath
translate
109.8 292.8 m
135.633 292.8 l
135.633 308.8 l
109.8 308.8 l
109.8 292.8 l
} bind def
/p0_89 {
newpath
translate
135.633 292.8 m
161.467 292.8 l
161.467 308.8 l
135.633 308.8 l
135.633 292.8 l
} bind def
/p0_8a {
newpath
translate
161.467 292.8 m
187.3 292.8 l
187.3 308.8 l
161.467 308.8 l
161.467 292.8 l
} bind def
/p0_8b {
newpath
translate
187.3 292.8 m
213.133 292.8 l
213.133 308.8 l
187.3 308.8 l
187.3 292.8 l
} bind def
/p0_8c {
newpath
translate
213.133 292.8 m
238.967 292.8 l
238.967 308.8 l
213.133 308.8 l
213.133 292.8 l
} bind def
/p0_8d {
newpath
translate
238.967 292.8 m
264.8 292.8 l
264.8 308.8 l
238.967 308.8 l
238.967 292.8 l
} bind def
/p0_8e {
newpath
translate
264.8 292.8 m
280.3 292.8 l
280.3 308.8 l
264.8 308.8 l
264.8 292.8 l
} bind def
/p0_8f {
newpath
translate
280.3 292.8 m
295.8 292.8 l
295.8 308.8 l
280.3 308.8 l
280.3 292.8 l
} bind def
/p0_90 {
newpath
translate
295.8 292.8 m
311.3 292.8 l
311.3 308.8 l
295.8 308.8 l
295.8 292.8 l
} bind def
/p0_91 {
newpath
translate
311.3 292.8 m
326.8 292.8 l
326.8 308.8 l
311.3 308.8 l
311.3 292.8 l
} bind def
/p0_92 {
newpath
translate
326.8 292.8 m
342.3 292.8 l
342.3 308.8 l
326.8 308.8 l
326.8 292.8 l
} bind def
/p0_93 {
newpath
translate
342.3 292.8 m
357.8 292.8 l
357.8 308.8 l
342.3 308.8 l
342.3 292.8 l
} bind def
/p0_94 {
newpath
translate
357.8 292.8 m
373.3 292.8 l
373.3 308.8 l
357.8 308.8 l
357.8 292.8 l
} bind def
/p0_95 {
newpath
translate
373.3 292.8 m
388.8 292.8 l
388.8 308.8 l
373.3 308.8 l
373.3 292.8 l
} bind def
/p0_96 {
newpath
translate
71.05 308.8 m
109.8 308.8 l
109.8 324.8 l
71.05 324.8 l
71.05 308.8 l
} bind def
/p0_97 {
newpath
translate
109.8 308.8 m
135.633 308.8 l
135.633 324.8 l
109.8 324.8 l
109.8 308.8 l
} bind def
/p0_98 {
newpath
translate
135.633 308.8 m
161.467 308.8 l
161.467 324.8 l
135.633 324.8 l
135.633 308.8 l
} bind def
/p0_99 {
newpath
translate
161.467 308.8 m
187.3 308.8 l
187.3 324.8 l
161.467 324.8 l
161.467 308.8 l
} bind def
/p0_9a {
newpath
translate
187.3 308.8 m
213.133 308.8 l
213.133 324.8 l
187.3 324.8 l
187.3 308.8 l
} bind def
/p0_9b {
newpath
translate
213.133 308.8 m
238.967 308.8 l
238.967 324.8 l
213.133 324.8 l
213.133 308.8 l
} bind def
/p0_9c {
newpath
translate
238.967 308.8 m
264.8 308.8 l
264.8 324.8 l
238.967 324.8 l
238.967 308.8 l
} bind def
/p0_9d {
newpath
translate
264.8 308.8 m
280.3 308.8 l
280.3 324.8 l
264.8 324.8 l
264.8 308.8 l
} bind def
/p0_9e {
newpath
translate
280.3 308.8 m
295.8 308.8 l
295.8 324.8 l
280.3 324.8 l
280.3 308.8 l
} bind def
/p0_9f {
newpath
translate
295.8 308.8 m
311.3 308.8 l
311.3 324.8 l
295.8 324.8 l
295.8 308.8 l
} bind def
/p0_a0 {
newpath
translate
311.3 308.8 m
326.8 308.8 l
326.8 324.8 l
311.3 324.8 l
311.3 308.8 l
} bind def
/p0_a1 {
newpath
translate
326.8 308.8 m
342.3 308.8 l
342.3 324.8 l
326.8 324.8 l
326.8 308.8 l
} bind def
/p0_a2 {
newpath
translate
342.3 308.8 m
357.8 308.8 l
357.8 324.8 l
342.3 324.8 l
342.3 308.8 l
} bind def
/p0_a3 {
newpath
translate
357.8 308.8 m
373.3 308.8 l
373.3 324.8 l
357.8 324.8 l
357.8 308.8 l
} bind def
/p0_a4 {
newpath
translate
373.3 308.8 m
388.8 308.8 l
388.8 324.8 l
373.3 324.8 l
373.3 308.8 l
} bind def
/p0_a5 {
newpath
translate
71.05 324.8 m
109.8 324.8 l
109.8 340.8 l
71.05 340.8 l
71.05 324.8 l
} bind def
/p0_a6 {
newpath
translate
109.8 324.8 m
135.633 324.8 l
135.633 340.8 l
109.8 340.8 l
109.8 324.8 l
} bind def
/p0_a7 {
newpath
translate
135.633 324.8 m
161.467 324.8 l
161.467 340.8 l
135.633 340.8 l
135.633 324.8 l
} bind def
/p0_a8 {
newpath
translate
161.467 324.8 m
187.3 324.8 l
187.3 340.8 l
161.467 340.8 l
161.467 324.8 l
} bind def
/p0_a9 {
newpath
translate
187.3 324.8 m
213.133 324.8 l
213.133 340.8 l
187.3 340.8 l
187.3 324.8 l
} bind def
/p0_aa {
newpath
translate
213.133 324.8 m
238.967 324.8 l
238.967 340.8 l
213.133 340.8 l
213.133 324.8 l
} bind def
/p0_ab {
newpath
translate
238.967 324.8 m
264.8 324.8 l
264.8 340.8 l
238.967 340.8 l
238.967 324.8 l
} bind def
/p0_ac {
newpath
translate
264.8 324.8 m
280.3 324.8 l
280.3 340.8 l
264.8 340.8 l
264.8 324.8 l
} bind def
/p0_ad {
newpath
translate
280.3 324.8 m
295.8 324.8 l
295.8 340.8 l
280.3 340.8 l
280.3 324.8 l
} bind def
/p0_ae {
newpath
translate
295.8 324.8 m
311.3 324.8 l
311.3 340.8 l
295.8 340.8 l
295.8 324.8 l
} bind def
/p0_af {
newpath
translate
311.3 324.8 m
326.8 324.8 l
326.8 340.8 l
311.3 340.8 l
311.3 324.8 l
} bind def
/p0_b0 {
newpath
translate
326.8 324.8 m
342.3 324.8 l
342.3 340.8 l
326.8 340.8 l
326.8 324.8 l
} bind def
/p0_b1 {
newpath
translate
342.3 324.8 m
357.8 324.8 l
357.8 340.8 l
342.3 340.8 l
342.3 324.8 l
} bind def
/p0_b2 {
newpath
translate
357.8 324.8 m
373.3 324.8 l
373.3 340.8 l
357.8 340.8 l
357.8 324.8 l
} bind def
/p0_b3 {
newpath
translate
373.3 324.8 m
388.8 324.8 l
388.8 340.8 l
373.3 340.8 l
373.3 324.8 l
} bind def
/p0_b4 {
newpath
translate
71.05 340.8 m
109.8 340.8 l
109.8 356.8 l
71.05 356.8 l
71.05 340.8 l
} bind def
/p0_b5 {
newpath
translate
109.8 340.8 m
135.633 340.8 l
135.633 356.8 l
109.8 356.8 l
109.8 340.8 l
} bind def
/p0_b6 {
newpath
translate
135.633 340.8 m
161.467 340.8 l
161.467 356.8 l
135.633 356.8 l
135.633 340.8 l
} bind def
/p0_b7 {
newpath
translate
161.467 340.8 m
187.3 340.8 l
187.3 356.8 l
161.467 356.8 l
161.467 340.8 l
} bind def
/p0_b8 {
newpath
translate
187.3 340.8 m
213.133 340.8 l
213.133 356.8 l
187.3 356.8 l
187.3 340.8 l
} bind def
/p0_b9 {
newpath
translate
213.133 340.8 m
238.967 340.8 l
238.967 356.8 l
213.133 356.8 l
213.133 340.8 l
} bind def
/p0_ba {
newpath
translate
238.967 340.8 m
264.8 340.8 l
264.8 356.8 l
238.967 356.8 l
238.967 340.8 l
} bind def
/p0_bb {
newpath
translate
264.8 340.8 m
280.3 340.8 l
280.3 356.8 l
264.8 356.8 l
264.8 340.8 l
} bind def
/p0_bc {
newpath
translate
280.3 340.8 m
295.8 340.8 l
295.8 356.8 l
280.3 356.8 l
280.3 340.8 l
} bind def
/p0_bd {
newpath
translate
295.8 340.8 m
311.3 340.8 l
311.3 356.8 l
295.8 356.8 l
295.8 340.8 l
} bind def
/p0_be {
newpath
translate
311.3 340.8 m
326.8 340.8 l
326.8 356.8 l
311.3 356.8 l
311.3 340.8 l
} bind def
/p0_bf {
newpath
translate
326.8 340.8 m
342.3 340.8 l
342.3 356.8 l
326.8 356.8 l
326.8 340.8 l
} bind def
/p0_c0 {
newpath
translate
342.3 340.8 m
357.8 340.8 l
357.8 356.8 l
342.3 356.8 l
342.3 340.8 l
} bind def
/p0_c1 {
newpath
translate
357.8 340.8 m
373.3 340.8 l
373.3 356.8 l
357.8 356.8 l
357.8 340.8 l
} bind def
/p0_c2 {
newpath
translate
373.3 340.8 m
388.8 340.8 l
388.8 356.8 l
373.3 356.8 l
373.3 340.8 l
} bind def
/p0_c3 {
newpath
translate
71.05 356.8 m
109.8 356.8 l
109.8 372.8 l
71.05 372.8 l
71.05 356.8 l
} bind def
/p0_c4 {
newpath
translate
109.8 356.8 m
135.633 356.8 l
135.633 372.8 l
109.8 372.8 l
109.8 356.8 l
} bind def
/p0_c5 {
newpath
translate
135.633 356.8 m
161.467 356.8 l
161.467 372.8 l
135.633 372.8 l
135.633 356.8 l
} bind def
/p0_c6 {
newpath
translate
161.467 356.8 m
187.3 356.8 l
187.3 372.8 l
161.467 372.8 l
161.467 356.8 l
} bind def
/p0_c7 {
newpath
translate
187.3 356.8 m
213.133 356.8 l
213.133 372.8 l
187.3 372.8 l
187.3 356.8 l
} bind def
/p0_c8 {
newpath
translate
213.133 356.8 m
238.967 356.8 l
238.967 372.8 l
213.133 372.8 l
213.133 356.8 l
} bind def
/p0_c9 {
newpath
translate
238.967 356.8 m
264.8 356.8 l
264.8 372.8 l
238.967 372.8 l
238.967 356.8 l
} bind def
/p0_ca {
newpath
translate
264.8 356.8 m
280.3 356.8 l
280.3 372.8 l
264.8 372.8 l
264.8 356.8 l
} bind def
/p0_cb {
newpath
translate
280.3 356.8 m
295.8 356.8 l
295.8 372.8 l
280.3 372.8 l
280.3 356.8 l
} bind def
/p0_cc {
newpath
translate
295.8 356.8 m
311.3 356.8 l
311.3 372.8 l
295.8 372.8 l
295.8 356.8 l
} bind def
/p0_cd {
newpath
translate
311.3 356.8 m
326.8 356.8 l
326.8 372.8 l
311.3 372.8 l
311.3 356.8 l
} bind def
/p0_ce {
newpath
translate
326.8 356.8 m
342.3 356.8 l
342.3 372.8 l
326.8 372.8 l
326.8 356.8 l
} bind def
/p0_cf {
newpath
translate
342.3 356.8 m
357.8 356.8 l
357.8 372.8 l
342.3 372.8 l
342.3 356.8 l
} bind def
/p0_d0 {
newpath
translate
357.8 356.8 m
373.3 356.8 l
373.3 372.8 l
357.8 372.8 l
357.8 356.8 l
} bind def
/p0_d1 {
newpath
translate
373.3 356.8 m
388.8 356.8 l
388.8 372.8 l
373.3 372.8 l
373.3 356.8 l
} bind def
/p0_d2 {
newpath
translate
71.05 372.8 m
109.8 372.8 l
109.8 388.8 l
71.05 388.8 l
71.05 372.8 l
} bind def
/p0_d3 {
newpath
translate
109.8 372.8 m
135.633 372.8 l
135.633 388.8 l
109.8 388.8 l
109.8 372.8 l
} bind def
/p0_d4 {
newpath
translate
135.633 372.8 m
161.467 372.8 l
161.467 388.8 l
135.633 388.8 l
135.633 372.8 l
} bind def
/p0_d5 {
newpath
translate
161.467 372.8 m
187.3 372.8 l
187.3 388.8 l
161.467 388.8 l
161.467 372.8 l
} bind def
/p0_d6 {
newpath
translate
187.3 372.8 m
213.133 372.8 l
213.133 388.8 l
187.3 388.8 l
187.3 372.8 l
} bind def
/p0_d7 {
newpath
translate
213.133 372.8 m
238.967 372.8 l
238.967 388.8 l
213.133 388.8 l
213.133 372.8 l
} bind def
/p0_d8 {
newpath
translate
238.967 372.8 m
264.8 372.8 l
264.8 388.8 l
238.967 388.8 l
238.967 372.8 l
} bind def
/p0_d9 {
newpath
translate
264.8 372.8 m
280.3 372.8 l
280.3 388.8 l
264.8 388.8 l
264.8 372.8 l
} bind def
/p0_da {
newpath
translate
280.3 372.8 m
295.8 372.8 l
295.8 388.8 l
280.3 388.8 l
280.3 372.8 l
} bind def
/p0_db {
newpath
translate
295.8 372.8 m
311.3 372.8 l
311.3 388.8 l
295.8 388.8 l
295.8 372.8 l
} bind def
/p0_dc {
newpath
translate
311.3 372.8 m
326.8 372.8 l
326.8 388.8 l
311.3 388.8 l
311.3 372.8 l
} bind def
/p0_dd {
newpath
translate
326.8 372.8 m
342.3 372.8 l
342.3 388.8 l
326.8 388.8 l
326.8 372.8 l
} bind def
/p0_de {
newpath
translate
342.3 372.8 m
357.8 372.8 l
357.8 388.8 l
342.3 388.8 l
342.3 372.8 l
} bind def
/p0_df {
newpath
translate
357.8 372.8 m
373.3 372.8 l
373.3 388.8 l
357.8 388.8 l
357.8 372.8 l
} bind def
/p0_e0 {
newpath
translate
373.3 372.8 m
388.8 372.8 l
388.8 388.8 l
373.3 388.8 l
373.3 372.8 l
} bind def
gsave
334.8 345.6 54 43.2 clipbox
0 0 p0_0
0.969 0.984 1.000 setrgbcolor
fill
grestore
gsave
334.8 345.6 54 43.2 clipbox
0 0 p0_1
0.969 0.984 1.000 setrgbcolor
fill
grestore
gsave
334.8 345.6 54 43.2 clipbox
0 0 p0_2
0.969 0.984 1.000 setrgbcolor
fill
grestore
gsave
334.8 345.6 54 43.2 clipbox
0 0 p0_3
0.969 0.984 1.000 setrgbcolor
fill
grestore
gsave
334.8 345.6 54 43.2 clipbox
0 0 p0_4
0.969 0.984 1.000 setrgbcolor
fill
grestore
gsave
334.8 345.6 54 43.2 clipbox
0 0 p0_5
0.969 0.984 1.000 setrgbcolor
fill
grestore
gsave
334.8 345.6 54 43.2 clipbox
0 0 p0_6
0.966 0.982 0.999 setrgbcolor
fill
grestore
gsave
334.8 345.6 54 43.2 clipbox
0 0 p0_7
0.966 0.982 0.999 setrgbcolor
fill
grestore
gsave
334.8 345.6 54 43.2 clipbox
0 0 p0_8
0.959 0.978 0.997 setrgbcolor
fill
grestore
gsave
334.8 345.6 54 43.2 clipbox
0 0 p0_9
0.959 0.978 0.997 setrgbcolor
fill
grestore
gsave
334.8 345.6 54 43.2 clipbox
0 0 p0_a
0.950 0.973 0.994 setrgbcolor
fill
grestore
gsave
334.8 345.6 54 43.2 clipbox
0 0 p0_b
0.950 0.973 0.994 setrgbcolor
fill
grestore
gsave
334.8 345.6 54 43.2 clipbox
0 0 p0_c
0.938 0.965 0.990 setrgbcolor
fill
grestore
gsave
334.8 345.6 54 43.2 clipbox
0 0 p0_d
0.956 0.976 0.996 setrgbcolor
fill
grestore
gsave
334.8 345.6 54 43.2 clipbox
0 0 p0_e
0.959 0.978 0.997 setrgbcolor
fill
grestore
gsave
334.8 345.6 54 43.2 clipbox
0 0 p0_f
0.969 0.984 1.000 setrgbcolor
fill
grestore
gsave
334.8 345.6 54 43.2 clipbox
0 0 p0_10
0.969 0.984 1.000 setrgbcolor
fill
grestore
gsave
334.8 345.6 54 43.2 clipbox
0 0 p0_11
0.969 0.984 1.000 setrgbcolor
fill
grestore
gsave
334.8 345.6 54 43.2 clipbox
0 0 p0_12
0.969 0.984 1.000 setrgbcolor
fill
grestore
gsave
334.8 345.6 54 43.2 clipbox
0 0 p0_13
0.966 0.982 0.999 setrgbcolor
fill
grestore
gsave
334.8 345.6 54 43.2 clipbox
0 0 p0_14
0.962 0.980 0.998 setrgbcolor
fill
grestore
gsave
334.8 345.6 54 43.2 clipbox
0 0 p0_15
0.953 0.974 0.995 setrgbcolor
fill
grestore
gsave
334.8 345.6 54 43.2 clipbox
0 0 p0_16
0.953 0.974 0.995 setrgbcolor
fill
grestore
gsave
334.8 345.6 54 43.2 clipbox
0 0 p0_17
0.941 0.967 0.991 setrgbcolor
fill
grestore
gsave
334.8 345.6 54 43.2 clipbox
0 0 p0_18
0.938 0.965 0.990 setrgbcolor
fill
grestore
gsave
334.8 345.6 54 43.2 clipbox
0 0 p0_19
0.907 0.945 0.980 setrgbcolor
fill
grestore
gsave
334.8 345.6 54 43.2 clipbox
0 0 p0_1a
0.913 0.949 0.982 setrgbcolor
fill
grestore
gsave
334.8 345.6 54 43.2 clipbox
0 0 p0_1b
0.873 0.923 0.969 setrgbcolor
fill
grestore
gsave
334.8 345.6 54 43.2 clipbox
0 0 p0_1c
0.929 0.959 0.987 setrgbcolor
fill
grestore
gsave
334.8 345.6 54 43.2 clipbox
0 0 p0_1d
0.938 0.965 0.990 setrgbcolor
fill
grestore
gsave
334.8 345.6 54 43.2 clipbox
0 0 p0_1e
0.969 0.984 1.000 setrgbcolor
fill
grestore
gsave
334.8 345.6 54 43.2 clipbox
0 0 p0_1f
0.969 0.984 1.000 setrgbcolor
fill
grestore
gsave
334.8 345.6 54 43.2 clipbox
0 0 p0_20
0.969 0.984 1.000 setrgbcolor
fill
grestore
gsave
334.8 345.6 54 43.2 clipbox
0 0 p0_21
0.966 0.982 0.999 setrgbcolor
fill
grestore
gsave
334.8 345.6 54 43.2 clipbox
0 0 p0_22
0.962 0.980 0.998 setrgbcolor
fill
grestore
gsave
334.8 345.6 54 43.2 clipbox
0 0 p0_23
0.956 0.976 0.996 setrgbcolor
fill
grestore
gsave
334.8 345.6 54 43.2 clipbox
0 0 p0_24
0.944 0.969 0.992 setrgbcolor
fill
grestore
gsave
334.8 345.6 54 43.2 clipbox
0 0 p0_25
0.944 0.969 0.992 setrgbcolor
fill
grestore
gsave
334.8 345.6 54 43.2 clipbox
0 0 p0_26
0.919 0.953 0.984 setrgbcolor
fill
grestore
gsave
334.8 345.6 54 43.2 clipbox
0 0 p0_27
0.916 0.951 0.983 setrgbcolor
fill
grestore
gsave
334.8 345.6 54 43.2 clipbox
0 0 p0_28
0.864 0.917 0.967 setrgbcolor
fill
grestore
gsave
334.8 345.6 54 43.2 clipbox
0 0 p0_29
0.873 0.923 0.969 setrgbcolor
fill
grestore
gsave
334.8 345.6 54 43.2 clipbox
0 0 p0_2a
0.808 0.880 0.948 setrgbcolor
fill
grestore
gsave
334.8 345.6 54 43.2 clipbox
0 0 p0_2b
0.901 0.941 0.978 setrgbcolor
fill
grestore
gsave
334.8 345.6 54 43.2 clipbox
0 0 p0_2c
0.916 0.951 0.983 setrgbcolor
fill
grestore
gsave
334.8 345.6 54 43.2 clipbox
0 0 p0_2d
0.969 0.984 1.000 setrgbcolor
fill
grestore
gsave
334.8 345.6 54 43.2 clipbox
0 0 p0_2e
0.969 0.984 1.000 setrgbcolor
fill
grestore
gsave
334.8 345.6 54 43.2 clipbox
0 0 p0_2f
0.969 0.984 1.000 setrgbcolor
fill
grestore
gsave
334.8 345.6 54 43.2 clipbox
0 0 p0_30
0.962 0.980 0.998 setrgbcolor
fill
grestore
gsave
334.8 345.6 54 43.2 clipbox
0 0 p0_31
0.956 0.976 0.996 setrgbcolor
fill
grestore
gsave
334.8 345.6 54 43.2 clipbox
0 0 p0_32
0.947 0.971 0.993 setrgbcolor
fill
grestore
gsave
334.8 345.6 54 43.2 clipbox
0 0 p0_33
0.926 0.957 0.986 setrgbcolor
fill
grestore
gsave
334.8 345.6 54 43.2 clipbox
0 0 p0_34
0.926 0.957 0.986 setrgbcolor
fill
grestore
gsave
334.8 345.6 54 43.2 clipbox
0 0 p0_35
0.886 0.931 0.973 setrgbcolor
fill
grestore
gsave
334.8 345.6 54 43.2 clipbox
0 0 p0_36
0.876 0.925 0.970 setrgbcolor
fill
grestore
gsave
334.8 345.6 54 43.2 clipbox
0 0 p0_37
0.793 0.870 0.943 setrgbcolor
fill
grestore
gsave
334.8 345.6 54 43.2 clipbox
0 0 p0_38
0.808 0.880 0.948 setrgbcolor
fill
grestore
gsave
334.8 345.6 54 43.2 clipbox
0 0 p0_39
0.642 0.802 0.890 setrgbcolor
fill
grestore
gsave
334.8 345.6 54 43.2 clipbox
0 0 p0_3a
0.850 0.908 0.962 setrgbcolor
fill
grestore
gsave
334.8 345.6 54 43.2 clipbox
0 0 p0_3b
0.876 0.925 0.970 setrgbcolor
fill
grestore
gsave
334.8 345.6 54 43.2 clipbox
0 0 p0_3c
0.969 0.984 1.000 setrgbcolor
fill
grestore
gsave
334.8 345.6 54 43.2 clipbox
0 0 p0_3d
0.969 0.984 1.000 setrgbcolor
fill
grestore
gsave
334.8 345.6 54 43.2 clipbox
0 0 p0_3e
0.966 0.982 0.999 setrgbcolor
fill
grestore
gsave
334.8 345.6 54 43.2 clipbox
0 0 p0_3f
0.959 0.978 0.997 setrgbcolor
fill
grestore
gsave
334.8 345.6 54 43.2 clipbox
0 0 p0_40
0.950 0.973 0.994 setrgbcolor
fill
grestore
gsave
334.8 345.6 54 43.2 clipbox
0 0 p0_41
0.932 0.961 0.988 setrgbcolor
fill
grestore
gsave
334.8 345.6 54 43.2 clipbox
0 0 p0_42
0.898 0.939 0.977 setrgbcolor
fill
grestore
gsave
334.8 345.6 54 43.2 clipbox
0 0 p0_43
0.898 0.939 0.977 setrgbcolor
fill
grestore
gsave
334.8 345.6 54 43.2 clipbox
0 0 p0_44
0.838 0.900 0.958 setrgbcolor
fill
grestore
gsave
334.8 345.6 54 43.2 clipbox
0 0 p0_45
0.823 0.890 0.953 setrgbcolor
fill
grestore
gsave
334.8 345.6 54 43.2 clipbox
0 0 p0_46
0.633 0.798 0.887 setrgbcolor
fill
grestore
gsave
334.8 345.6 54 43.2 clipbox
0 0 p0_47
0.677 0.816 0.902 setrgbcolor
fill
grestore
gsave
334.8 345.6 54 43.2 clipbox
0 0 p0_48
0.331 0.622 0.805 setrgbcolor
fill
grestore
gsave
334.8 345.6 54 43.2 clipbox
0 0 p0_49
0.782 0.862 0.939 setrgbcolor
fill
grestore
gsave
334.8 345.6 54 43.2 clipbox
0 0 p0_4a
0.823 0.890 0.953 setrgbcolor
fill
grestore
gsave
334.8 345.6 54 43.2 clipbox
0 0 p0_4b
0.969 0.984 1.000 setrgbcolor
fill
grestore
gsave
334.8 345.6 54 43.2 clipbox
0 0 p0_4c
0.969 0.984 1.000 setrgbcolor
fill
grestore
gsave
334.8 345.6 54 43.2 clipbox
0 0 p0_4d
0.966 0.982 0.999 setrgbcolor
fill
grestore
gsave
334.8 345.6 54 43.2 clipbox
0 0 p0_4e
0.956 0.976 0.996 setrgbcolor
fill
grestore
gsave
334.8 345.6 54 43.2 clipbox
0 0 p0_4f
0.941 0.967 0.991 setrgbcolor
fill
grestore
gsave
334.8 345.6 54 43.2 clipbox
0 0 p0_50
0.919 0.953 0.984 setrgbcolor
fill
grestore
gsave
334.8 345.6 54 43.2 clipbox
0 0 p0_51
0.876 0.925 0.970 setrgbcolor
fill
grestore
gsave
334.8 345.6 54 43.2 clipbox
0 0 p0_52
0.876 0.925 0.970 setrgbcolor
fill
grestore
gsave
334.8 345.6 54 43.2 clipbox
0 0 p0_53
0.796 0.872 0.944 setrgbcolor
fill
grestore
gsave
334.8 345.6 54 43.2 clipbox
0 0 p0_54
0.775 0.858 0.937 setrgbcolor
fill
grestore
gsave
334.8 345.6 54 43.2 clipbox
0 0 p0_55
0.454 0.701 0.847 setrgbcolor
fill
grestore
gsave
334.8 345.6 54 43.2 clipbox
0 0 p0_56
0.523 0.739 0.862 setrgbcolor
fill
grestore
gsave
334.8 345.6 54 43.2 clipbox
0 0 p0_57
0.130 0.444 0.710 setrgbcolor
fill
grestore
gsave
334.8 345.6 54 43.2 clipbox
0 0 p0_58
0.687 0.821 0.906 setrgbcolor
fill
grestore
gsave
334.8 345.6 54 43.2 clipbox
0 0 p0_59
0.775 0.858 0.937 setrgbcolor
fill
grestore
gsave
334.8 345.6 54 43.2 clipbox
0 0 p0_5a
0.969 0.984 1.000 setrgbcolor
fill
grestore
gsave
334.8 345.6 54 43.2 clipbox
0 0 p0_5b
0.966 0.982 0.999 setrgbcolor
fill
grestore
gsave
334.8 345.6 54 43.2 clipbox
0 0 p0_5c
0.962 0.980 0.998 setrgbcolor
fill
grestore
gsave
334.8 345.6 54 43.2 clipbox
0 0 p0_5d
0.953 0.974 0.995 setrgbcolor
fill
grestore
gsave
334.8 345.6 54 43.2 clipbox
0 0 p0_5e
0.932 0.961 0.988 setrgbcolor
fill
grestore
gsave
334.8 345.6 54 43.2 clipbox
0 0 p0_5f
0.904 0.943 0.979 setrgbcolor
fill
grestore
gsave
334.8 345.6 54 43.2 clipbox
0 0 p0_60
0.844 0.904 0.960 setrgbcolor
fill
grestore
gsave
334.8 345.6 54 43.2 clipbox
0 0 p0_61
0.847 0.906 0.961 setrgbcolor
fill
grestore
gsave
334.8 345.6 54 43.2 clipbox
0 0 p0_62
0.716 0.833 0.916 setrgbcolor
fill
grestore
gsave
334.8 345.6 54 43.2 clipbox
0 0 p0_63
0.672 0.814 0.901 setrgbcolor
fill
grestore
gsave
334.8 345.6 54 43.2 clipbox
0 0 p0_64
0.240 0.554 0.767 setrgbcolor
fill
grestore
gsave
334.8 345.6 54 43.2 clipbox
0 0 p0_65
0.311 0.608 0.797 setrgbcolor
fill
grestore
gsave
334.8 345.6 54 43.2 clipbox
0 0 p0_66
0.031 0.188 0.420 setrgbcolor
fill
grestore
gsave
334.8 345.6 54 43.2 clipbox
0 0 p0_67
0.529 0.743 0.863 setrgbcolor
fill
grestore
gsave
334.8 345.6 54 43.2 clipbox
0 0 p0_68
0.667 0.812 0.899 setrgbcolor
fill
grestore
gsave
334.8 345.6 54 43.2 clipbox
0 0 p0_69
0.969 0.984 1.000 setrgbcolor
fill
grestore
gsave
334.8 345.6 54 43.2 clipbox
0 0 p0_6a
0.969 0.984 1.000 setrgbcolor
fill
grestore
gsave
334.8 345.6 54 43.2 clipbox
0 0 p0_6b
0.966 0.982 0.999 setrgbcolor
fill
grestore
gsave
334.8 345.6 54 43.2 clipbox
0 0 p0_6c
0.959 0.978 0.997 setrgbcolor
fill
grestore
gsave
334.8 345.6 54 43.2 clipbox
0 0 p0_6d
0.947 0.971 0.993 setrgbcolor
fill
grestore
gsave
334.8 345.6 54 43.2 clipbox
0 0 p0_6e
0.926 0.957 0.986 setrgbcolor
fill
grestore
gsave
334.8 345.6 54 43.2 clipbox
0 0 p0_6f
0.886 0.931 0.973 setrgbcolor
fill
grestore
gsave
334.8 345.6 54 43.2 clipbox
0 0 p0_70
0.889 0.933 0.974 setrgbcolor
fill
grestore
gsave
334.8 345.6 54 43.2 clipbox
0 0 p0_71
0.817 0.886 0.951 setrgbcolor
fill
grestore
gsave
334.8 345.6 54 43.2 clipbox
0 0 p0_72
0.799 0.874 0.945 setrgbcolor
fill
grestore
gsave
334.8 345.6 54 43.2 clipbox
0 0 p0_73
0.548 0.753 0.867 setrgbcolor
fill
grestore
gsave
334.8 345.6 54 43.2 clipbox
0 0 p0_74
0.611 0.787 0.880 setrgbcolor
fill
grestore
gsave
334.8 345.6 54 43.2 clipbox
0 0 p0_75
0.228 0.542 0.761 setrgbcolor
fill
grestore
gsave
334.8 345.6 54 43.2 clipbox
0 0 p0_76
0.741 0.844 0.925 setrgbcolor
fill
grestore
gsave
334.8 345.6 54 43.2 clipbox
0 0 p0_77
0.799 0.874 0.945 setrgbcolor
fill
grestore
gsave
334.8 345.6 54 43.2 clipbox
0 0 p0_78
0.969 0.984 1.000 setrgbcolor
fill
grestore
gsave
334.8 345.6 54 43.2 clipbox
0 0 p0_79
0.966 0.982 0.999 setrgbcolor
fill
grestore
gsave
334.8 345.6 54 43.2 clipbox
0 0 p0_7a
0.962 0.980 0.998 setrgbcolor
fill
grestore
gsave
334.8 345.6 54 43.2 clipbox
0 0 p0_7b
0.953 0.974 0.995 setrgbcolor
fill
grestore
gsave
334.8 345.6 54 43.2 clipbox
0 0 p0_7c
0.935 0.963 0.989 setrgbcolor
fill
grestore
gsave
334.8 345.6 54 43.2 clipbox
0 0 p0_7d
0.907 0.945 0.980 setrgbcolor
fill
grestore
gsave
334.8 345.6 54 43.2 clipbox
0 0 p0_7e
0.853 0.910 0.963 setrgbcolor
fill
grestore
gsave
334.8 345.6 54 43.2 clipbox
0 0 p0_7f
0.855 0.911 0.964 setrgbcolor
fill
grestore
gsave
334.8 345.6 54 43.2 clipbox
0 0 p0_80
0.746 0.846 0.926 setrgbcolor
fill
grestore
gsave
334.8 345.6 54 43.2 clipbox
0 0 p0_81
0.701 0.827 0.911 setrgbcolor
fill
grestore
gsave
334.8 345.6 54 43.2 clipbox
0 0 p0_82
0.301 0.601 0.793 setrgbcolor
fill
grestore
gsave
334.8 345.6 54 43.2 clipbox
0 0 p0_83
0.372 0.650 0.821 setrgbcolor
fill
grestore
gsave
334.8 345.6 54 43.2 clipbox
0 0 p0_84
0.031 0.269 0.540 setrgbcolor
fill
grestore
gsave
334.8 345.6 54 43.2 clipbox
0 0 p0_85
0.586 0.774 0.875 setrgbcolor
fill
grestore
gsave
334.8 345.6 54 43.2 clipbox
0 0 p0_86
0.701 0.827 0.911 setrgbcolor
fill
grestore
gsave
334.8 345.6 54 43.2 clipbox
0 0 p0_87
0.969 0.984 1.000 setrgbcolor
fill
grestore
gsave
334.8 345.6 54 43.2 clipbox
0 0 p0_88
0.969 0.984 1.000 setrgbcolor
fill
grestore
gsave
334.8 345.6 54 43.2 clipbox
0 0 p0_89
0.966 0.982 0.999 setrgbcolor
fill
grestore
gsave
334.8 345.6 54 43.2 clipbox
0 0 p0_8a
0.956 0.976 0.996 setrgbcolor
fill
grestore
gsave
334.8 345.6 54 43.2 clipbox
0 0 p0_8b
0.941 0.967 0.991 setrgbcolor
fill
grestore
gsave
334.8 345.6 54 43.2 clipbox
0 0 p0_8c
0.919 0.953 0.984 setrgbcolor
fill
grestore
gsave
334.8 345.6 54 43.2 clipbox
0 0 p0_8d
0.876 0.925 0.970 setrgbcolor
fill
grestore
gsave
334.8 345.6 54 43.2 clipbox
0 0 p0_8e
0.876 0.925 0.970 setrgbcolor
fill
grestore
gsave
334.8 345.6 54 43.2 clipbox
0 0 p0_8f
0.796 0.872 0.944 setrgbcolor
fill
grestore
gsave
334.8 345.6 54 43.2 clipbox
0 0 p0_90
0.779 0.860 0.938 setrgbcolor
fill
grestore
gsave
334.8 345.6 54 43.2 clipbox
0 0 p0_91
0.454 0.701 0.847 setrgbcolor
fill
grestore
gsave
334.8 345.6 54 43.2 clipbox
0 0 p0_92
0.529 0.743 0.863 setrgbcolor
fill
grestore
gsave
334.8 345.6 54 43.2 clipbox
0 0 p0_93
0.134 0.448 0.712 setrgbcolor
fill
grestore
gsave
334.8 345.6 54 43.2 clipbox
0 0 p0_94
0.692 0.823 0.908 setrgbcolor
fill
grestore
gsave
334.8 345.6 54 43.2 clipbox
0 0 p0_95
0.775 0.858 0.937 setrgbcolor
fill
grestore
gsave
334.8 345.6 54 43.2 clipbox
0 0 p0_96
0.969 0.984 1.000 setrgbcolor
fill
grestore
gsave
334.8 345.6 54 43.2 clipbox
0 0 p0_97
0.966 0.982 0.999 setrgbcolor
fill
grestore
gsave
334.8 345.6 54 43.2 clipbox
0 0 p0_98
0.962 0.980 0.998 setrgbcolor
fill
grestore
gsave
334.8 345.6 54 43.2 clipbox
0 0 p0_99
0.953 0.974 0.995 setrgbcolor
fill
grestore
gsave
334.8 345.6 54 43.2 clipbox
0 0 p0_9a
0.935 0.963 0.989 setrgbcolor
fill
grestore
gsave
334.8 345.6 54 43.2 clipbox
0 0 p0_9b
0.904 0.943 0.979 setrgbcolor
fill
grestore
gsave
334.8 345.6 54 43.2 clipbox
0 0 p0_9c
0.847 0.906 0.961 setrgbcolor
fill
grestore
gsave
334.8 345.6 54 43.2 clipbox
0 0 p0_9d
0.850 0.908 0.962 setrgbcolor
fill
grestore
gsave
334.8 345.6 54 43.2 clipbox
0 0 p0_9e
0.726 0.837 0.920 setrgbcolor
fill
grestore
gsave
334.8 345.6 54 43.2 clipbox
0 0 p0_9f
0.682 0.819 0.904 setrgbcolor
fill
grestore
gsave
334.8 345.6 54 43.2 clipbox
0 0 p0_a0
0.266 0.577 0.779 setrgbcolor
fill
grestore
gsave
334.8 345.6 54 43.2 clipbox
0 0 p0_a1
0.336 0.626 0.807 setrgbcolor
fill
grestore
gsave
334.8 345.6 54 43.2 clipbox
0 0 p0_a2
0.031 0.221 0.468 setrgbcolor
fill
grestore
gsave
334.8 345.6 54 43.2 clipbox
0 0 p0_a3
0.555 0.756 0.868 setrgbcolor
fill
grestore
gsave
334.8 345.6 54 43.2 clipbox
0 0 p0_a4
0.682 0.819 0.904 setrgbcolor
fill
grestore
gsave
334.8 345.6 54 43.2 clipbox
0 0 p0_a5
0.969 0.984 1.000 setrgbcolor
fill
grestore
gsave
334.8 345.6 54 43.2 clipbox
0 0 p0_a6
0.969 0.984 1.000 setrgbcolor
fill
grestore
gsave
334.8 345.6 54 43.2 clipbox
0 0 p0_a7
0.966 0.982 0.999 setrgbcolor
fill
grestore
gsave
334.8 345.6 54 43.2 clipbox
0 0 p0_a8
0.959 0.978 0.997 setrgbcolor
fill
grestore
gsave
334.8 345.6 54 43.2 clipbox
0 0 p0_a9
0.950 0.973 0.994 setrgbcolor
fill
grestore
gsave
334.8 345.6 54 43.2 clipbox
0 0 p0_aa
0.935 0.963 0.989 setrgbcolor
fill
grestore
gsave
334.8 345.6 54 43.2 clipbox
0 0 p0_ab
0.901 0.941 0.978 setrgbcolor
fill
grestore
gsave
334.8 345.6 54 43.2 clipbox
0 0 p0_ac
0.901 0.941 0.978 setrgbcolor
fill
grestore
gsave
334.8 345.6 54 43.2 clipbox
0 0 p0_ad
0.841 0.902 0.959 setrgbcolor
fill
grestore
gsave
334.8 345.6 54 43.2 clipbox
0 0 p0_ae
0.826 0.892 0.954 setrgbcolor
fill
grestore
gsave
334.8 345.6 54 43.2 clipbox
0 0 p0_af
0.647 0.804 0.892 setrgbcolor
fill
grestore
gsave
334.8 345.6 54 43.2 clipbox
0 0 p0_b0
0.687 0.821 0.906 setrgbcolor
fill
grestore
gsave
334.8 345.6 54 43.2 clipbox
0 0 p0_b1
0.352 0.636 0.813 setrgbcolor
fill
grestore
gsave
334.8 345.6 54 43.2 clipbox
0 0 p0_b2
0.788 0.866 0.941 setrgbcolor
fill
grestore
gsave
334.8 345.6 54 43.2 clipbox
0 0 p0_b3
0.826 0.892 0.954 setrgbcolor
fill
grestore
gsave
334.8 345.6 54 43.2 clipbox
0 0 p0_b4
0.969 0.984 1.000 setrgbcolor
fill
grestore
gsave
334.8 345.6 54 43.2 clipbox
0 0 p0_b5
0.969 0.984 1.000 setrgbcolor
fill
grestore
gsave
334.8 345.6 54 43.2 clipbox
0 0 p0_b6
0.966 0.982 0.999 setrgbcolor
fill
grestore
gsave
334.8 345.6 54 43.2 clipbox
0 0 p0_b7
0.959 0.978 0.997 setrgbcolor
fill
grestore
gsave
334.8 345.6 54 43.2 clipbox
0 0 p0_b8
0.950 0.973 0.994 setrgbcolor
fill
grestore
gsave
334.8 345.6 54 43.2 clipbox
0 0 p0_b9
0.935 0.963 0.989 setrgbcolor
fill
grestore
gsave
334.8 345.6 54 43.2 clipbox
0 0 p0_ba
0.904 0.943 0.979 setrgbcolor
fill
grestore
gsave
334.8 345.6 54 43.2 clipbox
0 0 p0_bb
0.904 0.943 0.979 setrgbcolor
fill
grestore
gsave
334.8 345.6 54 43.2 clipbox
0 0 p0_bc
0.847 0.906 0.961 setrgbcolor
fill
grestore
gsave
334.8 345.6 54 43.2 clipbox
0 0 p0_bd
0.835 0.898 0.957 setrgbcolor
fill
grestore
gsave
334.8 345.6 54 43.2 clipbox
0 0 p0_be
0.672 0.814 0.901 setrgbcolor
fill
grestore
gsave
334.8 345.6 54 43.2 clipbox
0 0 p0_bf
0.711 0.831 0.914 setrgbcolor
fill
grestore
gsave
334.8 345.6 54 43.2 clipbox
0 0 p0_c0
0.392 0.663 0.828 setrgbcolor
fill
grestore
gsave
334.8 345.6 54 43.2 clipbox
0 0 p0_c1
0.796 0.872 0.944 setrgbcolor
fill
grestore
gsave
334.8 345.6 54 43.2 clipbox
0 0 p0_c2
0.835 0.898 0.957 setrgbcolor
fill
grestore
gsave
334.8 345.6 54 43.2 clipbox
0 0 p0_c3
0.969 0.984 1.000 setrgbcolor
fill
grestore
gsave
334.8 345.6 54 43.2 clipbox
0 0 p0_c4
0.969 0.984 1.000 setrgbcolor
fill
grestore
gsave
334.8 345.6 54 43.2 clipbox
0 0 p0_c5
0.969 0.984 1.000 setrgbcolor
fill
grestore
gsave
334.8 345.6 54 43.2 clipbox
0 0 p0_c6
0.969 0.984 1.000 setrgbcolor
fill
grestore
gsave
334.8 345.6 54 43.2 clipbox
0 0 p0_c7
0.966 0.982 0.999 setrgbcolor
fill
grestore
gsave
334.8 345.6 54 43.2 clipbox
0 0 p0_c8
0.962 0.980 0.998 setrgbcolor
fill
grestore
gsave
334.8 345.6 54 43.2 clipbox
0 0 p0_c9
0.956 0.976 0.996 setrgbcolor
fill
grestore
gsave
334.8 345.6 54 43.2 clipbox
0 0 p0_ca
0.959 0.978 0.997 setrgbcolor
fill
grestore
gsave
334.8 345.6 54 43.2 clipbox
0 0 p0_cb
0.947 0.971 0.993 setrgbcolor
fill
grestore
gsave
334.8 345.6 54 43.2 clipbox
0 0 p0_cc
0.944 0.969 0.992 setrgbcolor
fill
grestore
gsave
334.8 345.6 54 43.2 clipbox
0 0 p0_cd
0.919 0.953 0.984 setrgbcolor
fill
grestore
gsave
334.8 345.6 54 43.2 clipbox
0 0 p0_ce
0.926 0.957 0.986 setrgbcolor
fill
grestore
gsave
334.8 345.6 54 43.2 clipbox
0 0 p0_cf
0.892 0.935 0.975 setrgbcolor
fill
grestore
gsave
334.8 345.6 54 43.2 clipbox
0 0 p0_d0
0.938 0.965 0.990 setrgbcolor
fill
grestore
gsave
334.8 345.6 54 43.2 clipbox
0 0 p0_d1
0.944 0.969 0.992 setrgbcolor
fill
grestore
gsave
334.8 345.6 54 43.2 clipbox
0 0 p0_d2
0.969 0.984 1.000 setrgbcolor
fill
grestore
gsave
334.8 345.6 54 43.2 clipbox
0 0 p0_d3
0.969 0.984 1.000 setrgbcolor
fill
grestore
gsave
334.8 345.6 54 43.2 clipbox
0 0 p0_d4
0.969 0.984 1.000 setrgbcolor
fill
grestore
gsave
334.8 345.6 54 43.2 clipbox
0 0 p0_d5
0.969 0.984 1.000 setrgbcolor
fill
grestore
gsave
334.8 345.6 54 43.2 clipbox
0 0 p0_d6
0.969 0.984 1.000 setrgbcolor
fill
grestore
gsave
334.8 345.6 54 43.2 clipbox
0 0 p0_d7
0.969 0.984 1.000 setrgbcolor
fill
grestore
gsave
334.8 345.6 54 43.2 clipbox
0 0 p0_d8
0.969 0.984 1.000 setrgbcolor
fill
grestore
gsave
334.8 345.6 54 43.2 clipbox
0 0 p0_d9
0.969 0.984 1.000 setrgbcolor
fill
grestore
gsave
334.8 345.6 54 43.2 clipbox
0 0 p0_da
0.966 0.982 0.999 setrgbcolor
fill
grestore
gsave
334.8 345.6 54 43.2 clipbox
0 0 p0_db
0.966 0.982 0.999 setrgbcolor
fill
grestore
gsave
334.8 345.6 54 43.2 clipbox
0 0 p0_dc
0.959 0.978 0.997 setrgbcolor
fill
grestore
gsave
334.8 345.6 54 43.2 clipbox
0 0 p0_dd
0.962 0.980 0.998 setrgbcolor
fill
grestore
gsave
334.8 345.6 54 43.2 clipbox
0 0 p0_de
0.956 0.976 0.996 setrgbcolor
fill
grestore
gsave
334.8 345.6 54 43.2 clipbox
0 0 p0_df
0.962 0.980 0.998 setrgbcolor
fill
grestore
gsave
334.8 345.6 54 43.2 clipbox
0 0 p0_e0
0.966 0.982 0.999 setrgbcolor
fill
grestore
4.000 setlinewidth
1 setlinejoin
2 setlinecap
[] 0 setdash
0.502 setgray
gsave
334.8 345.6 54 43.2 clipbox
54 43.2 m
388.8 388.8 l
stroke
grestore
0.500 setlinewidth
0 setlinecap
0.000 setgray
gsave
/o {
gsave
newpath
translate
0.5 setlinewidth
1 setlinejoin
0 setlinecap
0 0 m
0 4 l
gsave
0.000 setgray
fill
grestore
stroke
grestore
} bind def
54 43.2 o
grestore
gsave
/o {
gsave
newpath
translate
0.5 setlinewidth
1 setlinejoin
0 setlinecap
0 0 m
0 -4 l
gsave
0.000 setgray
fill
grestore
stroke
grestore
} bind def
54 388.8 o
grestore
/DejaVuSans findfont
14.000 scalefont
setfont
gsave
39.335938 28.606250 translate
0.000000 rotate
0.000000 0.203125 m /zero glyphshow
8.907227 0.203125 m /period glyphshow
13.357422 0.203125 m /eight glyphshow
22.264648 0.203125 m /zero glyphshow
grestore
gsave
/o {
gsave
newpath
translate
0.5 setlinewidth
1 setlinejoin
0 setlinecap
0 0 m
0 4 l
gsave
0.000 setgray
fill
grestore
stroke
grestore
} bind def
137.7 43.2 o
grestore
gsave
/o {
gsave
newpath
translate
0.5 setlinewidth
1 setlinejoin
0 setlinecap
0 0 m
0 -4 l
gsave
0.000 setgray
fill
grestore
stroke
grestore
} bind def
137.7 388.8 o
grestore
gsave
123.184375 28.606250 translate
0.000000 rotate
0.000000 0.203125 m /zero glyphshow
8.907227 0.203125 m /period glyphshow
13.357422 0.203125 m /eight glyphshow
22.264648 0.203125 m /five glyphshow
grestore
gsave
/o {
gsave
newpath
translate
0.5 setlinewidth
1 setlinejoin
0 setlinecap
0 0 m
0 4 l
gsave
0.000 setgray
fill
grestore
stroke
grestore
} bind def
221.4 43.2 o
grestore
gsave
/o {
gsave
newpath
translate
0.5 setlinewidth
1 setlinejoin
0 setlinecap
0 0 m
0 -4 l
gsave
0.000 setgray
fill
grestore
stroke
grestore
} bind def
221.4 388.8 o
grestore
gsave
206.735938 28.606250 translate
0.000000 rotate
0.000000 0.203125 m /zero glyphshow
8.907227 0.203125 m /period glyphshow
13.357422 0.203125 m /nine glyphshow
22.264648 0.203125 m /zero glyphshow
grestore
gsave
/o {
gsave
newpath
translate
0.5 setlinewidth
1 setlinejoin
0 setlinecap
0 0 m
0 4 l
gsave
0.000 setgray
fill
grestore
stroke
grestore
} bind def
305.1 43.2 o
grestore
gsave
/o {
gsave
newpath
translate
0.5 setlinewidth
1 setlinejoin
0 setlinecap
0 0 m
0 -4 l
gsave
0.000 setgray
fill
grestore
stroke
grestore
} bind def
305.1 388.8 o
grestore
gsave
290.584375 28.606250 translate
0.000000 rotate
0.000000 0.203125 m /zero glyphshow
8.907227 0.203125 m /period glyphshow
13.357422 0.203125 m /nine glyphshow
22.264648 0.203125 m /five glyphshow
grestore
gsave
/o {
gsave
newpath
translate
0.5 setlinewidth
1 setlinejoin
0 setlinecap
0 0 m
0 4 l
gsave
0.000 setgray
fill
grestore
stroke
grestore
} bind def
388.8 43.2 o
grestore
gsave
/o {
gsave
newpath
translate
0.5 setlinewidth
1 setlinejoin
0 setlinecap
0 0 m
0 -4 l
gsave
0.000 setgray
fill
grestore
stroke
grestore
} bind def
388.8 388.8 o
grestore
gsave
374.448438 28.606250 translate
0.000000 rotate
0.000000 0.203125 m /one glyphshow
8.907227 0.203125 m /period glyphshow
13.357422 0.203125 m /zero glyphshow
22.264648 0.203125 m /zero glyphshow
grestore
gsave
170.228125 9.668750 translate
0.000000 rotate
0.000000 3.296875 m /p glyphshow
8.886719 3.296875 m /underscore glyphshow
15.886719 3.296875 m /c glyphshow
23.583984 3.296875 m /o glyphshow
32.149414 3.296875 m /r glyphshow
37.655273 3.296875 m /r glyphshow
43.161133 3.296875 m /e glyphshow
51.774414 3.296875 m /c glyphshow
59.471680 3.296875 m /t glyphshow
64.960938 3.296875 m /space glyphshow
69.411133 3.296875 m /A glyphshow
78.988281 3.296875 m /l glyphshow
82.877930 3.296875 m /i glyphshow
86.767578 3.296875 m /c glyphshow
94.464844 3.296875 m /e glyphshow
grestore
gsave
/o {
gsave
newpath
translate
0.5 setlinewidth
1 setlinejoin
0 setlinecap
0 0 m
4 0 l
gsave
0.000 setgray
fill
grestore
stroke
grestore
} bind def
54 43.2 o
grestore
gsave
/o {
gsave
newpath
translate
0.5 setlinewidth
1 setlinejoin
0 setlinecap
0 0 m
-4 0 l
gsave
0.000 setgray
fill
grestore
stroke
grestore
} bind def
388.8 43.2 o
grestore
gsave
20.671875 37.903125 translate
0.000000 rotate
0.000000 0.203125 m /zero glyphshow
8.907227 0.203125 m /period glyphshow
13.357422 0.203125 m /eight glyphshow
22.264648 0.203125 m /zero glyphshow
grestore
gsave
/o {
gsave
newpath
translate
0.5 setlinewidth
1 setlinejoin
0 setlinecap
0 0 m
4 0 l
gsave
0.000 setgray
fill
grestore
stroke
grestore
} bind def
54 129.6 o
grestore
gsave
/o {
gsave
newpath
translate
0.5 setlinewidth
1 setlinejoin
0 setlinecap
0 0 m
-4 0 l
gsave
0.000 setgray
fill
grestore
stroke
grestore
} bind def
388.8 129.6 o
grestore
gsave
20.968750 124.303125 translate
0.000000 rotate
0.000000 0.203125 m /zero glyphshow
8.907227 0.203125 m /period glyphshow
13.357422 0.203125 m /eight glyphshow
22.264648 0.203125 m /five glyphshow
grestore
gsave
/o {
gsave
newpath
translate
0.5 setlinewidth
1 setlinejoin
0 setlinecap
0 0 m
4 0 l
gsave
0.000 setgray
fill
grestore
stroke
grestore
} bind def
54 216 o
grestore
gsave
/o {
gsave
newpath
translate
0.5 setlinewidth
1 setlinejoin
0 setlinecap
0 0 m
-4 0 l
gsave
0.000 setgray
fill
grestore
stroke
grestore
} bind def
388.8 216 o
grestore
gsave
20.671875 210.703125 translate
0.000000 rotate
0.000000 0.203125 m /zero glyphshow
8.907227 0.203125 m /period glyphshow
13.357422 0.203125 m /nine glyphshow
22.264648 0.203125 m /zero glyphshow
grestore
gsave
/o {
gsave
newpath
translate
0.5 setlinewidth
1 setlinejoin
0 setlinecap
0 0 m
4 0 l
gsave
0.000 setgray
fill
grestore
stroke
grestore
} bind def
54 302.4 o
grestore
gsave
/o {
gsave
newpath
translate
0.5 setlinewidth
1 setlinejoin
0 setlinecap
0 0 m
-4 0 l
gsave
0.000 setgray
fill
grestore
stroke
grestore
} bind def
388.8 302.4 o
grestore
gsave
20.968750 297.103125 translate
0.000000 rotate
0.000000 0.203125 m /zero glyphshow
8.907227 0.203125 m /period glyphshow
13.357422 0.203125 m /nine glyphshow
22.264648 0.203125 m /five glyphshow
grestore
gsave
/o {
gsave
newpath
translate
0.5 setlinewidth
1 setlinejoin
0 setlinecap
0 0 m
4 0 l
gsave
0.000 setgray
fill
grestore
stroke
grestore
} bind def
54 388.8 o
grestore
gsave
/o {
gsave
newpath
translate
0.5 setlinewidth
1 setlinejoin
0 setlinecap
0 0 m
-4 0 l
gsave
0.000 setgray
fill
grestore
stroke
grestore
} bind def
388.8 388.8 o
grestore
gsave
21.296875 383.503125 translate
0.000000 rotate
0.000000 0.203125 m /one glyphshow
8.907227 0.203125 m /period glyphshow
13.357422 0.203125 m /zero glyphshow
22.264648 0.203125 m /zero glyphshow
grestore
gsave
15.671875 168.148438 translate
90.000000 rotate
0.000000 3.296875 m /p glyphshow
8.886719 3.296875 m /underscore glyphshow
15.886719 3.296875 m /c glyphshow
23.583984 3.296875 m /o glyphshow
32.149414 3.296875 m /r glyphshow
37.655273 3.296875 m /r glyphshow
43.161133 3.296875 m /e glyphshow
51.774414 3.296875 m /c glyphshow
59.471680 3.296875 m /t glyphshow
64.960938 3.296875 m /space glyphshow
69.411133 3.296875 m /B glyphshow
79.015625 3.296875 m /o glyphshow
87.581055 3.296875 m /b glyphshow
grestore
1.000 setlinewidth
2 setlinecap
gsave
54 388.8 m
388.8 388.8 l
stroke
grestore
gsave
388.8 43.2 m
388.8 388.8 l
stroke
grestore
gsave
54 43.2 m
388.8 43.2 l
stroke
grestore
gsave
54 43.2 m
54 388.8 l
stroke
grestore

end
showpage
