%!PS-Adobe-3.0 EPSF-3.0
%%Title: species-prev-B1242.eps
%%Creator: matplotlib version 1.2.1, http://matplotlib.org/
%%CreationDate: Fri Jun  7 11:32:32 2013
%%Orientation: portrait
%%BoundingBox: 18 180 594 612
%%EndComments
%%BeginProlog
/mpldict 8 dict def
mpldict begin
/m { moveto } bind def
/l { lineto } bind def
/r { rlineto } bind def
/c { curveto } bind def
/cl { closepath } bind def
/box {
m
1 index 0 r
0 exch r
neg 0 r
cl
} bind def
/clipbox {
box
clip
newpath
} bind def
%!PS-Adobe-3.0 Resource-Font
%%Title: DejaVu Sans
%%Copyright: Copyright (c) 2003 by Bitstream, Inc. All Rights Reserved. Copyright (c) 2006 by Tavmjong Bah. All Rights Reserved. DejaVu changes are in public domain 
%%Creator: Converted from TrueType to type 3 by PPR
25 dict begin
/_d{bind def}bind def
/_m{moveto}_d
/_l{lineto}_d
/_cl{closepath eofill}_d
/_c{curveto}_d
/_sc{7 -1 roll{setcachedevice}{pop pop pop pop pop pop}ifelse}_d
/_e{exec}_d
/FontName /DejaVuSans def
/PaintType 0 def
/FontMatrix[.001 0 0 .001 0 0]def
/FontBBox[-1021 -415 1681 1167]def
/FontType 3 def
/Encoding [ /space /parenleft /parenright /period /zero /one /two /three /four /five /six /seven /eight /nine /P /a /b /c /e /l /n /o /r /v ] def
/FontInfo 10 dict dup begin
/FamilyName (DejaVu Sans) def
/FullName (DejaVu Sans) def
/Notice (Copyright (c) 2003 by Bitstream, Inc. All Rights Reserved. Copyright (c) 2006 by Tavmjong Bah. All Rights Reserved. DejaVu changes are in public domain ) def
/Weight (Book) def
/Version (Version 2.33) def
/ItalicAngle 0.0 def
/isFixedPitch false def
/UnderlinePosition -130 def
/UnderlineThickness 90 def
end readonly def
/CharStrings 24 dict dup begin
/space{318 0 0 0 0 0 _sc
}_d
/parenleft{390 0 86 -131 310 759 _sc
310 759 _m
266 683 234 609 213 536 _c
191 463 181 389 181 314 _c
181 238 191 164 213 91 _c
234 17 266 -56 310 -131 _c
232 -131 _l
183 -54 146 20 122 94 _c
98 168 86 241 86 314 _c
86 386 98 459 122 533 _c
146 607 182 682 232 759 _c
310 759 _l
_cl}_d
/parenright{390 0 80 -131 304 759 _sc
80 759 _m
158 759 _l
206 682 243 607 267 533 _c
291 459 304 386 304 314 _c
304 241 291 168 267 94 _c
243 20 206 -54 158 -131 _c
80 -131 _l
123 -56 155 17 177 91 _c
198 164 209 238 209 314 _c
209 389 198 463 177 536 _c
155 609 123 683 80 759 _c
_cl}_d
/period{318 0 107 0 210 124 _sc
107 124 _m
210 124 _l
210 0 _l
107 0 _l
107 124 _l
_cl}_d
/zero{636 0 66 -13 570 742 _sc
318 664 _m
267 664 229 639 203 589 _c
177 539 165 464 165 364 _c
165 264 177 189 203 139 _c
229 89 267 64 318 64 _c
369 64 407 89 433 139 _c
458 189 471 264 471 364 _c
471 464 458 539 433 589 _c
407 639 369 664 318 664 _c
318 742 _m
399 742 461 709 505 645 _c
548 580 570 486 570 364 _c
570 241 548 147 505 83 _c
461 19 399 -13 318 -13 _c
236 -13 173 19 130 83 _c
87 147 66 241 66 364 _c
66 486 87 580 130 645 _c
173 709 236 742 318 742 _c
_cl}_d
/one{636 0 110 0 544 729 _sc
124 83 _m
285 83 _l
285 639 _l
110 604 _l
110 694 _l
284 729 _l
383 729 _l
383 83 _l
544 83 _l
544 0 _l
124 0 _l
124 83 _l
_cl}_d
/two{{636 0 73 0 536 742 _sc
192 83 _m
536 83 _l
536 0 _l
73 0 _l
73 83 _l
110 121 161 173 226 239 _c
290 304 331 346 348 365 _c
380 400 402 430 414 455 _c
426 479 433 504 433 528 _c
433 566 419 598 392 622 _c
365 646 330 659 286 659 _c
255 659 222 653 188 643 _c
154 632 117 616 78 594 _c
78 694 _l
118 710 155 722 189 730 _c
223 738 255 742 284 742 _c
}_e{359 742 419 723 464 685 _c
509 647 532 597 532 534 _c
532 504 526 475 515 449 _c
504 422 484 390 454 354 _c
446 344 420 317 376 272 _c
332 227 271 164 192 83 _c
_cl}_e}_d
/three{{636 0 76 -13 556 742 _sc
406 393 _m
453 383 490 362 516 330 _c
542 298 556 258 556 212 _c
556 140 531 84 482 45 _c
432 6 362 -13 271 -13 _c
240 -13 208 -10 176 -4 _c
144 1 110 10 76 22 _c
76 117 _l
103 101 133 89 166 81 _c
198 73 232 69 268 69 _c
330 69 377 81 409 105 _c
441 129 458 165 458 212 _c
458 254 443 288 413 312 _c
383 336 341 349 287 349 _c
}_e{202 349 _l
202 430 _l
291 430 _l
339 430 376 439 402 459 _c
428 478 441 506 441 543 _c
441 580 427 609 401 629 _c
374 649 336 659 287 659 _c
260 659 231 656 200 650 _c
169 644 135 635 98 623 _c
98 711 _l
135 721 170 729 203 734 _c
235 739 266 742 296 742 _c
370 742 429 725 473 691 _c
517 657 539 611 539 553 _c
539 513 527 479 504 451 _c
481 423 448 403 406 393 _c
_cl}_e}_d
/four{636 0 49 0 580 729 _sc
378 643 _m
129 254 _l
378 254 _l
378 643 _l
352 729 _m
476 729 _l
476 254 _l
580 254 _l
580 172 _l
476 172 _l
476 0 _l
378 0 _l
378 172 _l
49 172 _l
49 267 _l
352 729 _l
_cl}_d
/five{{636 0 77 -13 549 729 _sc
108 729 _m
495 729 _l
495 646 _l
198 646 _l
198 467 _l
212 472 227 476 241 478 _c
255 480 270 482 284 482 _c
365 482 429 459 477 415 _c
525 370 549 310 549 234 _c
549 155 524 94 475 51 _c
426 8 357 -13 269 -13 _c
238 -13 207 -10 175 -6 _c
143 -1 111 6 77 17 _c
77 116 _l
106 100 136 88 168 80 _c
199 72 232 69 267 69 _c
}_e{323 69 368 83 401 113 _c
433 143 450 183 450 234 _c
450 284 433 324 401 354 _c
368 384 323 399 267 399 _c
241 399 214 396 188 390 _c
162 384 135 375 108 363 _c
108 729 _l
_cl}_e}_d
/six{{636 0 70 -13 573 742 _sc
330 404 _m
286 404 251 388 225 358 _c
199 328 186 286 186 234 _c
186 181 199 139 225 109 _c
251 79 286 64 330 64 _c
374 64 409 79 435 109 _c
461 139 474 181 474 234 _c
474 286 461 328 435 358 _c
409 388 374 404 330 404 _c
526 713 _m
526 623 _l
501 635 476 644 451 650 _c
425 656 400 659 376 659 _c
310 659 260 637 226 593 _c
}_e{192 549 172 482 168 394 _c
187 422 211 444 240 459 _c
269 474 301 482 336 482 _c
409 482 467 459 509 415 _c
551 371 573 310 573 234 _c
573 159 550 99 506 54 _c
462 9 403 -13 330 -13 _c
246 -13 181 19 137 83 _c
92 147 70 241 70 364 _c
70 479 97 571 152 639 _c
206 707 280 742 372 742 _c
396 742 421 739 447 735 _c
472 730 498 723 526 713 _c
_cl}_e}_d
/seven{636 0 82 0 551 729 _sc
82 729 _m
551 729 _l
551 687 _l
286 0 _l
183 0 _l
432 646 _l
82 646 _l
82 729 _l
_cl}_d
/eight{{636 0 68 -13 568 742 _sc
318 346 _m
271 346 234 333 207 308 _c
180 283 167 249 167 205 _c
167 161 180 126 207 101 _c
234 76 271 64 318 64 _c
364 64 401 76 428 102 _c
455 127 469 161 469 205 _c
469 249 455 283 429 308 _c
402 333 365 346 318 346 _c
219 388 _m
177 398 144 418 120 447 _c
96 476 85 511 85 553 _c
85 611 105 657 147 691 _c
188 725 245 742 318 742 _c
}_e{390 742 447 725 489 691 _c
530 657 551 611 551 553 _c
551 511 539 476 515 447 _c
491 418 459 398 417 388 _c
464 377 501 355 528 323 _c
554 291 568 251 568 205 _c
568 134 546 80 503 43 _c
459 5 398 -13 318 -13 _c
237 -13 175 5 132 43 _c
89 80 68 134 68 205 _c
68 251 81 291 108 323 _c
134 355 171 377 219 388 _c
183 544 _m
183 506 194 476 218 455 _c
}_e{242 434 275 424 318 424 _c
360 424 393 434 417 455 _c
441 476 453 506 453 544 _c
453 582 441 611 417 632 _c
393 653 360 664 318 664 _c
275 664 242 653 218 632 _c
194 611 183 582 183 544 _c
_cl}_e}_d
/nine{{636 0 63 -13 566 742 _sc
110 15 _m
110 105 _l
134 93 159 84 185 78 _c
210 72 235 69 260 69 _c
324 69 374 90 408 134 _c
442 178 462 244 468 334 _c
448 306 424 284 396 269 _c
367 254 335 247 300 247 _c
226 247 168 269 126 313 _c
84 357 63 417 63 494 _c
63 568 85 628 129 674 _c
173 719 232 742 306 742 _c
390 742 455 709 499 645 _c
543 580 566 486 566 364 _c
}_e{566 248 538 157 484 89 _c
429 21 356 -13 264 -13 _c
239 -13 214 -10 189 -6 _c
163 -2 137 5 110 15 _c
306 324 _m
350 324 385 339 411 369 _c
437 399 450 441 450 494 _c
450 546 437 588 411 618 _c
385 648 350 664 306 664 _c
262 664 227 648 201 618 _c
175 588 162 546 162 494 _c
162 441 175 399 201 369 _c
227 339 262 324 306 324 _c
_cl}_e}_d
/P{603 0 98 0 569 729 _sc
197 648 _m
197 374 _l
321 374 _l
367 374 402 385 427 409 _c
452 433 465 467 465 511 _c
465 555 452 588 427 612 _c
402 636 367 648 321 648 _c
197 648 _l
98 729 _m
321 729 _l
402 729 464 710 506 673 _c
548 636 569 582 569 511 _c
569 439 548 384 506 348 _c
464 311 402 293 321 293 _c
197 293 _l
197 0 _l
98 0 _l
98 729 _l
_cl}_d
/a{{613 0 60 -13 522 560 _sc
343 275 _m
270 275 220 266 192 250 _c
164 233 150 205 150 165 _c
150 133 160 107 181 89 _c
202 70 231 61 267 61 _c
317 61 357 78 387 114 _c
417 149 432 196 432 255 _c
432 275 _l
343 275 _l
522 312 _m
522 0 _l
432 0 _l
432 83 _l
411 49 385 25 355 10 _c
325 -5 287 -13 243 -13 _c
187 -13 142 2 109 33 _c
76 64 60 106 60 159 _c
}_e{60 220 80 266 122 298 _c
163 329 224 345 306 345 _c
432 345 _l
432 354 _l
432 395 418 427 391 450 _c
364 472 326 484 277 484 _c
245 484 215 480 185 472 _c
155 464 127 453 100 439 _c
100 522 _l
132 534 164 544 195 550 _c
226 556 256 560 286 560 _c
365 560 424 539 463 498 _c
502 457 522 395 522 312 _c
_cl}_e}_d
/b{{635 0 91 -13 580 760 _sc
487 273 _m
487 339 473 390 446 428 _c
418 466 381 485 334 485 _c
286 485 249 466 222 428 _c
194 390 181 339 181 273 _c
181 207 194 155 222 117 _c
249 79 286 61 334 61 _c
381 61 418 79 446 117 _c
473 155 487 207 487 273 _c
181 464 _m
199 496 223 520 252 536 _c
281 552 316 560 356 560 _c
422 560 476 533 518 481 _c
559 428 580 359 580 273 _c
}_e{580 187 559 117 518 65 _c
476 13 422 -13 356 -13 _c
316 -13 281 -5 252 10 _c
223 25 199 49 181 82 _c
181 0 _l
91 0 _l
91 760 _l
181 760 _l
181 464 _l
_cl}_e}_d
/c{{550 0 55 -13 488 560 _sc
488 526 _m
488 442 _l
462 456 437 466 411 473 _c
385 480 360 484 334 484 _c
276 484 230 465 198 428 _c
166 391 150 339 150 273 _c
150 206 166 154 198 117 _c
230 80 276 62 334 62 _c
360 62 385 65 411 72 _c
437 79 462 90 488 104 _c
488 21 _l
462 9 436 0 410 -5 _c
383 -10 354 -13 324 -13 _c
242 -13 176 12 128 64 _c
}_e{79 115 55 185 55 273 _c
55 362 79 432 128 483 _c
177 534 244 560 330 560 _c
358 560 385 557 411 551 _c
437 545 463 537 488 526 _c
_cl}_e}_d
/e{{615 0 55 -13 562 560 _sc
562 296 _m
562 252 _l
149 252 _l
153 190 171 142 205 110 _c
238 78 284 62 344 62 _c
378 62 412 66 444 74 _c
476 82 509 95 541 113 _c
541 28 _l
509 14 476 3 442 -3 _c
408 -9 373 -13 339 -13 _c
251 -13 182 12 131 62 _c
80 112 55 181 55 268 _c
55 357 79 428 127 481 _c
175 533 241 560 323 560 _c
397 560 455 536 498 489 _c
}_e{540 441 562 377 562 296 _c
472 322 _m
471 371 457 410 431 440 _c
404 469 368 484 324 484 _c
274 484 234 469 204 441 _c
174 413 156 373 152 322 _c
472 322 _l
_cl}_e}_d
/l{278 0 94 0 184 760 _sc
94 760 _m
184 760 _l
184 0 _l
94 0 _l
94 760 _l
_cl}_d
/n{634 0 91 0 549 560 _sc
549 330 _m
549 0 _l
459 0 _l
459 327 _l
459 379 448 417 428 443 _c
408 469 378 482 338 482 _c
289 482 251 466 223 435 _c
195 404 181 362 181 309 _c
181 0 _l
91 0 _l
91 547 _l
181 547 _l
181 462 _l
202 494 227 519 257 535 _c
286 551 320 560 358 560 _c
420 560 468 540 500 501 _c
532 462 549 405 549 330 _c
_cl}_d
/o{612 0 55 -13 557 560 _sc
306 484 _m
258 484 220 465 192 427 _c
164 389 150 338 150 273 _c
150 207 163 156 191 118 _c
219 80 257 62 306 62 _c
354 62 392 80 420 118 _c
448 156 462 207 462 273 _c
462 337 448 389 420 427 _c
392 465 354 484 306 484 _c
306 560 _m
384 560 445 534 490 484 _c
534 433 557 363 557 273 _c
557 183 534 113 490 63 _c
445 12 384 -13 306 -13 _c
227 -13 165 12 121 63 _c
77 113 55 183 55 273 _c
55 363 77 433 121 484 _c
165 534 227 560 306 560 _c
_cl}_d
/r{411 0 91 0 411 560 _sc
411 463 _m
401 469 390 473 378 476 _c
366 478 353 480 339 480 _c
288 480 249 463 222 430 _c
194 397 181 350 181 288 _c
181 0 _l
91 0 _l
91 547 _l
181 547 _l
181 462 _l
199 495 224 520 254 536 _c
284 552 321 560 365 560 _c
371 560 378 559 386 559 _c
393 558 401 557 411 555 _c
411 463 _l
_cl}_d
/v{592 0 30 0 562 547 _sc
30 547 _m
125 547 _l
296 88 _l
467 547 _l
562 547 _l
357 0 _l
235 0 _l
30 547 _l
_cl}_d
end readonly def

/BuildGlyph
 {exch begin
 CharStrings exch
 2 copy known not{pop /.notdef}if
 true 3 1 roll get exec
 end}_d

/BuildChar {
 1 index /Encoding get exch get
 1 index /BuildGlyph get exec
}_d

FontName currentdict end definefont pop
end
%%EndProlog
mpldict begin
18 180 translate
576 432 0 0 clipbox
gsave
0 0 m
576 0 l
576 432 l
0 432 l
cl
1.000 setgray
fill
grestore
gsave
72 43.2 m
518.4 43.2 l
518.4 388.8 l
72 388.8 l
cl
1.000 setgray
fill
grestore
3.000 setlinewidth
1 setlinejoin
2 setlinecap
[] 0 setdash
0.031 0.114 0.345 setrgbcolor
gsave
446.4 345.6 72 43.2 clipbox
72 43.2 m
72 43.2 l
86.88 43.2 l
86.88 43.2 l
101.76 43.2 l
101.76 43.2 l
116.64 43.2 l
116.64 43.2 l
131.52 43.2 l
131.52 43.2 l
146.4 43.2 l
146.4 43.2 l
161.28 43.2 l
161.28 43.2 l
176.16 43.2 l
176.16 43.2 l
191.04 43.2 l
191.04 43.2 l
205.92 43.2 l
205.92 43.2 l
220.8 43.2 l
220.8 43.2 l
235.68 43.2 l
235.68 43.2 l
250.56 43.2 l
250.56 43.2014 l
265.44 43.2014 l
265.44 43.2295 l
280.32 43.2295 l
280.32 43.5494 l
295.2 43.5494 l
295.2 45.7171 l
310.08 45.7171 l
310.08 54.9898 l
324.96 54.9898 l
324.96 81.2731 l
339.84 81.2731 l
339.84 132.65 l
354.72 132.65 l
354.72 204.242 l
369.6 204.242 l
369.6 277.37 l
384.48 277.37 l
384.48 333.425 l
399.36 333.425 l
399.36 366.32 l
414.24 366.32 l
414.24 381.353 l
429.12 381.353 l
429.12 386.782 l
444 386.782 l
444 388.351 l
458.88 388.351 l
458.88 388.717 l
473.76 388.717 l
473.76 388.787 l
488.64 388.787 l
488.64 388.798 l
503.52 388.798 l
503.52 388.8 l
518.4 388.8 l
518.4 388.8 l
533.28 388.8 l
stroke
grestore
0.133 0.369 0.659 setrgbcolor
gsave
446.4 345.6 72 43.2 clipbox
72 43.2 m
72 43.2 l
86.88 43.2 l
86.88 43.2 l
101.76 43.2 l
101.76 43.2 l
116.64 43.2 l
116.64 43.2 l
131.52 43.2 l
131.52 43.2 l
146.4 43.2 l
146.4 43.2 l
161.28 43.2 l
161.28 43.2085 l
176.16 43.2085 l
176.16 43.5518 l
191.04 43.5518 l
191.04 47.9939 l
205.92 47.9939 l
205.92 71.7876 l
220.8 71.7876 l
220.8 134.637 l
235.68 134.637 l
235.68 227.369 l
250.56 227.369 l
250.56 311.136 l
265.44 311.136 l
265.44 360.789 l
280.32 360.789 l
280.32 381.165 l
295.2 381.165 l
295.2 387.203 l
310.08 387.203 l
310.08 388.539 l
324.96 388.539 l
324.96 388.766 l
339.84 388.766 l
339.84 388.796 l
354.72 388.796 l
354.72 388.8 l
369.6 388.8 l
369.6 388.8 l
384.48 388.8 l
384.48 388.8 l
399.36 388.8 l
399.36 388.8 l
414.24 388.8 l
414.24 388.8 l
429.12 388.8 l
429.12 388.8 l
444 388.8 l
444 388.8 l
458.88 388.8 l
458.88 388.8 l
473.76 388.8 l
473.76 388.8 l
488.64 388.8 l
488.64 388.8 l
503.52 388.8 l
503.52 388.8 l
518.4 388.8 l
518.4 388.8 l
533.28 388.8 l
stroke
grestore
0.114 0.569 0.753 setrgbcolor
gsave
446.4 345.6 72 43.2 clipbox
72 43.2 m
72 43.2 l
86.88 43.2 l
86.88 43.2 l
101.76 43.2 l
101.76 43.2 l
116.64 43.2 l
116.64 43.2 l
131.52 43.2 l
131.52 43.2 l
146.4 43.2 l
146.4 43.2063 l
161.28 43.2063 l
161.28 43.5767 l
176.16 43.5767 l
176.16 49.161 l
191.04 49.161 l
191.04 79.6317 l
205.92 79.6317 l
205.92 155.209 l
220.8 155.209 l
220.8 254.729 l
235.68 254.729 l
235.68 332.424 l
250.56 332.424 l
250.56 371.426 l
265.44 371.426 l
265.44 384.81 l
280.32 384.81 l
280.32 388.103 l
295.2 388.103 l
295.2 388.705 l
310.08 388.705 l
310.08 388.79 l
324.96 388.79 l
324.96 388.799 l
339.84 388.799 l
339.84 388.8 l
354.72 388.8 l
354.72 388.8 l
369.6 388.8 l
369.6 388.8 l
384.48 388.8 l
384.48 388.8 l
399.36 388.8 l
399.36 388.8 l
414.24 388.8 l
414.24 388.8 l
429.12 388.8 l
429.12 388.8 l
444 388.8 l
444 388.8 l
458.88 388.8 l
458.88 388.8 l
473.76 388.8 l
473.76 388.8 l
488.64 388.8 l
488.64 388.8 l
503.52 388.8 l
503.52 388.8 l
518.4 388.8 l
518.4 388.8 l
533.28 388.8 l
stroke
grestore
0.498 0.804 0.733 setrgbcolor
gsave
446.4 345.6 72 43.2 clipbox
72 43.2 m
72 43.2 l
86.88 43.2 l
86.88 43.2 l
101.76 43.2 l
101.76 43.2 l
116.64 43.2 l
116.64 43.2001 l
131.52 43.2001 l
131.52 43.2393 l
146.4 43.2393 l
146.4 45.2716 l
161.28 45.2716 l
161.28 66.5958 l
176.16 66.5958 l
176.16 139.765 l
191.04 139.765 l
191.04 249.046 l
205.92 249.046 l
205.92 334.442 l
220.8 334.442 l
220.8 374.018 l
235.68 374.018 l
235.68 385.908 l
250.56 385.908 l
250.56 388.38 l
265.44 388.38 l
265.44 388.753 l
280.32 388.753 l
280.32 388.796 l
295.2 388.796 l
295.2 388.8 l
310.08 388.8 l
310.08 388.8 l
324.96 388.8 l
324.96 388.8 l
339.84 388.8 l
339.84 388.8 l
354.72 388.8 l
354.72 388.8 l
369.6 388.8 l
369.6 388.8 l
384.48 388.8 l
384.48 388.8 l
399.36 388.8 l
399.36 388.8 l
414.24 388.8 l
414.24 388.8 l
429.12 388.8 l
429.12 388.8 l
444 388.8 l
444 388.8 l
458.88 388.8 l
458.88 388.8 l
473.76 388.8 l
473.76 388.8 l
488.64 388.8 l
488.64 388.8 l
503.52 388.8 l
503.52 388.8 l
518.4 388.8 l
518.4 388.8 l
533.28 388.8 l
stroke
grestore
0.780 0.914 0.706 setrgbcolor
gsave
446.4 345.6 72 43.2 clipbox
72 43.2 m
72 43.2 l
86.88 43.2 l
86.88 43.3247 l
101.76 43.3247 l
101.76 83.4349 l
116.64 83.4349 l
116.64 248.141 l
131.52 248.141 l
131.52 358.434 l
146.4 358.434 l
146.4 385.176 l
161.28 385.176 l
161.28 388.524 l
176.16 388.524 l
176.16 388.785 l
191.04 388.785 l
191.04 388.799 l
205.92 388.799 l
205.92 388.8 l
220.8 388.8 l
220.8 388.8 l
235.68 388.8 l
235.68 388.8 l
250.56 388.8 l
250.56 388.8 l
265.44 388.8 l
265.44 388.8 l
280.32 388.8 l
280.32 388.8 l
295.2 388.8 l
295.2 388.8 l
310.08 388.8 l
310.08 388.8 l
324.96 388.8 l
324.96 388.8 l
339.84 388.8 l
339.84 388.8 l
354.72 388.8 l
354.72 388.8 l
369.6 388.8 l
369.6 388.8 l
384.48 388.8 l
384.48 388.8 l
399.36 388.8 l
399.36 388.8 l
414.24 388.8 l
414.24 388.8 l
429.12 388.8 l
429.12 388.8 l
444 388.8 l
444 388.8 l
458.88 388.8 l
458.88 388.8 l
473.76 388.8 l
473.76 388.8 l
488.64 388.8 l
488.64 388.8 l
503.52 388.8 l
503.52 388.8 l
518.4 388.8 l
518.4 388.8 l
533.28 388.8 l
stroke
grestore
0.500 setlinewidth
0 setlinecap
0.000 setgray
gsave
/o {
gsave
newpath
translate
0.5 setlinewidth
1 setlinejoin
0 setlinecap
0 0 m
0 4 l
gsave
0.000 setgray
fill
grestore
stroke
grestore
} bind def
72 43.2 o
grestore
gsave
/o {
gsave
newpath
translate
0.5 setlinewidth
1 setlinejoin
0 setlinecap
0 0 m
0 -4 l
gsave
0.000 setgray
fill
grestore
stroke
grestore
} bind def
72 388.8 o
grestore
/DejaVuSans findfont
14.000 scalefont
setfont
gsave
57.335938 28.606250 translate
0.000000 rotate
0.000000 0.203125 m /zero glyphshow
8.907227 0.203125 m /period glyphshow
13.357422 0.203125 m /zero glyphshow
22.264648 0.203125 m /zero glyphshow
grestore
gsave
/o {
gsave
newpath
translate
0.5 setlinewidth
1 setlinejoin
0 setlinecap
0 0 m
0 4 l
gsave
0.000 setgray
fill
grestore
stroke
grestore
} bind def
146.4 43.2 o
grestore
gsave
/o {
gsave
newpath
translate
0.5 setlinewidth
1 setlinejoin
0 setlinecap
0 0 m
0 -4 l
gsave
0.000 setgray
fill
grestore
stroke
grestore
} bind def
146.4 388.8 o
grestore
gsave
131.884375 28.606250 translate
0.000000 rotate
0.000000 0.203125 m /zero glyphshow
8.907227 0.203125 m /period glyphshow
13.357422 0.203125 m /zero glyphshow
22.264648 0.203125 m /five glyphshow
grestore
gsave
/o {
gsave
newpath
translate
0.5 setlinewidth
1 setlinejoin
0 setlinecap
0 0 m
0 4 l
gsave
0.000 setgray
fill
grestore
stroke
grestore
} bind def
220.8 43.2 o
grestore
gsave
/o {
gsave
newpath
translate
0.5 setlinewidth
1 setlinejoin
0 setlinecap
0 0 m
0 -4 l
gsave
0.000 setgray
fill
grestore
stroke
grestore
} bind def
220.8 388.8 o
grestore
gsave
206.135938 28.606250 translate
0.000000 rotate
0.000000 0.203125 m /zero glyphshow
8.907227 0.203125 m /period glyphshow
13.357422 0.203125 m /one glyphshow
22.264648 0.203125 m /zero glyphshow
grestore
gsave
/o {
gsave
newpath
translate
0.5 setlinewidth
1 setlinejoin
0 setlinecap
0 0 m
0 4 l
gsave
0.000 setgray
fill
grestore
stroke
grestore
} bind def
295.2 43.2 o
grestore
gsave
/o {
gsave
newpath
translate
0.5 setlinewidth
1 setlinejoin
0 setlinecap
0 0 m
0 -4 l
gsave
0.000 setgray
fill
grestore
stroke
grestore
} bind def
295.2 388.8 o
grestore
gsave
280.684375 28.606250 translate
0.000000 rotate
0.000000 0.203125 m /zero glyphshow
8.907227 0.203125 m /period glyphshow
13.357422 0.203125 m /one glyphshow
22.264648 0.203125 m /five glyphshow
grestore
gsave
/o {
gsave
newpath
translate
0.5 setlinewidth
1 setlinejoin
0 setlinecap
0 0 m
0 4 l
gsave
0.000 setgray
fill
grestore
stroke
grestore
} bind def
369.6 43.2 o
grestore
gsave
/o {
gsave
newpath
translate
0.5 setlinewidth
1 setlinejoin
0 setlinecap
0 0 m
0 -4 l
gsave
0.000 setgray
fill
grestore
stroke
grestore
} bind def
369.6 388.8 o
grestore
gsave
354.935938 28.606250 translate
0.000000 rotate
0.000000 0.203125 m /zero glyphshow
8.907227 0.203125 m /period glyphshow
13.357422 0.203125 m /two glyphshow
22.264648 0.203125 m /zero glyphshow
grestore
gsave
/o {
gsave
newpath
translate
0.5 setlinewidth
1 setlinejoin
0 setlinecap
0 0 m
0 4 l
gsave
0.000 setgray
fill
grestore
stroke
grestore
} bind def
444 43.2 o
grestore
gsave
/o {
gsave
newpath
translate
0.5 setlinewidth
1 setlinejoin
0 setlinecap
0 0 m
0 -4 l
gsave
0.000 setgray
fill
grestore
stroke
grestore
} bind def
444 388.8 o
grestore
gsave
429.484375 28.606250 translate
0.000000 rotate
0.000000 0.203125 m /zero glyphshow
8.907227 0.203125 m /period glyphshow
13.357422 0.203125 m /two glyphshow
22.264648 0.203125 m /five glyphshow
grestore
gsave
257.832812 12.762500 translate
0.000000 rotate
0.000000 0.203125 m /P glyphshow
8.192383 0.203125 m /r glyphshow
13.698242 0.203125 m /e glyphshow
22.311523 0.203125 m /v glyphshow
30.596680 0.203125 m /a glyphshow
39.175781 0.203125 m /l glyphshow
43.065430 0.203125 m /e glyphshow
51.678711 0.203125 m /n glyphshow
60.551758 0.203125 m /c glyphshow
68.249023 0.203125 m /e glyphshow
grestore
gsave
/o {
gsave
newpath
translate
0.5 setlinewidth
1 setlinejoin
0 setlinecap
0 0 m
4 0 l
gsave
0.000 setgray
fill
grestore
stroke
grestore
} bind def
72 43.2 o
grestore
gsave
/o {
gsave
newpath
translate
0.5 setlinewidth
1 setlinejoin
0 setlinecap
0 0 m
-4 0 l
gsave
0.000 setgray
fill
grestore
stroke
grestore
} bind def
518.4 43.2 o
grestore
gsave
47.578125 37.903125 translate
0.000000 rotate
0.000000 0.203125 m /zero glyphshow
8.907227 0.203125 m /period glyphshow
13.357422 0.203125 m /zero glyphshow
grestore
gsave
/o {
gsave
newpath
translate
0.5 setlinewidth
1 setlinejoin
0 setlinecap
0 0 m
4 0 l
gsave
0.000 setgray
fill
grestore
stroke
grestore
} bind def
72 112.32 o
grestore
gsave
/o {
gsave
newpath
translate
0.5 setlinewidth
1 setlinejoin
0 setlinecap
0 0 m
-4 0 l
gsave
0.000 setgray
fill
grestore
stroke
grestore
} bind def
518.4 112.32 o
grestore
gsave
48.062500 107.023125 translate
0.000000 rotate
0.000000 0.203125 m /zero glyphshow
8.907227 0.203125 m /period glyphshow
13.357422 0.203125 m /two glyphshow
grestore
gsave
/o {
gsave
newpath
translate
0.5 setlinewidth
1 setlinejoin
0 setlinecap
0 0 m
4 0 l
gsave
0.000 setgray
fill
grestore
stroke
grestore
} bind def
72 181.44 o
grestore
gsave
/o {
gsave
newpath
translate
0.5 setlinewidth
1 setlinejoin
0 setlinecap
0 0 m
-4 0 l
gsave
0.000 setgray
fill
grestore
stroke
grestore
} bind def
518.4 181.44 o
grestore
gsave
47.437500 176.143125 translate
0.000000 rotate
0.000000 0.203125 m /zero glyphshow
8.907227 0.203125 m /period glyphshow
13.357422 0.203125 m /four glyphshow
grestore
gsave
/o {
gsave
newpath
translate
0.5 setlinewidth
1 setlinejoin
0 setlinecap
0 0 m
4 0 l
gsave
0.000 setgray
fill
grestore
stroke
grestore
} bind def
72 250.56 o
grestore
gsave
/o {
gsave
newpath
translate
0.5 setlinewidth
1 setlinejoin
0 setlinecap
0 0 m
-4 0 l
gsave
0.000 setgray
fill
grestore
stroke
grestore
} bind def
518.4 250.56 o
grestore
gsave
47.531250 245.263125 translate
0.000000 rotate
0.000000 0.203125 m /zero glyphshow
8.907227 0.203125 m /period glyphshow
13.357422 0.203125 m /six glyphshow
grestore
gsave
/o {
gsave
newpath
translate
0.5 setlinewidth
1 setlinejoin
0 setlinecap
0 0 m
4 0 l
gsave
0.000 setgray
fill
grestore
stroke
grestore
} bind def
72 319.68 o
grestore
gsave
/o {
gsave
newpath
translate
0.5 setlinewidth
1 setlinejoin
0 setlinecap
0 0 m
-4 0 l
gsave
0.000 setgray
fill
grestore
stroke
grestore
} bind def
518.4 319.68 o
grestore
gsave
47.609375 314.383125 translate
0.000000 rotate
0.000000 0.203125 m /zero glyphshow
8.907227 0.203125 m /period glyphshow
13.357422 0.203125 m /eight glyphshow
grestore
gsave
/o {
gsave
newpath
translate
0.5 setlinewidth
1 setlinejoin
0 setlinecap
0 0 m
4 0 l
gsave
0.000 setgray
fill
grestore
stroke
grestore
} bind def
72 388.8 o
grestore
gsave
/o {
gsave
newpath
translate
0.5 setlinewidth
1 setlinejoin
0 setlinecap
0 0 m
-4 0 l
gsave
0.000 setgray
fill
grestore
stroke
grestore
} bind def
518.4 388.8 o
grestore
gsave
48.203125 383.503125 translate
0.000000 rotate
0.000000 0.203125 m /one glyphshow
8.907227 0.203125 m /period glyphshow
13.357422 0.203125 m /zero glyphshow
grestore
gsave
42.437500 201.500000 translate
90.000000 rotate
0.000000 0.203125 m /P glyphshow
8.192383 0.203125 m /r glyphshow
13.698242 0.203125 m /o glyphshow
22.263672 0.203125 m /b glyphshow
grestore
1.000 setlinewidth
2 setlinecap
gsave
72 388.8 m
518.4 388.8 l
stroke
grestore
gsave
518.4 43.2 m
518.4 388.8 l
stroke
grestore
gsave
72 43.2 m
518.4 43.2 l
stroke
grestore
gsave
72 43.2 m
72 388.8 l
stroke
grestore
gsave
400.598 51.6 m
510 51.6 l
510 179.609 l
400.598 179.609 l
400.598 51.6 l
cl
gsave
1.000 setgray
fill
grestore
stroke
grestore
3.000 setlinewidth
0.031 0.114 0.345 setrgbcolor
gsave
412.358 165.847 m
435.878 165.847 l
stroke
grestore
0.000 setgray
/DejaVuSans findfont
16.800 scalefont
setfont
gsave
454.358125 157.732500 translate
0.000000 rotate
0.000000 2.234375 m /one glyphshow
10.686676 2.234375 m /space glyphshow
16.025909 2.234375 m /parenleft glyphshow
22.578979 2.234375 m /nine glyphshow
33.265656 2.234375 m /two glyphshow
43.952332 2.234375 m /parenright glyphshow
grestore
0.133 0.369 0.659 setrgbcolor
gsave
412.358 140.994 m
435.878 140.994 l
stroke
grestore
0.000 setgray
gsave
454.358125 132.879375 translate
0.000000 rotate
0.000000 2.234375 m /two glyphshow
10.686676 2.234375 m /space glyphshow
16.025909 2.234375 m /parenleft glyphshow
22.578979 2.234375 m /five glyphshow
33.265656 2.234375 m /three glyphshow
43.952332 2.234375 m /parenright glyphshow
grestore
0.114 0.569 0.753 setrgbcolor
gsave
412.358 116.141 m
435.878 116.141 l
stroke
grestore
0.000 setgray
gsave
454.358125 108.026250 translate
0.000000 rotate
0.000000 2.234375 m /three glyphshow
10.686676 2.234375 m /space glyphshow
16.025909 2.234375 m /parenleft glyphshow
22.578979 2.234375 m /four glyphshow
33.265656 2.234375 m /seven glyphshow
43.952332 2.234375 m /parenright glyphshow
grestore
0.498 0.804 0.733 setrgbcolor
gsave
412.358 91.2875 m
435.878 91.2875 l
stroke
grestore
0.000 setgray
gsave
454.358125 83.173125 translate
0.000000 rotate
0.000000 2.234375 m /four glyphshow
10.686676 2.234375 m /space glyphshow
16.025909 2.234375 m /parenleft glyphshow
22.578979 2.234375 m /three glyphshow
33.265656 2.234375 m /eight glyphshow
43.952332 2.234375 m /parenright glyphshow
grestore
0.780 0.914 0.706 setrgbcolor
gsave
412.358 66.4344 m
435.878 66.4344 l
stroke
grestore
0.000 setgray
gsave
454.358125 58.320000 translate
0.000000 rotate
0.000000 2.234375 m /five glyphshow
10.686676 2.234375 m /space glyphshow
16.025909 2.234375 m /parenleft glyphshow
22.578979 2.234375 m /one glyphshow
33.265656 2.234375 m /five glyphshow
43.952332 2.234375 m /parenright glyphshow
grestore

end
showpage
