%!PS-Adobe-3.0 EPSF-3.0
%%Title: species-rare-B1242.eps
%%Creator: matplotlib version 1.2.1, http://matplotlib.org/
%%CreationDate: Fri Jun  7 11:32:33 2013
%%Orientation: portrait
%%BoundingBox: 18 180 594 612
%%EndComments
%%BeginProlog
/mpldict 8 dict def
mpldict begin
/m { moveto } bind def
/l { lineto } bind def
/r { rlineto } bind def
/c { curveto } bind def
/cl { closepath } bind def
/box {
m
1 index 0 r
0 exch r
neg 0 r
cl
} bind def
/clipbox {
box
clip
newpath
} bind def
%!PS-Adobe-3.0 Resource-Font
%%Title: DejaVu Sans
%%Copyright: Copyright (c) 2003 by Bitstream, Inc. All Rights Reserved. Copyright (c) 2006 by Tavmjong Bah. All Rights Reserved. DejaVu changes are in public domain 
%%Creator: Converted from TrueType to type 3 by PPR
25 dict begin
/_d{bind def}bind def
/_m{moveto}_d
/_l{lineto}_d
/_cl{closepath eofill}_d
/_c{curveto}_d
/_sc{7 -1 roll{setcachedevice}{pop pop pop pop pop pop}ifelse}_d
/_e{exec}_d
/FontName /DejaVuSans def
/PaintType 0 def
/FontMatrix[.001 0 0 .001 0 0]def
/FontBBox[-1021 -415 1681 1167]def
/FontType 3 def
/Encoding [ /space /numbersign /zero /one /two /three /four /five /six /eight /a /c /e /i /l /m /p /s /minus ] def
/FontInfo 10 dict dup begin
/FamilyName (DejaVu Sans) def
/FullName (DejaVu Sans) def
/Notice (Copyright (c) 2003 by Bitstream, Inc. All Rights Reserved. Copyright (c) 2006 by Tavmjong Bah. All Rights Reserved. DejaVu changes are in public domain ) def
/Weight (Book) def
/Version (Version 2.33) def
/ItalicAngle 0.0 def
/isFixedPitch false def
/UnderlinePosition -130 def
/UnderlineThickness 90 def
end readonly def
/CharStrings 19 dict dup begin
/space{318 0 0 0 0 0 _sc
}_d
/numbersign{{838 0 77 0 761 718 _sc
511 440 _m
369 440 _l
328 277 _l
471 277 _l
511 440 _l
438 718 _m
387 515 _l
530 515 _l
581 718 _l
659 718 _l
609 515 _l
761 515 _l
761 440 _l
590 440 _l
550 277 _l
705 277 _l
705 202 _l
531 202 _l
480 0 _l
402 0 _l
452 202 _l
309 202 _l
259 0 _l
180 0 _l
231 202 _l
77 202 _l
77 277 _l
249 277 _l
290 440 _l
133 440 _l
}_e{133 515 _l
309 515 _l
359 718 _l
438 718 _l
_cl}_e}_d
/zero{636 0 66 -13 570 742 _sc
318 664 _m
267 664 229 639 203 589 _c
177 539 165 464 165 364 _c
165 264 177 189 203 139 _c
229 89 267 64 318 64 _c
369 64 407 89 433 139 _c
458 189 471 264 471 364 _c
471 464 458 539 433 589 _c
407 639 369 664 318 664 _c
318 742 _m
399 742 461 709 505 645 _c
548 580 570 486 570 364 _c
570 241 548 147 505 83 _c
461 19 399 -13 318 -13 _c
236 -13 173 19 130 83 _c
87 147 66 241 66 364 _c
66 486 87 580 130 645 _c
173 709 236 742 318 742 _c
_cl}_d
/one{636 0 110 0 544 729 _sc
124 83 _m
285 83 _l
285 639 _l
110 604 _l
110 694 _l
284 729 _l
383 729 _l
383 83 _l
544 83 _l
544 0 _l
124 0 _l
124 83 _l
_cl}_d
/two{{636 0 73 0 536 742 _sc
192 83 _m
536 83 _l
536 0 _l
73 0 _l
73 83 _l
110 121 161 173 226 239 _c
290 304 331 346 348 365 _c
380 400 402 430 414 455 _c
426 479 433 504 433 528 _c
433 566 419 598 392 622 _c
365 646 330 659 286 659 _c
255 659 222 653 188 643 _c
154 632 117 616 78 594 _c
78 694 _l
118 710 155 722 189 730 _c
223 738 255 742 284 742 _c
}_e{359 742 419 723 464 685 _c
509 647 532 597 532 534 _c
532 504 526 475 515 449 _c
504 422 484 390 454 354 _c
446 344 420 317 376 272 _c
332 227 271 164 192 83 _c
_cl}_e}_d
/three{{636 0 76 -13 556 742 _sc
406 393 _m
453 383 490 362 516 330 _c
542 298 556 258 556 212 _c
556 140 531 84 482 45 _c
432 6 362 -13 271 -13 _c
240 -13 208 -10 176 -4 _c
144 1 110 10 76 22 _c
76 117 _l
103 101 133 89 166 81 _c
198 73 232 69 268 69 _c
330 69 377 81 409 105 _c
441 129 458 165 458 212 _c
458 254 443 288 413 312 _c
383 336 341 349 287 349 _c
}_e{202 349 _l
202 430 _l
291 430 _l
339 430 376 439 402 459 _c
428 478 441 506 441 543 _c
441 580 427 609 401 629 _c
374 649 336 659 287 659 _c
260 659 231 656 200 650 _c
169 644 135 635 98 623 _c
98 711 _l
135 721 170 729 203 734 _c
235 739 266 742 296 742 _c
370 742 429 725 473 691 _c
517 657 539 611 539 553 _c
539 513 527 479 504 451 _c
481 423 448 403 406 393 _c
_cl}_e}_d
/four{636 0 49 0 580 729 _sc
378 643 _m
129 254 _l
378 254 _l
378 643 _l
352 729 _m
476 729 _l
476 254 _l
580 254 _l
580 172 _l
476 172 _l
476 0 _l
378 0 _l
378 172 _l
49 172 _l
49 267 _l
352 729 _l
_cl}_d
/five{{636 0 77 -13 549 729 _sc
108 729 _m
495 729 _l
495 646 _l
198 646 _l
198 467 _l
212 472 227 476 241 478 _c
255 480 270 482 284 482 _c
365 482 429 459 477 415 _c
525 370 549 310 549 234 _c
549 155 524 94 475 51 _c
426 8 357 -13 269 -13 _c
238 -13 207 -10 175 -6 _c
143 -1 111 6 77 17 _c
77 116 _l
106 100 136 88 168 80 _c
199 72 232 69 267 69 _c
}_e{323 69 368 83 401 113 _c
433 143 450 183 450 234 _c
450 284 433 324 401 354 _c
368 384 323 399 267 399 _c
241 399 214 396 188 390 _c
162 384 135 375 108 363 _c
108 729 _l
_cl}_e}_d
/six{{636 0 70 -13 573 742 _sc
330 404 _m
286 404 251 388 225 358 _c
199 328 186 286 186 234 _c
186 181 199 139 225 109 _c
251 79 286 64 330 64 _c
374 64 409 79 435 109 _c
461 139 474 181 474 234 _c
474 286 461 328 435 358 _c
409 388 374 404 330 404 _c
526 713 _m
526 623 _l
501 635 476 644 451 650 _c
425 656 400 659 376 659 _c
310 659 260 637 226 593 _c
}_e{192 549 172 482 168 394 _c
187 422 211 444 240 459 _c
269 474 301 482 336 482 _c
409 482 467 459 509 415 _c
551 371 573 310 573 234 _c
573 159 550 99 506 54 _c
462 9 403 -13 330 -13 _c
246 -13 181 19 137 83 _c
92 147 70 241 70 364 _c
70 479 97 571 152 639 _c
206 707 280 742 372 742 _c
396 742 421 739 447 735 _c
472 730 498 723 526 713 _c
_cl}_e}_d
/eight{{636 0 68 -13 568 742 _sc
318 346 _m
271 346 234 333 207 308 _c
180 283 167 249 167 205 _c
167 161 180 126 207 101 _c
234 76 271 64 318 64 _c
364 64 401 76 428 102 _c
455 127 469 161 469 205 _c
469 249 455 283 429 308 _c
402 333 365 346 318 346 _c
219 388 _m
177 398 144 418 120 447 _c
96 476 85 511 85 553 _c
85 611 105 657 147 691 _c
188 725 245 742 318 742 _c
}_e{390 742 447 725 489 691 _c
530 657 551 611 551 553 _c
551 511 539 476 515 447 _c
491 418 459 398 417 388 _c
464 377 501 355 528 323 _c
554 291 568 251 568 205 _c
568 134 546 80 503 43 _c
459 5 398 -13 318 -13 _c
237 -13 175 5 132 43 _c
89 80 68 134 68 205 _c
68 251 81 291 108 323 _c
134 355 171 377 219 388 _c
183 544 _m
183 506 194 476 218 455 _c
}_e{242 434 275 424 318 424 _c
360 424 393 434 417 455 _c
441 476 453 506 453 544 _c
453 582 441 611 417 632 _c
393 653 360 664 318 664 _c
275 664 242 653 218 632 _c
194 611 183 582 183 544 _c
_cl}_e}_d
/a{{613 0 60 -13 522 560 _sc
343 275 _m
270 275 220 266 192 250 _c
164 233 150 205 150 165 _c
150 133 160 107 181 89 _c
202 70 231 61 267 61 _c
317 61 357 78 387 114 _c
417 149 432 196 432 255 _c
432 275 _l
343 275 _l
522 312 _m
522 0 _l
432 0 _l
432 83 _l
411 49 385 25 355 10 _c
325 -5 287 -13 243 -13 _c
187 -13 142 2 109 33 _c
76 64 60 106 60 159 _c
}_e{60 220 80 266 122 298 _c
163 329 224 345 306 345 _c
432 345 _l
432 354 _l
432 395 418 427 391 450 _c
364 472 326 484 277 484 _c
245 484 215 480 185 472 _c
155 464 127 453 100 439 _c
100 522 _l
132 534 164 544 195 550 _c
226 556 256 560 286 560 _c
365 560 424 539 463 498 _c
502 457 522 395 522 312 _c
_cl}_e}_d
/c{{550 0 55 -13 488 560 _sc
488 526 _m
488 442 _l
462 456 437 466 411 473 _c
385 480 360 484 334 484 _c
276 484 230 465 198 428 _c
166 391 150 339 150 273 _c
150 206 166 154 198 117 _c
230 80 276 62 334 62 _c
360 62 385 65 411 72 _c
437 79 462 90 488 104 _c
488 21 _l
462 9 436 0 410 -5 _c
383 -10 354 -13 324 -13 _c
242 -13 176 12 128 64 _c
}_e{79 115 55 185 55 273 _c
55 362 79 432 128 483 _c
177 534 244 560 330 560 _c
358 560 385 557 411 551 _c
437 545 463 537 488 526 _c
_cl}_e}_d
/e{{615 0 55 -13 562 560 _sc
562 296 _m
562 252 _l
149 252 _l
153 190 171 142 205 110 _c
238 78 284 62 344 62 _c
378 62 412 66 444 74 _c
476 82 509 95 541 113 _c
541 28 _l
509 14 476 3 442 -3 _c
408 -9 373 -13 339 -13 _c
251 -13 182 12 131 62 _c
80 112 55 181 55 268 _c
55 357 79 428 127 481 _c
175 533 241 560 323 560 _c
397 560 455 536 498 489 _c
}_e{540 441 562 377 562 296 _c
472 322 _m
471 371 457 410 431 440 _c
404 469 368 484 324 484 _c
274 484 234 469 204 441 _c
174 413 156 373 152 322 _c
472 322 _l
_cl}_e}_d
/i{278 0 94 0 184 760 _sc
94 547 _m
184 547 _l
184 0 _l
94 0 _l
94 547 _l
94 760 _m
184 760 _l
184 646 _l
94 646 _l
94 760 _l
_cl}_d
/l{278 0 94 0 184 760 _sc
94 760 _m
184 760 _l
184 0 _l
94 0 _l
94 760 _l
_cl}_d
/m{{974 0 91 0 889 560 _sc
520 442 _m
542 482 569 511 600 531 _c
631 550 668 560 711 560 _c
767 560 811 540 842 500 _c
873 460 889 403 889 330 _c
889 0 _l
799 0 _l
799 327 _l
799 379 789 418 771 444 _c
752 469 724 482 686 482 _c
639 482 602 466 575 435 _c
548 404 535 362 535 309 _c
535 0 _l
445 0 _l
445 327 _l
445 379 435 418 417 444 _c
398 469 369 482 331 482 _c
}_e{285 482 248 466 221 435 _c
194 404 181 362 181 309 _c
181 0 _l
91 0 _l
91 547 _l
181 547 _l
181 462 _l
201 495 226 520 255 536 _c
283 552 317 560 357 560 _c
397 560 430 550 458 530 _c
486 510 506 480 520 442 _c
_cl}_e}_d
/p{{635 0 91 -207 580 560 _sc
181 82 _m
181 -207 _l
91 -207 _l
91 547 _l
181 547 _l
181 464 _l
199 496 223 520 252 536 _c
281 552 316 560 356 560 _c
422 560 476 533 518 481 _c
559 428 580 359 580 273 _c
580 187 559 117 518 65 _c
476 13 422 -13 356 -13 _c
316 -13 281 -5 252 10 _c
223 25 199 49 181 82 _c
487 273 _m
487 339 473 390 446 428 _c
418 466 381 485 334 485 _c
}_e{286 485 249 466 222 428 _c
194 390 181 339 181 273 _c
181 207 194 155 222 117 _c
249 79 286 61 334 61 _c
381 61 418 79 446 117 _c
473 155 487 207 487 273 _c
_cl}_e}_d
/s{{521 0 54 -13 472 560 _sc
443 531 _m
443 446 _l
417 458 391 468 364 475 _c
336 481 308 485 279 485 _c
234 485 200 478 178 464 _c
156 450 145 430 145 403 _c
145 382 153 366 169 354 _c
185 342 217 330 265 320 _c
296 313 _l
360 299 405 279 432 255 _c
458 230 472 195 472 151 _c
472 100 452 60 412 31 _c
372 1 316 -13 246 -13 _c
216 -13 186 -10 154 -5 _c
}_e{122 0 89 8 54 20 _c
54 113 _l
87 95 120 82 152 74 _c
184 65 216 61 248 61 _c
290 61 323 68 346 82 _c
368 96 380 117 380 144 _c
380 168 371 187 355 200 _c
339 213 303 226 247 238 _c
216 245 _l
160 257 119 275 95 299 _c
70 323 58 356 58 399 _c
58 450 76 490 112 518 _c
148 546 200 560 268 560 _c
301 560 332 557 362 552 _c
391 547 418 540 443 531 _c
}_e{_cl}_e}_d
/minus{838 0 106 272 732 355 _sc
106 355 _m
732 355 _l
732 272 _l
106 272 _l
106 355 _l
_cl}_d
end readonly def

/BuildGlyph
 {exch begin
 CharStrings exch
 2 copy known not{pop /.notdef}if
 true 3 1 roll get exec
 end}_d

/BuildChar {
 1 index /Encoding get exch get
 1 index /BuildGlyph get exec
}_d

FontName currentdict end definefont pop
end
%%EndProlog
mpldict begin
18 180 translate
576 432 0 0 clipbox
gsave
0 0 m
576 0 l
576 432 l
0 432 l
cl
1.000 setgray
fill
grestore
gsave
72 43.2 m
518.4 43.2 l
518.4 388.8 l
72 388.8 l
cl
1.000 setgray
fill
grestore
0.500 setlinewidth
1 setlinejoin
2 setlinecap
[] 0 setdash
0.133 0.369 0.659 setrgbcolor
gsave
446.4 345.6 72 43.2 clipbox
72.6944 92.16 m
98.4864 92.16 l
99.4784 120.96 l
152.054 120.96 l
153.046 149.76 l
192.726 149.76 l
193.718 178.56 l
198.678 178.56 l
199.67 207.36 l
218.518 207.36 l
219.51 236.16 l
341.526 236.16 l
342.518 264.96 l
396.086 264.96 l
397.078 293.76 l
444.694 293.76 l
445.686 322.56 l
468.502 322.56 l
468.502 322.56 l
stroke
grestore
gsave
446.4 345.6 72 43.2 clipbox
72.7004 92.3345 m
110.396 92.3345 l
111.388 121.135 l
155.036 121.135 l
156.028 149.935 l
272.092 149.935 l
273.084 178.735 l
339.548 178.735 l
340.54 207.535 l
396.092 207.535 l
397.084 236.335 l
406.012 236.335 l
407.996 293.935 l
468.508 293.935 l
468.508 293.935 l
stroke
grestore
gsave
446.4 345.6 72 43.2 clipbox
72.7064 92.5091 m
127.266 92.5091 l
128.258 121.309 l
137.186 121.309 l
138.178 150.109 l
181.826 150.109 l
182.818 178.909 l
468.514 178.909 l
468.514 178.909 l
stroke
grestore
gsave
446.4 345.6 72 43.2 clipbox
72.7124 92.6836 m
99.4964 92.6836 l
100.488 121.484 l
167.944 121.484 l
168.936 150.284 l
201.672 150.284 l
202.664 179.084 l
216.552 179.084 l
217.544 207.884 l
230.44 207.884 l
231.432 236.684 l
314.76 236.684 l
315.752 265.484 l
461.576 265.484 l
462.568 294.284 l
468.52 294.284 l
468.52 294.284 l
stroke
grestore
gsave
446.4 345.6 72 43.2 clipbox
72.7184 92.8582 m
87.5984 92.8582 l
88.5904 121.658 l
124.302 121.658 l
125.294 150.458 l
200.686 150.458 l
201.678 179.258 l
235.406 179.258 l
236.398 208.058 l
362.382 208.058 l
363.374 236.858 l
468.526 236.858 l
468.526 236.858 l
stroke
grestore
gsave
446.4 345.6 72 43.2 clipbox
72.7245 93.0327 m
83.6365 93.0327 l
84.6285 121.833 l
106.452 121.833 l
107.444 150.633 l
199.7 150.633 l
200.692 179.433 l
254.26 179.433 l
255.252 208.233 l
374.292 208.233 l
375.284 237.033 l
386.196 237.033 l
387.188 265.833 l
468.532 265.833 l
468.532 265.833 l
stroke
grestore
gsave
446.4 345.6 72 43.2 clipbox
72.7305 93.2073 m
91.5785 93.2073 l
92.5705 122.007 l
104.474 122.007 l
105.466 150.807 l
122.33 150.807 l
123.322 179.607 l
149.114 179.607 l
150.106 208.407 l
255.258 208.407 l
256.25 237.207 l
264.186 237.207 l
265.178 266.007 l
274.106 266.007 l
275.098 294.807 l
350.49 294.807 l
351.482 323.607 l
453.658 323.607 l
454.65 352.407 l
468.538 352.407 l
468.538 352.407 l
stroke
grestore
gsave
446.4 345.6 72 43.2 clipbox
72.7365 93.3818 m
128.288 93.3818 l
129.28 122.182 l
156.064 122.182 l
157.056 150.982 l
200.704 150.982 l
201.696 179.782 l
227.488 179.782 l
228.48 208.582 l
256.256 208.582 l
257.248 237.382 l
301.888 237.382 l
302.88 266.182 l
425.888 266.182 l
426.88 294.982 l
468.544 294.982 l
468.544 294.982 l
stroke
grestore
gsave
446.4 345.6 72 43.2 clipbox
72.7425 93.5564 m
99.5265 93.5564 l
100.518 122.356 l
104.486 122.356 l
105.478 151.156 l
109.446 151.156 l
110.438 179.956 l
128.294 179.956 l
129.286 208.756 l
147.142 208.756 l
148.134 237.556 l
260.23 237.556 l
261.222 266.356 l
305.862 266.356 l
306.854 295.156 l
374.31 295.156 l
375.302 323.956 l
410.022 323.956 l
411.014 352.756 l
451.686 352.756 l
452.678 381.556 l
468.55 381.556 l
468.55 381.556 l
stroke
grestore
gsave
446.4 345.6 72 43.2 clipbox
72.7485 93.7309 m
78.7005 93.7309 l
79.6925 122.531 l
227.501 122.531 l
228.493 151.331 l
295.949 151.331 l
296.941 180.131 l
330.669 180.131 l
331.661 208.931 l
447.725 208.931 l
448.717 237.731 l
468.557 237.731 l
468.557 237.731 l
stroke
grestore
gsave
446.4 345.6 72 43.2 clipbox
72.7545 93.9055 m
155.091 93.9055 l
156.083 122.705 l
468.563 122.705 l
468.563 122.705 l
stroke
grestore
gsave
446.4 345.6 72 43.2 clipbox
72.7605 94.08 m
79.7045 94.08 l
80.6965 122.88 l
150.137 122.88 l
151.129 151.68 l
153.113 151.68 l
154.105 180.48 l
164.025 180.48 l
165.017 209.28 l
329.689 209.28 l
330.681 238.08 l
468.569 238.08 l
468.569 238.08 l
stroke
grestore
gsave
446.4 345.6 72 43.2 clipbox
72.7665 94.2545 m
169.983 94.2545 l
170.975 123.055 l
194.783 123.055 l
195.775 151.855 l
211.647 151.855 l
212.639 180.655 l
241.407 180.655 l
242.399 209.455 l
288.031 209.455 l
289.023 238.255 l
468.575 238.255 l
468.575 238.255 l
stroke
grestore
gsave
446.4 345.6 72 43.2 clipbox
72.7726 94.4291 m
127.333 94.4291 l
128.325 123.229 l
163.045 123.229 l
164.037 152.029 l
297.957 152.029 l
298.949 180.829 l
319.781 180.829 l
320.773 209.629 l
361.445 209.629 l
362.437 238.429 l
468.581 238.429 l
468.581 238.429 l
stroke
grestore
gsave
446.4 345.6 72 43.2 clipbox
72.7786 94.6036 m
84.6826 94.6036 l
85.6746 123.404 l
110.475 123.404 l
111.467 152.204 l
153.131 152.204 l
154.123 181.004 l
265.227 181.004 l
266.219 209.804 l
278.123 209.804 l
279.115 238.604 l
336.651 238.604 l
337.643 267.404 l
464.619 267.404 l
465.611 296.204 l
468.587 296.204 l
468.587 296.204 l
stroke
grestore
gsave
446.4 345.6 72 43.2 clipbox
72.7846 94.7782 m
104.529 94.7782 l
105.521 123.578 l
153.137 123.578 l
154.129 152.378 l
205.713 152.378 l
206.705 181.178 l
240.433 181.178 l
241.425 209.978 l
265.233 209.978 l
266.225 238.778 l
290.033 238.778 l
291.025 267.578 l
307.889 267.578 l
308.881 296.378 l
434.865 296.378 l
435.857 325.178 l
468.593 325.178 l
468.593 325.178 l
stroke
grestore
gsave
446.4 345.6 72 43.2 clipbox
72.7906 94.9527 m
127.351 94.9527 l
128.343 123.753 l
235.479 123.753 l
236.471 152.553 l
388.247 152.553 l
389.239 181.353 l
468.599 181.353 l
468.599 181.353 l
stroke
grestore
gsave
446.4 345.6 72 43.2 clipbox
72.7966 95.1273 m
468.605 95.1273 l
468.605 95.1273 l
stroke
grestore
gsave
446.4 345.6 72 43.2 clipbox
72.8026 95.3018 m
98.5946 95.3018 l
99.5866 124.102 l
107.523 124.102 l
108.515 152.902 l
116.451 152.902 l
117.443 181.702 l
262.275 181.702 l
263.267 210.502 l
272.195 210.502 l
273.187 239.302 l
356.515 239.302 l
357.507 268.102 l
468.611 268.102 l
468.611 268.102 l
stroke
grestore
gsave
446.4 345.6 72 43.2 clipbox
72.8086 95.4764 m
79.7526 95.4764 l
80.7446 124.276 l
219.625 124.276 l
220.617 153.076 l
402.153 153.076 l
403.145 181.876 l
425.961 181.876 l
426.953 210.676 l
468.617 210.676 l
468.617 210.676 l
stroke
grestore
gsave
446.4 345.6 72 43.2 clipbox
72.8146 95.6509 m
87.6946 95.6509 l
88.6866 124.451 l
130.351 124.451 l
131.343 153.251 l
171.023 153.251 l
172.015 182.051 l
239.471 182.051 l
240.463 210.851 l
245.423 210.851 l
246.415 239.651 l
400.175 239.651 l
401.167 268.451 l
464.655 268.451 l
465.647 297.251 l
468.623 297.251 l
468.623 297.251 l
stroke
grestore
gsave
446.4 345.6 72 43.2 clipbox
72.8207 95.8255 m
82.7407 95.8255 l
83.7327 124.625 l
124.405 124.625 l
125.397 153.425 l
241.461 153.425 l
242.453 182.225 l
298.997 182.225 l
299.989 211.025 l
452.757 211.025 l
453.749 239.825 l
468.629 239.825 l
468.629 239.825 l
stroke
grestore
gsave
446.4 345.6 72 43.2 clipbox
72.8267 96 m
135.323 96 l
136.315 124.8 l
141.275 124.8 l
142.267 153.6 l
231.547 153.6 l
232.539 182.4 l
259.323 182.4 l
260.315 211.2 l
280.155 211.2 l
281.147 240 l
349.595 240 l
350.587 268.8 l
415.067 268.8 l
416.059 297.6 l
468.635 297.6 l
468.635 297.6 l
stroke
grestore
gsave
446.4 345.6 72 43.2 clipbox
72.8327 96.1745 m
92.6727 96.1745 l
93.6647 124.975 l
131.361 124.975 l
133.345 182.575 l
175.009 182.575 l
176.001 211.375 l
181.953 211.375 l
182.945 240.175 l
185.921 240.175 l
186.913 268.975 l
267.265 268.975 l
268.257 297.775 l
468.641 297.775 l
468.641 297.775 l
stroke
grestore
gsave
446.4 345.6 72 43.2 clipbox
72.8387 96.3491 m
170.055 96.3491 l
171.047 125.149 l
172.039 125.149 l
173.031 153.949 l
339.687 153.949 l
340.679 182.749 l
468.647 182.749 l
468.647 182.749 l
stroke
grestore
gsave
446.4 345.6 72 43.2 clipbox
72.8447 96.5236 m
156.173 96.5236 l
157.165 125.324 l
425.005 125.324 l
425.997 154.124 l
451.789 154.124 l
452.781 182.924 l
468.653 182.924 l
468.653 182.924 l
stroke
grestore
gsave
446.4 345.6 72 43.2 clipbox
72.8507 96.6982 m
87.7307 96.6982 l
88.7227 125.498 l
93.6827 125.498 l
94.6747 154.298 l
190.899 154.298 l
191.891 183.098 l
226.611 183.098 l
227.603 211.898 l
364.499 211.898 l
365.491 240.698 l
468.659 240.698 l
468.659 240.698 l
stroke
grestore
gsave
446.4 345.6 72 43.2 clipbox
72.8567 96.8727 m
99.6407 96.8727 l
100.633 125.673 l
264.313 125.673 l
265.305 154.473 l
328.793 154.473 l
329.785 183.273 l
333.753 183.273 l
334.745 212.073 l
358.553 212.073 l
359.545 240.873 l
468.665 240.873 l
468.665 240.873 l
stroke
grestore
gsave
446.4 345.6 72 43.2 clipbox
72.8627 97.0473 m
163.135 97.0473 l
164.127 125.847 l
186.943 125.847 l
187.935 154.647 l
216.703 154.647 l
217.695 183.447 l
426.015 183.447 l
427.007 212.247 l
443.871 212.247 l
444.863 241.047 l
468.671 241.047 l
468.671 241.047 l
stroke
grestore
gsave
446.4 345.6 72 43.2 clipbox
72.8688 97.2218 m
80.8048 97.2218 l
81.7968 126.022 l
90.7248 126.022 l
91.7168 154.822 l
112.549 154.822 l
114.533 212.422 l
118.501 212.422 l
119.493 241.222 l
122.469 241.222 l
123.461 270.022 l
140.325 270.022 l
141.317 298.822 l
198.853 298.822 l
199.845 327.622 l
230.597 327.622 l
231.589 356.422 l
468.677 356.422 l
468.677 356.422 l
stroke
grestore
gsave
446.4 345.6 72 43.2 clipbox
72.8748 97.3964 m
79.8188 97.3964 l
80.8108 126.196 l
114.539 126.196 l
115.531 154.996 l
121.483 154.996 l
122.475 183.796 l
132.395 183.796 l
133.387 212.596 l
300.043 212.596 l
301.035 241.396 l
377.419 241.396 l
378.411 270.196 l
434.955 270.196 l
435.947 298.996 l
468.683 298.996 l
468.683 298.996 l
stroke
grestore
gsave
446.4 345.6 72 43.2 clipbox
72.8808 97.5709 m
88.7528 97.5709 l
89.7448 126.371 l
118.513 126.371 l
119.505 155.171 l
152.241 155.171 l
153.233 183.971 l
218.705 183.971 l
219.697 212.771 l
245.489 212.771 l
246.481 241.571 l
257.393 241.571 l
258.385 270.371 l
262.353 270.371 l
263.345 299.171 l
291.121 299.171 l
292.113 327.971 l
330.801 327.971 l
331.793 356.771 l
376.433 356.771 l
377.425 385.571 l
468.689 385.571 l
468.689 385.571 l
stroke
grestore
gsave
446.4 345.6 72 43.2 clipbox
72.8868 97.7455 m
93.7188 97.7455 l
94.7108 126.545 l
106.615 126.545 l
107.607 155.345 l
246.487 155.345 l
247.479 184.145 l
263.351 184.145 l
264.343 212.945 l
468.695 212.945 l
468.695 212.945 l
stroke
grestore
gsave
446.4 345.6 72 43.2 clipbox
72.8928 97.92 m
295.101 97.92 l
296.093 126.72 l
436.957 126.72 l
437.949 155.52 l
468.701 155.52 l
468.701 155.52 l
stroke
grestore
gsave
446.4 345.6 72 43.2 clipbox
72.8988 98.0945 m
85.7948 98.0945 l
86.7868 126.895 l
172.099 126.895 l
173.091 155.695 l
305.027 155.695 l
306.019 184.495 l
429.027 184.495 l
430.019 213.295 l
468.707 213.295 l
468.707 213.295 l
stroke
grestore
gsave
446.4 345.6 72 43.2 clipbox
72.9048 98.2691 m
73.8968 98.2691 l
74.8888 127.069 l
215.753 127.069 l
216.745 155.869 l
468.713 155.869 l
468.713 155.869 l
stroke
grestore
gsave
446.4 345.6 72 43.2 clipbox
72.9108 98.4436 m
224.687 98.4436 l
225.679 127.244 l
468.719 127.244 l
468.719 127.244 l
stroke
grestore
gsave
446.4 345.6 72 43.2 clipbox
72.9168 98.6182 m
104.661 98.6182 l
105.653 127.418 l
468.725 127.418 l
468.725 127.418 l
stroke
grestore
gsave
446.4 345.6 72 43.2 clipbox
72.9229 98.7927 m
136.411 98.7927 l
137.403 127.593 l
146.331 127.593 l
147.323 156.393 l
177.083 156.393 l
178.075 185.193 l
398.299 185.193 l
399.291 213.993 l
400.283 213.993 l
401.275 242.793 l
468.731 242.793 l
468.731 242.793 l
stroke
grestore
gsave
446.4 345.6 72 43.2 clipbox
72.9289 98.9673 m
141.377 98.9673 l
142.369 127.767 l
168.161 127.767 l
169.153 156.567 l
219.745 156.567 l
221.729 214.167 l
400.289 214.167 l
401.281 242.967 l
444.929 242.967 l
445.921 271.767 l
468.737 271.767 l
468.737 271.767 l
stroke
grestore
gsave
446.4 345.6 72 43.2 clipbox
72.9349 99.1418 m
122.535 99.1418 l
123.527 127.942 l
273.319 127.942 l
274.311 156.742 l
300.103 156.742 l
301.095 185.542 l
334.823 185.542 l
335.815 214.342 l
468.743 214.342 l
468.743 214.342 l
stroke
grestore
gsave
446.4 345.6 72 43.2 clipbox
72.9409 99.3164 m
95.7569 99.3164 l
96.7489 128.116 l
112.621 128.116 l
113.613 156.916 l
235.629 156.916 l
236.621 185.716 l
279.277 185.716 l
280.269 214.516 l
358.637 214.516 l
359.629 243.316 l
468.749 243.316 l
468.749 243.316 l
stroke
grestore
gsave
446.4 345.6 72 43.2 clipbox
72.9469 99.4909 m
73.9389 99.4909 l
74.9309 128.291 l
96.7549 128.291 l
97.7469 157.091 l
162.227 157.091 l
163.219 185.891 l
178.099 185.891 l
179.091 214.691 l
254.483 214.691 l
255.475 243.491 l
298.131 243.491 l
299.123 272.291 l
468.755 272.291 l
468.755 272.291 l
stroke
grestore
gsave
446.4 345.6 72 43.2 clipbox
72.9529 99.6655 m
73.9449 128.465 l
99.7369 128.465 l
100.729 157.265 l
208.857 157.265 l
209.849 186.065 l
225.721 186.065 l
226.713 214.865 l
314.009 214.865 l
315.001 243.665 l
448.921 243.665 l
449.913 272.465 l
468.761 272.465 l
468.761 272.465 l
stroke
grestore
gsave
446.4 345.6 72 43.2 clipbox
72.9589 99.84 m
75.9349 99.84 l
76.9269 128.64 l
105.695 128.64 l
106.687 157.44 l
132.479 157.44 l
133.471 186.24 l
162.239 186.24 l
163.231 215.04 l
226.719 215.04 l
227.711 243.84 l
309.055 243.84 l
310.047 272.64 l
465.791 272.64 l
466.783 301.44 l
468.767 301.44 l
468.767 301.44 l
stroke
grestore
gsave
446.4 345.6 72 43.2 clipbox
72.9649 100.015 m
142.405 100.015 l
143.397 128.815 l
153.317 128.815 l
154.309 157.615 l
184.069 157.615 l
185.061 186.415 l
195.973 186.415 l
196.965 215.215 l
308.069 215.215 l
309.061 244.015 l
322.949 244.015 l
323.941 272.815 l
468.773 272.815 l
468.773 272.815 l
stroke
grestore
gsave
446.4 345.6 72 43.2 clipbox
72.971 100.189 m
115.627 100.189 l
116.619 128.989 l
468.779 128.989 l
468.779 128.989 l
stroke
grestore
gsave
446.4 345.6 72 43.2 clipbox
72.977 100.364 m
262.449 100.364 l
263.441 129.164 l
468.785 129.164 l
468.785 129.164 l
stroke
grestore
gsave
446.4 345.6 72 43.2 clipbox
72.983 100.538 m
136.471 100.538 l
137.463 129.338 l
196.983 129.338 l
197.975 158.138 l
468.791 158.138 l
468.791 158.138 l
stroke
grestore
gsave
446.4 345.6 72 43.2 clipbox
72.989 100.713 m
161.277 100.713 l
162.269 129.513 l
193.021 129.513 l
194.013 158.313 l
200.957 158.313 l
201.949 187.113 l
229.725 187.113 l
230.717 215.913 l
231.709 215.913 l
232.701 244.713 l
257.501 244.713 l
258.493 273.513 l
307.101 273.513 l
308.093 302.313 l
468.797 302.313 l
468.797 302.313 l
stroke
grestore
gsave
446.4 345.6 72 43.2 clipbox
72.995 100.887 m
92.835 100.887 l
93.827 129.687 l
141.443 129.687 l
142.435 158.487 l
214.851 158.487 l
215.843 187.287 l
232.707 187.287 l
233.699 216.087 l
268.419 216.087 l
269.411 244.887 l
468.803 244.887 l
468.803 244.887 l
stroke
grestore
gsave
446.4 345.6 72 43.2 clipbox
73.001 101.062 m
73.993 101.062 l
74.985 101.062 l
75.977 129.862 l
87.881 129.862 l
88.873 158.662 l
92.841 158.662 l
93.833 187.462 l
202.953 187.462 l
203.945 216.262 l
250.569 216.262 l
251.561 245.062 l
283.305 245.062 l
284.297 273.862 l
468.809 273.862 l
468.809 273.862 l
stroke
grestore
gsave
446.4 345.6 72 43.2 clipbox
73.007 101.236 m
208.911 101.236 l
209.903 130.036 l
278.351 130.036 l
279.343 158.836 l
468.815 158.836 l
468.815 158.836 l
stroke
grestore
gsave
446.4 345.6 72 43.2 clipbox
73.013 101.411 m
86.901 101.411 l
87.893 130.211 l
88.885 130.211 l
89.877 159.011 l
105.749 159.011 l
106.741 187.811 l
107.733 187.811 l
108.725 216.611 l
116.661 216.611 l
117.653 245.411 l
163.285 245.411 l
164.277 274.211 l
190.069 274.211 l
191.061 303.011 l
203.957 303.011 l
204.949 331.811 l
369.621 331.811 l
370.613 360.611 l
468.821 360.611 l
468.821 360.611 l
stroke
grestore
gsave
446.4 345.6 72 43.2 clipbox
73.0191 101.585 m
98.8111 101.585 l
99.8031 130.385 l
124.603 130.385 l
125.595 159.185 l
158.331 159.185 l
159.323 187.985 l
163.291 187.985 l
164.283 216.785 l
213.883 216.785 l
214.875 245.585 l
223.803 245.585 l
224.795 274.385 l
263.483 274.385 l
264.475 303.185 l
468.827 303.185 l
468.827 303.185 l
stroke
grestore
gsave
446.4 345.6 72 43.2 clipbox
73.0251 101.76 m
93.8571 101.76 l
94.8491 130.56 l
262.497 130.56 l
263.489 159.36 l
316.065 159.36 l
317.057 188.16 l
426.177 188.16 l
427.169 216.96 l
468.833 216.96 l
468.833 216.96 l
stroke
grestore
gsave
446.4 345.6 72 43.2 clipbox
73.0311 101.935 m
140.487 101.935 l
141.479 130.735 l
163.303 130.735 l
164.295 159.535 l
184.135 159.535 l
185.127 188.335 l
273.415 188.335 l
274.407 217.135 l
468.839 217.135 l
468.839 217.135 l
stroke
grestore
gsave
446.4 345.6 72 43.2 clipbox
73.0371 102.109 m
99.8211 102.109 l
100.813 130.909 l
262.509 130.909 l
263.501 159.709 l
334.925 159.709 l
335.917 188.509 l
351.789 188.509 l
352.781 217.309 l
361.709 217.309 l
362.701 246.109 l
449.005 246.109 l
449.997 274.909 l
468.845 274.909 l
468.845 274.909 l
stroke
grestore
gsave
446.4 345.6 72 43.2 clipbox
73.0431 102.284 m
322.035 102.284 l
323.027 131.084 l
458.931 131.084 l
459.923 159.884 l
468.851 159.884 l
468.851 159.884 l
stroke
grestore
gsave
446.4 345.6 72 43.2 clipbox
73.0491 102.458 m
468.857 102.458 l
468.857 102.458 l
stroke
grestore
gsave
446.4 345.6 72 43.2 clipbox
73.0551 102.633 m
256.575 102.633 l
257.567 131.433 l
278.399 131.433 l
279.391 160.233 l
404.383 160.233 l
405.375 189.033 l
429.183 189.033 l
430.175 217.833 l
468.863 217.833 l
468.863 217.833 l
stroke
grestore
gsave
446.4 345.6 72 43.2 clipbox
73.0611 102.807 m
115.717 102.807 l
116.709 131.607 l
410.341 131.607 l
411.333 160.407 l
468.869 160.407 l
468.869 160.407 l
stroke
grestore
gsave
446.4 345.6 72 43.2 clipbox
73.0672 102.982 m
104.811 102.982 l
106.795 160.582 l
116.715 160.582 l
117.707 189.382 l
120.683 189.382 l
121.675 218.182 l
186.155 218.182 l
187.147 246.982 l
202.027 246.982 l
203.019 275.782 l
375.627 275.782 l
376.619 304.582 l
468.875 304.582 l
468.875 304.582 l
stroke
grestore
gsave
446.4 345.6 72 43.2 clipbox
73.0732 103.156 m
87.9532 103.156 l
88.9452 131.956 l
117.713 131.956 l
118.705 160.756 l
156.401 160.756 l
157.393 189.556 l
453.009 189.556 l
454.001 218.356 l
456.977 218.356 l
457.969 247.156 l
468.881 247.156 l
468.881 247.156 l
stroke
grestore
gsave
446.4 345.6 72 43.2 clipbox
73.0792 132.131 m
85.9752 132.131 l
86.9672 160.931 l
121.687 160.931 l
122.679 189.731 l
171.287 189.731 l
172.279 218.531 l
353.815 218.531 l
354.807 247.331 l
468.887 247.331 l
468.887 247.331 l
stroke
grestore
gsave
446.4 345.6 72 43.2 clipbox
73.0852 103.505 m
110.781 103.505 l
111.773 132.305 l
131.613 132.305 l
132.605 161.105 l
468.893 161.105 l
468.893 161.105 l
stroke
grestore
gsave
446.4 345.6 72 43.2 clipbox
73.0912 103.68 m
276.451 103.68 l
277.443 132.48 l
468.899 132.48 l
468.899 132.48 l
stroke
grestore
gsave
446.4 345.6 72 43.2 clipbox
73.0972 103.855 m
91.9452 103.855 l
92.9372 132.655 l
108.809 132.655 l
109.801 161.455 l
124.681 161.455 l
125.673 190.255 l
142.537 190.255 l
143.529 219.055 l
380.617 219.055 l
381.609 247.855 l
454.025 247.855 l
455.017 276.655 l
468.905 276.655 l
468.905 276.655 l
stroke
grestore
gsave
446.4 345.6 72 43.2 clipbox
73.1032 104.029 m
87.9832 104.029 l
88.9752 132.829 l
109.807 132.829 l
110.799 161.629 l
208.015 161.629 l
209.007 190.429 l
243.727 190.429 l
244.719 219.229 l
390.543 219.229 l
391.535 248.029 l
394.511 248.029 l
395.503 276.829 l
468.911 276.829 l
468.911 276.829 l
stroke
grestore
gsave
446.4 345.6 72 43.2 clipbox
73.1092 104.204 m
125.685 104.204 l
126.677 133.004 l
156.437 133.004 l
157.429 161.804 l
181.237 161.804 l
182.229 190.604 l
468.917 190.604 l
468.917 190.604 l
stroke
grestore
gsave
446.4 345.6 72 43.2 clipbox
73.1152 104.378 m
129.659 104.378 l
130.651 133.178 l
212.987 133.178 l
213.979 161.978 l
295.323 161.978 l
296.315 190.778 l
468.923 190.778 l
468.923 190.778 l
stroke
grestore
gsave
446.4 345.6 72 43.2 clipbox
73.1213 104.553 m
192.161 104.553 l
193.153 133.353 l
249.697 133.353 l
250.689 162.153 l
276.481 162.153 l
277.473 190.953 l
468.929 190.953 l
468.929 190.953 l
stroke
grestore
gsave
446.4 345.6 72 43.2 clipbox
73.1273 104.727 m
97.9273 104.727 l
98.9193 133.527 l
378.663 133.527 l
379.655 162.327 l
405.447 162.327 l
406.439 191.127 l
468.935 191.127 l
468.935 191.127 l
stroke
grestore
gsave
446.4 345.6 72 43.2 clipbox
73.1333 104.902 m
110.829 104.902 l
111.821 133.702 l
113.805 133.702 l
114.797 162.502 l
115.789 162.502 l
116.781 191.302 l
233.837 191.302 l
234.829 220.102 l
309.229 220.102 l
310.221 248.902 l
342.957 248.902 l
343.949 277.702 l
468.941 277.702 l
468.941 277.702 l
stroke
grestore
gsave
446.4 345.6 72 43.2 clipbox
73.1393 105.076 m
119.763 105.076 l
120.755 133.876 l
210.035 133.876 l
211.027 162.676 l
214.003 162.676 l
214.995 191.476 l
275.507 191.476 l
276.499 220.276 l
289.395 220.276 l
290.387 249.076 l
468.947 249.076 l
468.947 249.076 l
stroke
grestore
gsave
446.4 345.6 72 43.2 clipbox
73.1453 105.251 m
145.561 105.251 l
146.553 134.051 l
150.521 134.051 l
151.513 162.851 l
182.265 162.851 l
183.257 191.651 l
226.905 191.651 l
227.897 220.451 l
374.713 220.451 l
375.705 249.251 l
428.281 249.251 l
429.273 278.051 l
468.953 278.051 l
468.953 278.051 l
stroke
grestore
gsave
446.4 345.6 72 43.2 clipbox
73.1513 105.425 m
76.1273 105.425 l
77.1193 134.225 l
120.767 134.225 l
121.759 163.025 l
295.359 163.025 l
296.351 191.825 l
308.255 191.825 l
309.247 220.625 l
316.191 220.625 l
317.183 249.425 l
468.959 249.425 l
468.959 249.425 l
stroke
grestore
gsave
446.4 345.6 72 43.2 clipbox
73.1573 105.6 m
92.0053 105.6 l
92.9973 134.4 l
152.517 134.4 l
153.509 163.2 l
196.165 163.2 l
197.157 192 l
270.565 192 l
271.557 220.8 l
296.357 220.8 l
297.349 249.6 l
468.965 249.6 l
468.965 249.6 l
stroke
grestore
gsave
446.4 345.6 72 43.2 clipbox
73.1633 105.775 m
76.1393 105.775 l
77.1313 134.575 l
94.9873 134.575 l
95.9793 163.375 l
136.651 163.375 l
137.643 192.175 l
195.179 192.175 l
196.171 220.975 l
234.859 220.975 l
235.851 249.775 l
270.571 249.775 l
271.563 278.575 l
433.259 278.575 l
434.251 307.375 l
468.971 307.375 l
468.971 307.375 l
stroke
grestore
gsave
446.4 345.6 72 43.2 clipbox
73.1694 105.949 m
84.0814 105.949 l
85.0734 134.749 l
93.0094 134.749 l
94.0014 163.549 l
98.9614 163.549 l
99.9534 192.349 l
106.897 192.349 l
107.889 221.149 l
108.881 221.149 l
109.873 249.949 l
127.729 249.949 l
128.721 278.749 l
272.561 278.749 l
273.553 307.549 l
385.649 307.549 l
386.641 336.349 l
468.977 336.349 l
468.977 336.349 l
stroke
grestore
gsave
446.4 345.6 72 43.2 clipbox
73.1754 106.124 m
109.879 106.124 l
110.871 134.924 l
112.855 134.924 l
113.847 163.724 l
279.511 163.724 l
280.503 192.524 l
334.071 192.524 l
335.063 221.324 l
409.463 221.324 l
410.455 250.124 l
468.983 250.124 l
468.983 250.124 l
stroke
grestore
gsave
446.4 345.6 72 43.2 clipbox
73.1814 106.298 m
99.9654 106.298 l
100.957 135.098 l
378.717 135.098 l
379.709 163.898 l
405.501 163.898 l
406.493 192.698 l
410.461 192.698 l
411.453 221.498 l
468.989 221.498 l
468.989 221.498 l
stroke
grestore
gsave
446.4 345.6 72 43.2 clipbox
73.1874 106.473 m
126.755 106.473 l
127.747 135.273 l
208.099 135.273 l
209.091 164.073 l
252.739 164.073 l
253.731 192.873 l
277.539 192.873 l
278.531 221.673 l
327.139 221.673 l
328.131 250.473 l
468.995 250.473 l
468.995 250.473 l
stroke
grestore
gsave
446.4 345.6 72 43.2 clipbox
73.1934 106.647 m
441.225 106.647 l
443.209 164.247 l
463.049 164.247 l
464.041 193.047 l
469.001 193.047 l
469.001 193.047 l
stroke
grestore
gsave
446.4 345.6 72 43.2 clipbox
73.1994 106.822 m
81.1354 106.822 l
82.1274 135.622 l
204.143 135.622 l
205.135 164.422 l
253.743 164.422 l
254.735 193.222 l
315.247 193.222 l
316.239 222.022 l
387.663 222.022 l
388.655 250.822 l
469.007 250.822 l
469.007 250.822 l
stroke
grestore
gsave
446.4 345.6 72 43.2 clipbox
73.2054 106.996 m
231.925 106.996 l
232.917 135.796 l
236.885 135.796 l
237.877 164.596 l
256.725 164.596 l
257.717 193.396 l
287.477 193.396 l
288.469 222.196 l
469.013 222.196 l
469.013 222.196 l
stroke
grestore
gsave
446.4 345.6 72 43.2 clipbox
73.2114 107.171 m
91.0674 107.171 l
92.0594 135.971 l
412.475 135.971 l
413.467 164.771 l
469.019 164.771 l
469.019 164.771 l
stroke
grestore
gsave
446.4 345.6 72 43.2 clipbox
73.2175 107.345 m
254.753 107.345 l
255.745 136.145 l
301.377 136.145 l
302.369 164.945 l
469.025 164.945 l
469.025 164.945 l
stroke
grestore
gsave
446.4 345.6 72 43.2 clipbox
73.2235 107.52 m
165.479 107.52 l
166.471 136.32 l
244.839 136.32 l
245.831 165.12 l
469.031 165.12 l
469.031 165.12 l
stroke
grestore
gsave
446.4 345.6 72 43.2 clipbox
73.2295 107.695 m
96.0455 107.695 l
97.0375 136.495 l
128.781 136.495 l
129.773 165.295 l
348.013 165.295 l
349.005 194.095 l
469.037 194.095 l
469.037 194.095 l
stroke
grestore
gsave
446.4 345.6 72 43.2 clipbox
73.2355 107.869 m
175.411 107.869 l
176.403 136.669 l
282.547 136.669 l
283.539 165.469 l
354.963 165.469 l
355.955 194.269 l
469.043 194.269 l
469.043 194.269 l
stroke
grestore
gsave
446.4 345.6 72 43.2 clipbox
73.2415 108.044 m
88.1215 108.044 l
89.1135 136.844 l
111.93 136.844 l
112.922 165.644 l
140.698 165.644 l
141.69 194.444 l
172.442 194.444 l
173.434 223.244 l
181.37 223.244 l
182.362 252.044 l
469.05 252.044 l
469.05 252.044 l
stroke
grestore
gsave
446.4 345.6 72 43.2 clipbox
73.2475 108.218 m
104 108.218 l
104.992 137.018 l
130.784 137.018 l
131.776 165.818 l
173.44 165.818 l
174.432 194.618 l
223.04 194.618 l
224.032 223.418 l
363.904 223.418 l
364.896 252.218 l
375.808 252.218 l
376.8 281.018 l
404.576 281.018 l
405.568 309.818 l
418.464 309.818 l
419.456 338.618 l
469.056 338.618 l
469.056 338.618 l
stroke
grestore
gsave
446.4 345.6 72 43.2 clipbox
73.2535 108.393 m
95.0775 108.393 l
96.0695 137.193 l
98.0535 137.193 l
99.0455 165.993 l
131.782 165.993 l
132.774 194.793 l
469.062 194.793 l
469.062 194.793 l
stroke
grestore
gsave
446.4 345.6 72 43.2 clipbox
73.2595 108.567 m
140.716 108.567 l
141.708 137.367 l
291.5 137.367 l
292.492 166.167 l
308.364 166.167 l
309.356 194.967 l
404.588 194.967 l
406.572 252.567 l
469.068 252.567 l
469.068 252.567 l
stroke
grestore
gsave
446.4 345.6 72 43.2 clipbox
73.2656 108.742 m
79.2176 108.742 l
80.2096 137.542 l
260.754 137.542 l
261.746 166.342 l
304.402 166.342 l
305.394 195.142 l
311.346 195.142 l
312.338 223.942 l
469.074 223.942 l
469.074 223.942 l
stroke
grestore
gsave
446.4 345.6 72 43.2 clipbox
73.2716 108.916 m
105.016 108.916 l
106.008 137.716 l
189.336 137.716 l
190.328 166.516 l
469.08 166.516 l
469.08 166.516 l
stroke
grestore
gsave
446.4 345.6 72 43.2 clipbox
73.2776 109.091 m
128.83 109.091 l
129.822 137.891 l
155.614 137.891 l
156.606 166.691 l
249.854 166.691 l
250.846 195.491 l
298.462 195.491 l
299.454 224.291 l
320.286 224.291 l
321.278 253.091 l
355.998 253.091 l
356.99 281.891 l
469.086 281.891 l
469.086 281.891 l
stroke
grestore
gsave
446.4 345.6 72 43.2 clipbox
73.2836 109.265 m
77.2516 109.265 l
78.2436 138.065 l
148.676 138.065 l
149.668 166.865 l
233.988 166.865 l
234.98 195.665 l
394.692 195.665 l
395.684 224.465 l
428.42 224.465 l
429.412 253.265 l
469.092 253.265 l
469.092 253.265 l
stroke
grestore
gsave
446.4 345.6 72 43.2 clipbox
73.2896 109.44 m
172.49 109.44 l
173.482 138.24 l
202.25 138.24 l
203.242 167.04 l
278.634 167.04 l
279.626 195.84 l
338.154 195.84 l
339.146 224.64 l
469.098 224.64 l
469.098 224.64 l
stroke
grestore
0 setlinecap
0.000 setgray
gsave
/o {
gsave
newpath
translate
0.5 setlinewidth
1 setlinejoin
0 setlinecap
0 0 m
0 4 l
gsave
0.000 setgray
fill
grestore
stroke
grestore
} bind def
72 43.2 o
grestore
gsave
/o {
gsave
newpath
translate
0.5 setlinewidth
1 setlinejoin
0 setlinecap
0 0 m
0 -4 l
gsave
0.000 setgray
fill
grestore
stroke
grestore
} bind def
72 388.8 o
grestore
/DejaVuSans findfont
14.000 scalefont
setfont
gsave
68.468750 28.606250 translate
0.000000 rotate
0.000000 0.203125 m /zero glyphshow
grestore
gsave
/o {
gsave
newpath
translate
0.5 setlinewidth
1 setlinejoin
0 setlinecap
0 0 m
0 4 l
gsave
0.000 setgray
fill
grestore
stroke
grestore
} bind def
121.6 43.2 o
grestore
gsave
/o {
gsave
newpath
translate
0.5 setlinewidth
1 setlinejoin
0 setlinecap
0 0 m
0 -4 l
gsave
0.000 setgray
fill
grestore
stroke
grestore
} bind def
121.6 388.8 o
grestore
gsave
113.693750 28.606250 translate
0.000000 rotate
0.000000 0.203125 m /five glyphshow
8.907227 0.203125 m /zero glyphshow
grestore
gsave
/o {
gsave
newpath
translate
0.5 setlinewidth
1 setlinejoin
0 setlinecap
0 0 m
0 4 l
gsave
0.000 setgray
fill
grestore
stroke
grestore
} bind def
171.2 43.2 o
grestore
gsave
/o {
gsave
newpath
translate
0.5 setlinewidth
1 setlinejoin
0 setlinecap
0 0 m
0 -4 l
gsave
0.000 setgray
fill
grestore
stroke
grestore
} bind def
171.2 388.8 o
grestore
gsave
159.075000 28.606250 translate
0.000000 rotate
0.000000 0.203125 m /one glyphshow
8.907227 0.203125 m /zero glyphshow
17.814453 0.203125 m /zero glyphshow
grestore
gsave
/o {
gsave
newpath
translate
0.5 setlinewidth
1 setlinejoin
0 setlinecap
0 0 m
0 4 l
gsave
0.000 setgray
fill
grestore
stroke
grestore
} bind def
220.8 43.2 o
grestore
gsave
/o {
gsave
newpath
translate
0.5 setlinewidth
1 setlinejoin
0 setlinecap
0 0 m
0 -4 l
gsave
0.000 setgray
fill
grestore
stroke
grestore
} bind def
220.8 388.8 o
grestore
gsave
208.675000 28.606250 translate
0.000000 rotate
0.000000 0.203125 m /one glyphshow
8.907227 0.203125 m /five glyphshow
17.814453 0.203125 m /zero glyphshow
grestore
gsave
/o {
gsave
newpath
translate
0.5 setlinewidth
1 setlinejoin
0 setlinecap
0 0 m
0 4 l
gsave
0.000 setgray
fill
grestore
stroke
grestore
} bind def
270.4 43.2 o
grestore
gsave
/o {
gsave
newpath
translate
0.5 setlinewidth
1 setlinejoin
0 setlinecap
0 0 m
0 -4 l
gsave
0.000 setgray
fill
grestore
stroke
grestore
} bind def
270.4 388.8 o
grestore
gsave
258.017187 28.606250 translate
0.000000 rotate
0.000000 0.203125 m /two glyphshow
8.907227 0.203125 m /zero glyphshow
17.814453 0.203125 m /zero glyphshow
grestore
gsave
/o {
gsave
newpath
translate
0.5 setlinewidth
1 setlinejoin
0 setlinecap
0 0 m
0 4 l
gsave
0.000 setgray
fill
grestore
stroke
grestore
} bind def
320 43.2 o
grestore
gsave
/o {
gsave
newpath
translate
0.5 setlinewidth
1 setlinejoin
0 setlinecap
0 0 m
0 -4 l
gsave
0.000 setgray
fill
grestore
stroke
grestore
} bind def
320 388.8 o
grestore
gsave
307.617188 28.606250 translate
0.000000 rotate
0.000000 0.203125 m /two glyphshow
8.907227 0.203125 m /five glyphshow
17.814453 0.203125 m /zero glyphshow
grestore
gsave
/o {
gsave
newpath
translate
0.5 setlinewidth
1 setlinejoin
0 setlinecap
0 0 m
0 4 l
gsave
0.000 setgray
fill
grestore
stroke
grestore
} bind def
369.6 43.2 o
grestore
gsave
/o {
gsave
newpath
translate
0.5 setlinewidth
1 setlinejoin
0 setlinecap
0 0 m
0 -4 l
gsave
0.000 setgray
fill
grestore
stroke
grestore
} bind def
369.6 388.8 o
grestore
gsave
357.232813 28.606250 translate
0.000000 rotate
0.000000 0.203125 m /three glyphshow
8.907227 0.203125 m /zero glyphshow
17.814453 0.203125 m /zero glyphshow
grestore
gsave
/o {
gsave
newpath
translate
0.5 setlinewidth
1 setlinejoin
0 setlinecap
0 0 m
0 4 l
gsave
0.000 setgray
fill
grestore
stroke
grestore
} bind def
419.2 43.2 o
grestore
gsave
/o {
gsave
newpath
translate
0.5 setlinewidth
1 setlinejoin
0 setlinecap
0 0 m
0 -4 l
gsave
0.000 setgray
fill
grestore
stroke
grestore
} bind def
419.2 388.8 o
grestore
gsave
406.832812 28.606250 translate
0.000000 rotate
0.000000 0.203125 m /three glyphshow
8.907227 0.203125 m /five glyphshow
17.814453 0.203125 m /zero glyphshow
grestore
gsave
/o {
gsave
newpath
translate
0.5 setlinewidth
1 setlinejoin
0 setlinecap
0 0 m
0 4 l
gsave
0.000 setgray
fill
grestore
stroke
grestore
} bind def
468.8 43.2 o
grestore
gsave
/o {
gsave
newpath
translate
0.5 setlinewidth
1 setlinejoin
0 setlinecap
0 0 m
0 -4 l
gsave
0.000 setgray
fill
grestore
stroke
grestore
} bind def
468.8 388.8 o
grestore
gsave
456.245313 28.606250 translate
0.000000 rotate
0.000000 0.203125 m /four glyphshow
8.907227 0.203125 m /zero glyphshow
17.814453 0.203125 m /zero glyphshow
grestore
gsave
/o {
gsave
newpath
translate
0.5 setlinewidth
1 setlinejoin
0 setlinecap
0 0 m
0 4 l
gsave
0.000 setgray
fill
grestore
stroke
grestore
} bind def
518.4 43.2 o
grestore
gsave
/o {
gsave
newpath
translate
0.5 setlinewidth
1 setlinejoin
0 setlinecap
0 0 m
0 -4 l
gsave
0.000 setgray
fill
grestore
stroke
grestore
} bind def
518.4 388.8 o
grestore
gsave
505.845312 28.606250 translate
0.000000 rotate
0.000000 0.203125 m /four glyphshow
8.907227 0.203125 m /five glyphshow
17.814453 0.203125 m /zero glyphshow
grestore
gsave
258.348437 10.059375 translate
0.000000 rotate
0.000000 2.906250 m /numbersign glyphshow
11.730469 2.906250 m /space glyphshow
16.180664 2.906250 m /s glyphshow
23.474609 2.906250 m /a glyphshow
32.053711 2.906250 m /m glyphshow
45.691406 2.906250 m /p glyphshow
54.578125 2.906250 m /l glyphshow
58.467773 2.906250 m /e glyphshow
67.081055 2.906250 m /s glyphshow
grestore
gsave
/o {
gsave
newpath
translate
0.5 setlinewidth
1 setlinejoin
0 setlinecap
0 0 m
4 0 l
gsave
0.000 setgray
fill
grestore
stroke
grestore
} bind def
72 43.2 o
grestore
gsave
/o {
gsave
newpath
translate
0.5 setlinewidth
1 setlinejoin
0 setlinecap
0 0 m
-4 0 l
gsave
0.000 setgray
fill
grestore
stroke
grestore
} bind def
518.4 43.2 o
grestore
gsave
50.250000 38.004687 translate
0.000000 rotate
0.000000 0.000000 m /minus glyphshow
11.730469 0.000000 m /two glyphshow
grestore
gsave
/o {
gsave
newpath
translate
0.5 setlinewidth
1 setlinejoin
0 setlinecap
0 0 m
4 0 l
gsave
0.000 setgray
fill
grestore
stroke
grestore
} bind def
72 100.8 o
grestore
gsave
/o {
gsave
newpath
translate
0.5 setlinewidth
1 setlinejoin
0 setlinecap
0 0 m
-4 0 l
gsave
0.000 setgray
fill
grestore
stroke
grestore
} bind def
518.4 100.8 o
grestore
gsave
60.937500 95.503125 translate
0.000000 rotate
0.000000 0.203125 m /zero glyphshow
grestore
gsave
/o {
gsave
newpath
translate
0.5 setlinewidth
1 setlinejoin
0 setlinecap
0 0 m
4 0 l
gsave
0.000 setgray
fill
grestore
stroke
grestore
} bind def
72 158.4 o
grestore
gsave
/o {
gsave
newpath
translate
0.5 setlinewidth
1 setlinejoin
0 setlinecap
0 0 m
-4 0 l
gsave
0.000 setgray
fill
grestore
stroke
grestore
} bind def
518.4 158.4 o
grestore
gsave
61.531250 153.204687 translate
0.000000 rotate
0.000000 0.000000 m /two glyphshow
grestore
gsave
/o {
gsave
newpath
translate
0.5 setlinewidth
1 setlinejoin
0 setlinecap
0 0 m
4 0 l
gsave
0.000 setgray
fill
grestore
stroke
grestore
} bind def
72 216 o
grestore
gsave
/o {
gsave
newpath
translate
0.5 setlinewidth
1 setlinejoin
0 setlinecap
0 0 m
-4 0 l
gsave
0.000 setgray
fill
grestore
stroke
grestore
} bind def
518.4 216 o
grestore
gsave
60.562500 210.898438 translate
0.000000 rotate
0.000000 0.000000 m /four glyphshow
grestore
gsave
/o {
gsave
newpath
translate
0.5 setlinewidth
1 setlinejoin
0 setlinecap
0 0 m
4 0 l
gsave
0.000 setgray
fill
grestore
stroke
grestore
} bind def
72 273.6 o
grestore
gsave
/o {
gsave
newpath
translate
0.5 setlinewidth
1 setlinejoin
0 setlinecap
0 0 m
-4 0 l
gsave
0.000 setgray
fill
grestore
stroke
grestore
} bind def
518.4 273.6 o
grestore
gsave
60.953125 268.303125 translate
0.000000 rotate
0.000000 0.203125 m /six glyphshow
grestore
gsave
/o {
gsave
newpath
translate
0.5 setlinewidth
1 setlinejoin
0 setlinecap
0 0 m
4 0 l
gsave
0.000 setgray
fill
grestore
stroke
grestore
} bind def
72 331.2 o
grestore
gsave
/o {
gsave
newpath
translate
0.5 setlinewidth
1 setlinejoin
0 setlinecap
0 0 m
-4 0 l
gsave
0.000 setgray
fill
grestore
stroke
grestore
} bind def
518.4 331.2 o
grestore
gsave
61.000000 325.903125 translate
0.000000 rotate
0.000000 0.203125 m /eight glyphshow
grestore
gsave
/o {
gsave
newpath
translate
0.5 setlinewidth
1 setlinejoin
0 setlinecap
0 0 m
4 0 l
gsave
0.000 setgray
fill
grestore
stroke
grestore
} bind def
72 388.8 o
grestore
gsave
/o {
gsave
newpath
translate
0.5 setlinewidth
1 setlinejoin
0 setlinecap
0 0 m
-4 0 l
gsave
0.000 setgray
fill
grestore
stroke
grestore
} bind def
518.4 388.8 o
grestore
gsave
52.656250 383.503125 translate
0.000000 rotate
0.000000 0.203125 m /one glyphshow
8.907227 0.203125 m /zero glyphshow
grestore
gsave
45.250000 182.101562 translate
90.000000 rotate
0.000000 2.906250 m /numbersign glyphshow
11.730469 2.906250 m /space glyphshow
16.180664 2.906250 m /s glyphshow
23.474609 2.906250 m /p glyphshow
32.361328 2.906250 m /e glyphshow
40.974609 2.906250 m /c glyphshow
48.671875 2.906250 m /i glyphshow
52.561523 2.906250 m /e glyphshow
61.174805 2.906250 m /s glyphshow
grestore
1.000 setlinewidth
2 setlinecap
gsave
72 388.8 m
518.4 388.8 l
stroke
grestore
gsave
518.4 43.2 m
518.4 388.8 l
stroke
grestore
gsave
72 43.2 m
518.4 43.2 l
stroke
grestore
gsave
72 43.2 m
72 388.8 l
stroke
grestore

end
showpage
